node,RQ_CLOSE,RQ_CREATE,RQ_FLUSH,RQ_GETEOI,RQ_LOOKUP,RQ_OPEN,RQ_PARALLEL_WRITE,RQ_PERMISSION,RQ_STATFS,aio_write,d_create,d_lookup,d_permission,d_revalidate,evict_inode,f_permission,flush,llseek,open,release,show_options,statfs,unlocked_ioctl,write,write_max,write_min
nid00032,586,1,553,1,4,585,6162,1,3,274,1,4,73,67,2,33,33,276,33,33,6,3,3,274,17145856,40
nid00033,576,0,544,0,2,576,6144,32,0,256,0,2,64,62,2,32,32,256,32,32,2,0,0,256,17145856,14196736
nid00034,576,0,544,0,2,576,6144,32,0,256,0,2,64,62,2,32,32,256,32,32,2,0,0,256,17145856,14196736
nid00035,576,0,544,0,2,576,6144,32,0,256,0,2,64,62,2,32,32,256,32,32,2,0,0,256,17145856,14196736
nid00036,576,0,544,0,2,576,6144,32,0,256,0,2,64,62,2,32,32,256,32,32,2,0,0,256,17145856,14196736
nid00037,576,0,544,0,2,576,6144,32,0,256,0,2,64,62,2,32,32,256,32,32,2,0,0,256,17145856,14196736
nid00038,576,0,544,0,2,576,6144,32,0,256,0,2,64,62,0,32,32,256,32,32,2,0,0,256,17145856,14196736
nid00039,576,0,544,0,2,576,6144,32,0,256,0,2,64,62,2,32,32,256,32,32,2,0,0,256,17145856,14196736
nid00048,576,0,544,0,2,576,6144,32,0,256,0,2,64,62,2,32,32,256,32,32,2,0,0,256,17145856,14196736
nid00049,576,0,544,0,2,576,6144,32,0,256,0,2,64,62,2,32,32,256,32,32,2,0,0,256,17145856,14196736
nid00050,576,0,544,0,2,576,6144,32,0,256,0,2,64,62,2,32,32,256,32,32,2,0,0,256,17145856,14196736
nid00051,576,0,544,0,2,576,6144,32,0,256,0,2,64,62,2,32,32,256,32,32,2,0,0,256,17145856,14196736
nid00056,576,0,544,0,2,576,6144,32,0,256,0,2,64,62,2,32,32,256,32,32,2,0,0,256,17145856,14196736
nid00057,576,0,544,0,2,576,6144,32,0,256,0,2,64,62,2,32,32,256,32,32,2,0,0,256,17145856,14196736
nid00058,576,0,544,0,2,576,6144,32,0,256,0,2,64,62,2,32,32,256,32,32,2,0,0,256,17145856,14196736
nid00059,576,0,544,0,2,576,6144,32,0,256,0,2,64,62,0,32,32,256,32,32,2,0,0,256,17145856,14196736
nid00080,576,0,544,0,2,576,6144,32,0,256,0,2,64,62,2,32,32,256,32,32,2,0,0,256,17145856,14196736
nid00081,576,0,544,0,2,576,6144,32,0,256,0,2,64,62,2,32,32,256,32,32,2,0,0,256,17145856,14196736
nid00082,576,0,544,0,2,576,6144,32,0,256,0,2,64,62,2,32,32,256,32,32,2,0,0,256,17145856,14196736
nid00083,576,0,544,0,2,576,6144,32,0,256,0,2,64,62,2,32,32,256,32,32,2,0,0,256,17145856,14196736
nid00088,576,0,544,0,2,576,6144,32,0,256,0,2,64,62,2,32,32,256,32,32,2,0,0,256,17145856,14196736
nid00089,576,0,544,0,2,576,6144,32,0,256,0,2,64,62,2,32,32,256,32,32,2,0,0,256,17145856,14196736
nid00090,576,0,544,0,2,576,6144,32,0,256,0,2,64,62,2,32,32,256,32,32,2,0,0,256,17145856,14196736
nid00091,576,0,544,0,2,576,6144,32,0,256,0,2,64,62,2,32,32,256,32,32,2,0,0,256,17145856,14196736
nid00096,576,0,544,0,2,576,6144,32,0,256,0,2,64,62,2,32,32,256,32,32,2,0,0,256,17145856,14196736
nid00097,576,0,544,0,2,576,6144,32,0,256,0,2,64,62,2,32,32,256,32,32,2,0,0,256,17145856,14196736
nid00098,576,0,544,0,2,576,6144,32,0,256,0,2,64,62,2,32,32,256,32,32,2,0,0,256,17145856,14196736
nid00099,576,0,544,0,2,576,6144,32,0,256,0,2,64,62,2,32,32,256,32,32,2,0,0,256,17145856,14196736
nid00100,576,0,544,0,2,576,6144,32,0,256,0,2,64,62,2,32,32,256,32,32,2,0,0,256,17145856,14196736
nid00101,576,0,544,0,2,576,6144,32,0,256,0,2,64,62,2,32,32,256,32,32,2,0,0,256,17145856,14196736
nid00102,576,0,544,0,2,576,6144,32,0,256,0,2,64,62,2,32,32,256,32,32,2,0,0,256,17145856,14196736
nid00103,576,0,544,0,2,576,6144,32,0,256,0,2,64,62,2,32,32,256,32,32,2,0,0,256,17145856,14196736
nid00104,576,0,544,0,2,576,6144,32,0,256,0,2,64,62,2,32,32,256,32,32,2,0,0,256,17145856,14196736
nid00105,576,0,544,0,2,576,6144,32,0,256,0,2,64,62,0,32,32,256,32,32,2,0,0,256,17145856,14196736
nid00106,576,0,544,0,2,576,6144,32,0,256,0,2,64,62,2,32,32,256,32,32,2,0,0,256,17145856,14196736
nid00107,576,0,544,0,2,576,6144,32,0,256,0,2,64,62,2,32,32,256,32,32,2,0,0,256,17145856,14196736
nid00108,576,0,544,0,2,576,6144,32,0,256,0,2,64,62,2,32,32,256,32,32,2,0,0,256,17145856,14196736
nid00109,576,0,544,0,2,576,6144,32,0,256,0,2,64,62,2,32,32,256,32,32,2,0,0,256,17145856,14196736
nid00110,576,0,544,0,2,576,6144,32,0,256,0,2,64,62,2,32,32,256,32,32,2,0,0,256,17145856,14196736
nid00111,576,0,544,0,2,576,6144,32,0,256,0,2,64,62,2,32,32,256,32,32,2,0,0,256,17145856,14196736
nid00112,576,0,544,0,2,576,6144,32,0,256,0,2,64,62,2,32,32,256,32,32,2,0,0,256,17145856,14196736
nid00113,576,0,544,0,2,576,6144,32,0,256,0,2,64,62,2,32,32,256,32,32,2,0,0,256,17145856,14196736
nid00114,576,0,544,0,2,576,6144,32,0,256,0,2,64,62,2,32,32,256,32,32,2,0,0,256,17145856,14196736
nid00115,576,0,544,0,2,576,6144,32,0,256,0,2,64,62,2,32,32,256,32,32,2,0,0,256,17145856,14196736
nid00116,576,0,544,0,2,576,6144,32,0,256,0,2,64,62,0,32,32,256,32,32,2,0,0,256,17145856,14196736
nid00117,576,0,544,0,2,576,6144,32,0,256,0,2,64,62,2,32,32,256,32,32,2,0,0,256,17145856,14196736
nid00118,576,0,544,0,2,576,6144,32,0,256,0,2,64,62,0,32,32,256,32,32,2,0,0,256,17145856,14196736
nid00119,576,0,544,0,2,576,6144,32,0,256,0,2,64,62,2,32,32,256,32,32,2,0,0,256,17145856,14196736
nid00120,576,0,544,0,2,576,6144,32,0,256,0,2,64,62,2,32,32,256,32,32,2,0,0,256,17145856,14196736
nid00121,576,0,544,0,2,576,6144,32,0,256,0,2,64,62,2,32,32,256,32,32,2,0,0,256,17145856,14196736
nid00122,576,0,544,0,2,576,6144,32,0,256,0,2,64,62,2,32,32,256,32,32,2,0,0,256,17145856,14196736
nid00123,576,0,544,0,2,576,6144,32,0,256,0,2,64,62,2,32,32,256,32,32,2,0,0,256,17145856,14196736
nid00124,576,0,544,0,2,576,6144,32,0,256,0,2,64,62,2,32,32,256,32,32,2,0,0,256,17145856,14196736
nid00125,576,0,544,0,2,576,6144,32,0,256,0,2,64,62,2,32,32,256,32,32,2,0,0,256,17145856,14196736
nid00126,576,0,544,0,2,576,6144,32,0,256,0,2,64,62,2,32,32,256,32,32,2,0,0,256,17145856,14196736
nid00127,576,0,544,0,2,576,6144,32,0,256,0,2,64,62,2,32,32,256,32,32,2,0,0,256,17145856,14196736
nid00168,576,0,544,0,2,576,6144,32,0,256,0,2,64,62,2,32,32,256,32,32,2,0,0,256,17145856,14196736
nid00169,576,0,544,0,2,576,6144,32,0,256,0,2,64,62,2,32,32,256,32,32,2,0,0,256,17145856,14196736
nid00170,576,0,544,0,2,576,6144,32,0,256,0,2,64,62,2,32,32,256,32,32,2,0,0,256,17145856,14196736
nid00171,576,0,544,0,2,576,6144,32,0,256,0,2,64,62,2,32,32,256,32,32,2,0,0,256,17145856,14196736
nid00172,576,0,544,0,2,576,6144,32,0,256,0,2,64,62,2,32,32,256,32,32,2,0,0,256,17145856,14196736
nid00173,576,0,544,0,2,576,6144,32,0,256,0,2,64,62,2,32,32,256,32,32,2,0,0,256,17145856,14196736
nid00174,576,0,544,0,2,576,6144,32,0,256,0,2,64,62,2,32,32,256,32,32,2,0,0,256,17145856,14196736
nid00175,576,0,544,0,2,576,6144,32,0,256,0,2,64,62,2,32,32,256,32,32,2,0,0,256,17145856,14196736
