Running VPIC-IO with 2K processes, 64BB nodes, matched
     pool units quantity      free      gran 
test_pool bytes  5.82TiB   5.82TiB     16MiB 
 wlm_pool bytes 832.5TiB 743.51TiB 212.91GiB 

sess state   token creator owner             created expiration nodes 
3132 CA--- 1263607   SLURM 69107 2016-03-04T04:41:17      never    64 
3134 D---- 1263610   SLURM 69107 2016-03-04T04:42:08      never     0 

inst state sess     bytes nodes             created expiration intact          label public confs 
1162 CA--- 1342 212.91GiB     1 2016-01-21T01:50:01      never   true       andreyBB   true     1 
1257 CA--- 1457 212.91GiB     1 2016-01-25T14:25:04      never   true       djbTest2   true     1 
1337 CA--- 1551   2.08TiB    10 2016-01-28T13:11:38      never   true DJBpbbcombine7   true     1 
1472 CA--- 1706 212.91GiB     1 2016-02-01T11:58:12      never   true        MelTest   true     1 
1475 CA--- 1710 425.81GiB     2 2016-02-01T14:09:01      never   true       MelTest2   true     1 
1589 CA--- 1826   2.08TiB    10 2016-02-02T20:32:37      never   true  DJBmlrefine19   true     1 
2232 CA--- 2515 425.81GiB     2 2016-02-19T12:09:21      never   true       XuanCami   true     1 
2234 CA--- 2520 212.91GiB     1 2016-02-19T13:45:33      never   true       myBBname   true     1 
2337 CA--- 2708  30.15TiB   141 2016-02-24T13:30:33      never   true     regan_30TB   true     1 
2387 CA--- 2825 212.91GiB     1 2016-02-25T18:02:57      never   true        djbTest   true     1 
2388 CA--- 2827 212.91GiB     1 2016-02-25T18:05:58      never   true       djb_Test   true     1 
2550 CA--- 3041   1.04TiB     5 2016-03-02T15:01:02      never   true   gatkbrachy_2   true     1 
2555 CA--- 3046   2.08TiB    10 2016-03-02T16:39:18      never   true     mlrefine19   true     1 
2641 CA--- 3132  13.31TiB    64 2016-03-04T04:41:17      never   true        I3132-0  false     1 

conf state inst    type access_type activs 
1417 CA--- 1162 scratch      stripe      0 
1514 CA--- 1257 scratch      stripe      0 
1594 CA--- 1337 scratch      stripe      0 
1731 CA--- 1472 scratch      stripe      0 
1734 CA--- 1475 scratch      stripe      0 
1852 CA--- 1589 scratch      stripe      0 
2503 CA--- 2232 scratch      stripe      0 
2505 CA--- 2234 scratch      stripe      0 
2608 CA--- 2337 scratch      stripe      0 
2658 CA--- 2387 scratch      stripe      0 
2659 CA--- 2388 scratch      stripe      0 
2821 CA--- 2550 scratch      stripe      0 
2826 CA--- 2555 scratch      stripe      0 
2915 CA--- 2641 scratch      stripe      1 

 reg state sess conf wait 
3032 CA--- 3132 2915 true 

activ state sess conf nodes                                     mount 
 2880 CA--- 3132 2915    64 /var/opt/cray/dws/mounts/batch/1263607/ss 

 frag state inst  capacity gran     node 
30524  CA-- 1162 212.91GiB 4MiB nid01742 
32292  CA-- 1257 212.91GiB 4MiB nid00530 
33955  CA-- 1337 212.91GiB 4MiB nid01038 
33956  CA-- 1337 212.91GiB 4MiB nid00913 
33957  CA-- 1337 212.91GiB 4MiB nid02062 
33958  CA-- 1337 212.91GiB 4MiB nid01418 
33959  CA-- 1337 212.91GiB 4MiB nid01994 
33960  CA-- 1337 212.91GiB 4MiB nid00785 
33961  CA-- 1337 212.91GiB 4MiB nid00782 
33962  CA-- 1337 212.91GiB 4MiB nid00142 
33963  CA-- 1337 212.91GiB 4MiB nid02189 
33964  CA-- 1337 212.91GiB 4MiB nid00781 
39205  CA-- 1472 212.91GiB 4MiB nid00146 
39208  CA-- 1475 212.91GiB 4MiB nid01481 
39209  CA-- 1475 212.91GiB 4MiB nid01737 
41922  CA-- 1589 212.91GiB 4MiB nid01738 
41923  CA-- 1589 212.91GiB 4MiB nid01353 
41924  CA-- 1589 212.91GiB 4MiB nid00401 
41925  CA-- 1589 212.91GiB 4MiB nid02066 
41926  CA-- 1589 212.91GiB 4MiB nid00469 
41927  CA-- 1589 212.91GiB 4MiB nid00585 
41928  CA-- 1589 212.91GiB 4MiB nid00265 
41929  CA-- 1589 212.91GiB 4MiB nid01610 
41930  CA-- 1589 212.91GiB 4MiB nid02125 
41931  CA-- 1589 212.91GiB 4MiB nid01101 
61379  CA-- 2232 212.91GiB 4MiB nid02006 
61380  CA-- 2232 212.91GiB 4MiB nid01034 
61382  CA-- 2234 212.91GiB 4MiB nid00457 
63967  CA-- 2337 425.81GiB 4MiB nid02253 
63968  CA-- 2337 425.81GiB 4MiB nid01225 
63969  CA-- 2337 425.81GiB 4MiB nid00269 
63970  CA-- 2337 425.81GiB 4MiB nid01237 
63971  CA-- 2337 212.91GiB 4MiB nid01678 
63972  CA-- 2337 212.91GiB 4MiB nid01802 
63973  CA-- 2337 212.91GiB 4MiB nid01033 
63974  CA-- 2337 212.91GiB 4MiB nid00853 
63975  CA-- 2337 212.91GiB 4MiB nid00586 
63976  CA-- 2337 212.91GiB 4MiB nid01806 
63977  CA-- 2337 212.91GiB 4MiB nid00526 
63978  CA-- 2337 212.91GiB 4MiB nid01298 
63979  CA-- 2337 212.91GiB 4MiB nid00718 
63980  CA-- 2337 212.91GiB 4MiB nid01485 
63981  CA-- 2337 212.91GiB 4MiB nid00713 
63982  CA-- 2337 212.91GiB 4MiB nid02186 
63983  CA-- 2337 212.91GiB 4MiB nid00141 
63984  CA-- 2337 212.91GiB 4MiB nid01741 
63985  CA-- 2337 212.91GiB 4MiB nid00073 
63986  CA-- 2337 212.91GiB 4MiB nid00974 
63987  CA-- 2337 212.91GiB 4MiB nid00201 
63988  CA-- 2337 212.91GiB 4MiB nid00145 
63989  CA-- 2337 212.91GiB 4MiB nid00717 
63990  CA-- 2337 212.91GiB 4MiB nid00470 
63991  CA-- 2337 212.91GiB 4MiB nid00842 
63992  CA-- 2337 212.91GiB 4MiB nid01621 
63993  CA-- 2337 212.91GiB 4MiB nid01549 
63994  CA-- 2337 212.91GiB 4MiB nid00202 
63995  CA-- 2337 212.91GiB 4MiB nid00973 
63996  CA-- 2337 212.91GiB 4MiB nid00650 
63997  CA-- 2337 212.91GiB 4MiB nid01937 
63998  CA-- 2337 212.91GiB 4MiB nid00206 
63999  CA-- 2337 212.91GiB 4MiB nid02005 
64000  CA-- 2337 212.91GiB 4MiB nid00458 
64001  CA-- 2337 212.91GiB 4MiB nid01037 
64002  CA-- 2337 212.91GiB 4MiB nid01294 
64003  CA-- 2337 212.91GiB 4MiB nid00329 
64004  CA-- 2337 212.91GiB 4MiB nid02250 
64005  CA-- 2337 212.91GiB 4MiB nid01486 
64006  CA-- 2337 212.91GiB 4MiB nid00402 
64007  CA-- 2337 212.91GiB 4MiB nid00969 
64008  CA-- 2337 212.91GiB 4MiB nid01358 
64009  CA-- 2337 212.91GiB 4MiB nid01681 
64010  CA-- 2337 212.91GiB 4MiB nid02190 
64011  CA-- 2337 212.91GiB 4MiB nid01097 
64012  CA-- 2337 212.91GiB 4MiB nid01805 
64013  CA-- 2337 212.91GiB 4MiB nid00085 
64014  CA-- 2337 212.91GiB 4MiB nid01170 
64015  CA-- 2337 212.91GiB 4MiB nid00013 
64016  CA-- 2337 212.91GiB 4MiB nid02065 
64017  CA-- 2337 212.91GiB 4MiB nid01869 
64018  CA-- 2337 212.91GiB 4MiB nid00397 
64019  CA-- 2337 212.91GiB 4MiB nid01421 
64020  CA-- 2337 212.91GiB 4MiB nid01102 
64021  CA-- 2337 212.91GiB 4MiB nid01870 
64022  CA-- 2337 212.91GiB 4MiB nid00270 
64023  CA-- 2337 212.91GiB 4MiB nid01166 
64024  CA-- 2337 212.91GiB 4MiB nid01550 
64025  CA-- 2337 212.91GiB 4MiB nid01553 
64026  CA-- 2337 212.91GiB 4MiB nid00910 
64027  CA-- 2337 212.91GiB 4MiB nid02061 
64028  CA-- 2337 212.91GiB 4MiB nid02185 
64029  CA-- 2337 212.91GiB 4MiB nid01933 
64030  CA-- 2337 212.91GiB 4MiB nid02121 
64031  CA-- 2337 212.91GiB 4MiB nid00970 
64032  CA-- 2337 212.91GiB 4MiB nid00914 
64033  CA-- 2337 212.91GiB 4MiB nid00017 
64034  CA-- 2337 212.91GiB 4MiB nid01165 
64035  CA-- 2337 212.91GiB 4MiB nid01622 
64036  CA-- 2337 212.91GiB 4MiB nid00786 
64037  CA-- 2337 212.91GiB 4MiB nid00074 
64038  CA-- 2337 212.91GiB 4MiB nid01866 
64039  CA-- 2337 212.91GiB 4MiB nid01993 
64040  CA-- 2337 212.91GiB 4MiB nid00525 
64041  CA-- 2337 212.91GiB 4MiB nid00714 
64042  CA-- 2337 212.91GiB 4MiB nid00330 
64043  CA-- 2337 212.91GiB 4MiB nid00334 
64044  CA-- 2337 212.91GiB 4MiB nid00649 
64045  CA-- 2337 212.91GiB 4MiB nid01238 
64046  CA-- 2337 212.91GiB 4MiB nid01297 
64047  CA-- 2337 212.91GiB 4MiB nid01293 
64048  CA-- 2337 212.91GiB 4MiB nid01677 
64049  CA-- 2337 212.91GiB 4MiB nid02122 
64050  CA-- 2337 212.91GiB 4MiB nid01554 
64051  CA-- 2337 212.91GiB 4MiB nid00909 
64052  CA-- 2337 212.91GiB 4MiB nid00529 
64053  CA-- 2337 212.91GiB 4MiB nid00590 
64054  CA-- 2337 212.91GiB 4MiB nid00398 
64055  CA-- 2337 212.91GiB 4MiB nid00654 
64056  CA-- 2337 212.91GiB 4MiB nid01226 
64057  CA-- 2337 212.91GiB 4MiB nid00018 
64058  CA-- 2337 212.91GiB 4MiB nid02126 
64059  CA-- 2337 212.91GiB 4MiB nid01482 
64060  CA-- 2337 212.91GiB 4MiB nid01354 
64061  CA-- 2337 212.91GiB 4MiB nid01938 
64062  CA-- 2337 212.91GiB 4MiB nid00266 
64063  CA-- 2337 212.91GiB 4MiB nid00333 
64064  CA-- 2337 212.91GiB 4MiB nid00841 
64065  CA-- 2337 212.91GiB 4MiB nid01609 
64066  CA-- 2337 212.91GiB 4MiB nid00589 
64067  CA-- 2337 212.91GiB 4MiB nid01038 
64068  CA-- 2337 212.91GiB 4MiB nid00913 
64069  CA-- 2337 212.91GiB 4MiB nid02062 
64070  CA-- 2337 212.91GiB 4MiB nid01418 
64071  CA-- 2337 212.91GiB 4MiB nid01994 
64072  CA-- 2337 212.91GiB 4MiB nid00785 
64073  CA-- 2337 212.91GiB 4MiB nid00782 
64074  CA-- 2337 212.91GiB 4MiB nid00142 
64075  CA-- 2337 212.91GiB 4MiB nid02189 
64076  CA-- 2337 212.91GiB 4MiB nid00781 
64077  CA-- 2337 212.91GiB 4MiB nid00457 
64078  CA-- 2337 212.91GiB 4MiB nid01098 
64079  CA-- 2337 212.91GiB 4MiB nid00146 
64080  CA-- 2337 212.91GiB 4MiB nid01865 
64081  CA-- 2337 212.91GiB 4MiB nid01481 
64082  CA-- 2337 212.91GiB 4MiB nid01737 
64083  CA-- 2337 212.91GiB 4MiB nid00854 
64084  CA-- 2337 212.91GiB 4MiB nid00653 
64085  CA-- 2337 212.91GiB 4MiB nid00530 
64086  CA-- 2337 212.91GiB 4MiB nid00086 
64087  CA-- 2337 212.91GiB 4MiB nid01738 
64088  CA-- 2337 212.91GiB 4MiB nid01353 
64089  CA-- 2337 212.91GiB 4MiB nid00401 
64090  CA-- 2337 212.91GiB 4MiB nid02066 
64091  CA-- 2337 212.91GiB 4MiB nid00469 
64092  CA-- 2337 212.91GiB 4MiB nid00585 
64093  CA-- 2337 212.91GiB 4MiB nid00265 
64094  CA-- 2337 212.91GiB 4MiB nid01610 
64095  CA-- 2337 212.91GiB 4MiB nid02125 
64096  CA-- 2337 212.91GiB 4MiB nid01742 
64097  CA-- 2337 212.91GiB 4MiB nid01934 
64098  CA-- 2337 212.91GiB 4MiB nid01682 
64099  CA-- 2337 212.91GiB 4MiB nid02249 
64100  CA-- 2337 212.91GiB 4MiB nid00205 
64101  CA-- 2337 212.91GiB 4MiB nid01801 
64102  CA-- 2337 212.91GiB 4MiB nid00014 
64103  CA-- 2337 212.91GiB 4MiB nid01169 
64104  CA-- 2337 212.91GiB 4MiB nid01357 
64105  CA-- 2337 212.91GiB 4MiB nid01417 
64106  CA-- 2337 212.91GiB 4MiB nid02006 
64107  CA-- 2337 212.91GiB 4MiB nid01034 
64768  CA-- 2387 212.91GiB 4MiB nid00854 
64769  CA-- 2388 212.91GiB 4MiB nid00653 
73696  CA-- 2550 212.91GiB 4MiB nid02249 
73697  CA-- 2550 212.91GiB 4MiB nid00205 
73698  CA-- 2550 212.91GiB 4MiB nid01801 
73699  CA-- 2550 212.91GiB 4MiB nid00014 
73700  CA-- 2550 212.91GiB 4MiB nid01169 
73976  CA-- 2555 212.91GiB 4MiB nid00018 
73977  CA-- 2555 212.91GiB 4MiB nid02126 
73978  CA-- 2555 212.91GiB 4MiB nid01482 
73979  CA-- 2555 212.91GiB 4MiB nid01934 
73980  CA-- 2555 212.91GiB 4MiB nid01682 
73981  CA-- 2555 212.91GiB 4MiB nid00333 
73982  CA-- 2555 212.91GiB 4MiB nid00841 
73983  CA-- 2555 212.91GiB 4MiB nid01609 
73984  CA-- 2555 212.91GiB 4MiB nid00589 
73985  CA-- 2555 212.91GiB 4MiB nid01038 
75749  CA-- 2641 212.91GiB 4MiB nid01165 
75750  CA-- 2641 212.91GiB 4MiB nid01622 
75751  CA-- 2641 212.91GiB 4MiB nid00786 
75752  CA-- 2641 212.91GiB 4MiB nid00074 
75753  CA-- 2641 212.91GiB 4MiB nid01866 
75754  CA-- 2641 212.91GiB 4MiB nid01993 
75755  CA-- 2641 212.91GiB 4MiB nid00525 
75756  CA-- 2641 212.91GiB 4MiB nid00714 
75757  CA-- 2641 212.91GiB 4MiB nid00330 
75758  CA-- 2641 212.91GiB 4MiB nid00334 
75759  CA-- 2641 212.91GiB 4MiB nid00649 
75760  CA-- 2641 212.91GiB 4MiB nid01238 
75761  CA-- 2641 212.91GiB 4MiB nid01297 
75762  CA-- 2641 212.91GiB 4MiB nid01293 
75763  CA-- 2641 212.91GiB 4MiB nid01677 
75764  CA-- 2641 212.91GiB 4MiB nid02122 
75765  CA-- 2641 212.91GiB 4MiB nid01554 
75766  CA-- 2641 212.91GiB 4MiB nid00909 
75767  CA-- 2641 212.91GiB 4MiB nid00529 
75768  CA-- 2641 212.91GiB 4MiB nid00590 
75769  CA-- 2641 212.91GiB 4MiB nid00398 
75770  CA-- 2641 212.91GiB 4MiB nid00654 
75771  CA-- 2641 212.91GiB 4MiB nid01226 
75772  CA-- 2641 212.91GiB 4MiB nid01357 
75773  CA-- 2641 212.91GiB 4MiB nid01417 
75774  CA-- 2641 212.91GiB 4MiB nid01354 
75775  CA-- 2641 212.91GiB 4MiB nid01938 
75776  CA-- 2641 212.91GiB 4MiB nid00266 
75777  CA-- 2641 212.91GiB 4MiB nid00913 
75778  CA-- 2641 212.91GiB 4MiB nid02062 
75779  CA-- 2641 212.91GiB 4MiB nid01418 
75780  CA-- 2641 212.91GiB 4MiB nid01994 
75781  CA-- 2641 212.91GiB 4MiB nid00785 
75782  CA-- 2641 212.91GiB 4MiB nid00782 
75783  CA-- 2641 212.91GiB 4MiB nid00142 
75784  CA-- 2641 212.91GiB 4MiB nid02189 
75785  CA-- 2641 212.91GiB 4MiB nid00781 
75786  CA-- 2641 212.91GiB 4MiB nid00457 
75787  CA-- 2641 212.91GiB 4MiB nid01098 
75788  CA-- 2641 212.91GiB 4MiB nid00146 
75789  CA-- 2641 212.91GiB 4MiB nid01481 
75790  CA-- 2641 212.91GiB 4MiB nid01737 
75791  CA-- 2641 212.91GiB 4MiB nid00854 
75792  CA-- 2641 212.91GiB 4MiB nid00653 
75793  CA-- 2641 212.91GiB 4MiB nid01225 
75794  CA-- 2641 212.91GiB 4MiB nid00269 
75795  CA-- 2641 212.91GiB 4MiB nid01237 
75796  CA-- 2641 212.91GiB 4MiB nid01678 
75797  CA-- 2641 212.91GiB 4MiB nid01802 
75798  CA-- 2641 212.91GiB 4MiB nid01033 
75799  CA-- 2641 212.91GiB 4MiB nid00853 
75800  CA-- 2641 212.91GiB 4MiB nid00586 
75801  CA-- 2641 212.91GiB 4MiB nid01806 
75802  CA-- 2641 212.91GiB 4MiB nid00526 
75803  CA-- 2641 212.91GiB 4MiB nid01298 
75804  CA-- 2641 212.91GiB 4MiB nid00718 
75805  CA-- 2641 212.91GiB 4MiB nid01485 
75806  CA-- 2641 212.91GiB 4MiB nid00713 
75807  CA-- 2641 212.91GiB 4MiB nid02186 
75808  CA-- 2641 212.91GiB 4MiB nid00141 
75809  CA-- 2641 212.91GiB 4MiB nid00530 
75810  CA-- 2641 212.91GiB 4MiB nid01741 
75811  CA-- 2641 212.91GiB 4MiB nid00073 
75812  CA-- 2641 212.91GiB 4MiB nid00974 

   ns state conf  frag span 
45414  CA-- 1417 30524    1 
45505  CA-- 1514 32292    1 
45585  CA-- 1594 33955   10 
45722  CA-- 1731 39205    1 
45725  CA-- 1734 39208    2 
45907  CA-- 1852 41922   10 
49198  CA-- 2503 61379    2 
49200  CA-- 2505 61382    1 
49962  CA-- 2608 63967  141 
50012  CA-- 2658 64768    1 
50013  CA-- 2659 64769    1 
52607  CA-- 2821 73696    5 
52612  CA-- 2826 73976   10 
52699  CA-- 2915 75749   64 

    node      pool online drain  gran capacity insts activs 
nid00013  wlm_pool   true false 16MiB  5.82TiB     1      0 
nid00014  wlm_pool   true false 16MiB  5.82TiB     2      0 
nid00017  wlm_pool   true false 16MiB  5.82TiB     1      0 
nid00018  wlm_pool   true false 16MiB  5.82TiB     2      0 
nid00073  wlm_pool   true false 16MiB  5.82TiB     2      0 
nid00074  wlm_pool   true false 16MiB  5.82TiB     2      0 
nid00085  wlm_pool   true false 16MiB  5.82TiB     1      0 
nid00086  wlm_pool   true false 16MiB  5.82TiB     1      0 
nid00141  wlm_pool   true false 16MiB  5.82TiB     2      0 
nid00142  wlm_pool   true false 16MiB  5.82TiB     3      0 
nid00145  wlm_pool   true false 16MiB  5.82TiB     1      0 
nid00146  wlm_pool   true false 16MiB  5.82TiB     3      0 
nid00201  wlm_pool   true false 16MiB  5.82TiB     1      0 
nid00202  wlm_pool   true false 16MiB  5.82TiB     1      0 
nid00205  wlm_pool   true false 16MiB  5.82TiB     2      0 
nid00206  wlm_pool   true false 16MiB  5.82TiB     1      0 
nid00265  wlm_pool   true false 16MiB  5.82TiB     2      0 
nid00266  wlm_pool   true false 16MiB  5.82TiB     2      0 
nid00269  wlm_pool   true false 16MiB  5.82TiB     2      0 
nid00270  wlm_pool   true false 16MiB  5.82TiB     1      0 
nid00329  wlm_pool   true false 16MiB  5.82TiB     1      0 
nid00330  wlm_pool   true false 16MiB  5.82TiB     2      0 
nid00333  wlm_pool   true false 16MiB  5.82TiB     2      0 
nid00334  wlm_pool   true false 16MiB  5.82TiB     2      0 
nid00397  wlm_pool   true false 16MiB  5.82TiB     1      0 
nid00398  wlm_pool   true false 16MiB  5.82TiB     2      0 
nid00401  wlm_pool   true false 16MiB  5.82TiB     2      0 
nid00402  wlm_pool   true false 16MiB  5.82TiB     1      0 
nid00457  wlm_pool   true false 16MiB  5.82TiB     3      0 
nid00458  wlm_pool   true false 16MiB  5.82TiB     1      0 
nid00469  wlm_pool   true false 16MiB  5.82TiB     2      0 
nid00470  wlm_pool   true false 16MiB  5.82TiB     1      0 
nid00525  wlm_pool   true false 16MiB  5.82TiB     2      0 
nid00526  wlm_pool   true false 16MiB  5.82TiB     2      0 
nid00529  wlm_pool   true false 16MiB  5.82TiB     2      0 
nid00530  wlm_pool   true false 16MiB  5.82TiB     3      0 
nid00585  wlm_pool   true false 16MiB  5.82TiB     2      0 
nid00586  wlm_pool   true false 16MiB  5.82TiB     2      0 
nid00589  wlm_pool   true false 16MiB  5.82TiB     2      0 
nid00590  wlm_pool   true false 16MiB  5.82TiB     2      0 
nid00649  wlm_pool   true false 16MiB  5.82TiB     2      0 
nid00650  wlm_pool   true false 16MiB  5.82TiB     1      0 
nid00653  wlm_pool   true false 16MiB  5.82TiB     3      0 
nid00654  wlm_pool   true false 16MiB  5.82TiB     2      0 
nid00713  wlm_pool   true false 16MiB  5.82TiB     2      0 
nid00714  wlm_pool   true false 16MiB  5.82TiB     2      0 
nid00717  wlm_pool   true false 16MiB  5.82TiB     1      0 
nid00718  wlm_pool   true false 16MiB  5.82TiB     2      0 
nid00781  wlm_pool   true false 16MiB  5.82TiB     3      0 
nid00782  wlm_pool   true false 16MiB  5.82TiB     3      0 
nid00785  wlm_pool   true false 16MiB  5.82TiB     3      0 
nid00786  wlm_pool   true false 16MiB  5.82TiB     2      0 
nid00841  wlm_pool   true false 16MiB  5.82TiB     2      0 
nid00842  wlm_pool   true false 16MiB  5.82TiB     1      0 
nid00853  wlm_pool   true false 16MiB  5.82TiB     2      0 
nid00854  wlm_pool   true false 16MiB  5.82TiB     3      0 
nid00909  wlm_pool   true false 16MiB  5.82TiB     2      0 
nid00910  wlm_pool   true false 16MiB  5.82TiB     1      0 
nid00913  wlm_pool   true false 16MiB  5.82TiB     3      0 
nid00914  wlm_pool   true false 16MiB  5.82TiB     1      0 
nid00969  wlm_pool   true false 16MiB  5.82TiB     1      0 
nid00970  wlm_pool   true false 16MiB  5.82TiB     1      0 
nid00973  wlm_pool   true false 16MiB  5.82TiB     1      0 
nid00974  wlm_pool   true false 16MiB  5.82TiB     2      0 
nid01033  wlm_pool   true false 16MiB  5.82TiB     2      0 
nid01034  wlm_pool   true false 16MiB  5.82TiB     2      0 
nid01037  wlm_pool   true false 16MiB  5.82TiB     1      0 
nid01038  wlm_pool   true false 16MiB  5.82TiB     3      0 
nid01097  wlm_pool   true false 16MiB  5.82TiB     1      0 
nid01098  wlm_pool   true false 16MiB  5.82TiB     2      0 
nid01101  wlm_pool   true  true 16MiB  5.82TiB     1      0 
nid01102  wlm_pool   true false 16MiB  5.82TiB     1      0 
nid01165  wlm_pool   true false 16MiB  5.82TiB     2      0 
nid01166  wlm_pool   true false 16MiB  5.82TiB     1      0 
nid01169  wlm_pool   true false 16MiB  5.82TiB     2      0 
nid01170  wlm_pool   true false 16MiB  5.82TiB     1      0 
nid01225  wlm_pool   true false 16MiB  5.82TiB     2      0 
nid01226  wlm_pool   true false 16MiB  5.82TiB     2      0 
nid01237  wlm_pool   true false 16MiB  5.82TiB     2      0 
nid01238  wlm_pool   true false 16MiB  5.82TiB     2      0 
nid01293  wlm_pool   true false 16MiB  5.82TiB     2      0 
nid01294  wlm_pool   true false 16MiB  5.82TiB     1      0 
nid01297  wlm_pool   true false 16MiB  5.82TiB     2      0 
nid01298  wlm_pool   true false 16MiB  5.82TiB     2      0 
nid01353  wlm_pool   true false 16MiB  5.82TiB     2      0 
nid01354  wlm_pool   true false 16MiB  5.82TiB     2      0 
nid01357  wlm_pool   true false 16MiB  5.82TiB     2      0 
nid01358  wlm_pool   true false 16MiB  5.82TiB     1      0 
nid01417  wlm_pool   true false 16MiB  5.82TiB     2      0 
nid01418  wlm_pool   true false 16MiB  5.82TiB     3      0 
nid01421  wlm_pool   true false 16MiB  5.82TiB     1      0 
nid01422  wlm_pool   true  true 16MiB  5.82TiB     0      0 
nid01481  wlm_pool   true false 16MiB  5.82TiB     3      0 
nid01482  wlm_pool   true false 16MiB  5.82TiB     2      0 
nid01485  wlm_pool   true false 16MiB  5.82TiB     2      0 
nid01486  wlm_pool   true false 16MiB  5.82TiB     1      0 
nid01549  wlm_pool   true false 16MiB  5.82TiB     1      0 
nid01550  wlm_pool   true false 16MiB  5.82TiB     1      0 
nid01553  wlm_pool   true false 16MiB  5.82TiB     1      0 
nid01554  wlm_pool   true false 16MiB  5.82TiB     2      0 
nid01609  wlm_pool   true false 16MiB  5.82TiB     2      0 
nid01610  wlm_pool   true false 16MiB  5.82TiB     2      0 
nid01621  wlm_pool   true false 16MiB  5.82TiB     1      0 
nid01622  wlm_pool   true false 16MiB  5.82TiB     2      0 
nid01677  wlm_pool   true false 16MiB  5.82TiB     2      0 
nid01678  wlm_pool   true false 16MiB  5.82TiB     2      0 
nid01681  wlm_pool   true false 16MiB  5.82TiB     1      0 
nid01682  wlm_pool   true false 16MiB  5.82TiB     2      0 
nid01737  wlm_pool   true false 16MiB  5.82TiB     3      0 
nid01738  wlm_pool   true false 16MiB  5.82TiB     2      0 
nid01741  wlm_pool   true false 16MiB  5.82TiB     2      0 
nid01742  wlm_pool   true false 16MiB  5.82TiB     2      0 
nid01801  wlm_pool   true false 16MiB  5.82TiB     2      0 
nid01802  wlm_pool   true false 16MiB  5.82TiB     2      0 
nid01805  wlm_pool   true false 16MiB  5.82TiB     1      0 
nid01806  wlm_pool   true false 16MiB  5.82TiB     2      0 
nid01865  wlm_pool   true  true 16MiB  5.82TiB     1      0 
nid01866  wlm_pool   true false 16MiB  5.82TiB     2      0 
nid01869  wlm_pool   true false 16MiB  5.82TiB     1      0 
nid01870  wlm_pool   true false 16MiB  5.82TiB     1      0 
nid01933  wlm_pool   true false 16MiB  5.82TiB     1      0 
nid01934  wlm_pool   true false 16MiB  5.82TiB     2      0 
nid01937  wlm_pool   true false 16MiB  5.82TiB     1      0 
nid01938  wlm_pool   true false 16MiB  5.82TiB     2      0 
nid01993  wlm_pool   true false 16MiB  5.82TiB     2      0 
nid01994  wlm_pool   true false 16MiB  5.82TiB     3      0 
nid02005  wlm_pool   true false 16MiB  5.82TiB     1      0 
nid02006  wlm_pool   true false 16MiB  5.82TiB     2      0 
nid02061  wlm_pool   true false 16MiB  5.82TiB     1      0 
nid02062  wlm_pool   true false 16MiB  5.82TiB     3      0 
nid02065  wlm_pool   true false 16MiB  5.82TiB     1      0 
nid02066  wlm_pool   true false 16MiB  5.82TiB     2      0 
nid02121  wlm_pool   true false 16MiB  5.82TiB     1      0 
nid02122  wlm_pool   true false 16MiB  5.82TiB     2      0 
nid02125  wlm_pool   true false 16MiB  5.82TiB     2      0 
nid02126  wlm_pool   true false 16MiB  5.82TiB     2      0 
nid02185  wlm_pool   true false 16MiB  5.82TiB     1      0 
nid02186  wlm_pool   true false 16MiB  5.82TiB     2      0 
nid02189  wlm_pool   true false 16MiB  5.82TiB     3      0 
nid02190  wlm_pool   true false 16MiB  5.82TiB     1      0 
nid02249  wlm_pool   true false 16MiB  5.82TiB     2      0 
nid02250  wlm_pool   true false 16MiB  5.82TiB     1      0 
nid02253  wlm_pool   true  true 16MiB  5.82TiB     1      0 
nid02254 test_pool   true false 16MiB  5.82TiB     0      0 

MPIIO: unrecognized DVS real_fs_magic=0XBBFBBF10  ADIOI_CRAY_dvs_real_fstype:1246  using default optimizations
MPIIO WARNING: DVS stripe width of 32 was requested but DVS set it to 64
See MPICH_MPIIO_DVS_MAXNODES in the intro_mpi man page.
Number of paritcles: 33554432 
Finished initializing particles 
Opened H5Part file... 
Before writing particles 
Step is set 
Num particles is set 
Written variable 1 
Written variable 2 
Written variable 3 
Written variable 4 
Written variable 5 
Written variable 6 
Written variable 7 
Written variable 8 
After writing particles 
After closing particles 

Timing results
20.901394 seconds elapsed in just writing data
22.156998 seconds elapsed in opening, writing, closing file

-rw-r----- 1 mbryson mbryson 2199023261832 Mar  4 04:44 /var/opt/cray/dws/mounts/batch/1263607/ss//output_2K/sample.h5part
-rw-r----- 1 mbryson mbryson 2.1T Mar  4 04:44 /var/opt/cray/dws/mounts/batch/1263607/ss//output_2K/sample.h5part
Fri Mar  4 04:44:43 2016: [unset]:_pmi_alps_get_apid:alps response not OKAY
Fri Mar  4 04:44:43 2016: [unset]:_pmi_init:_pmi_alps_init returned -1
HDF5 "/var/opt/cray/dws/mounts/batch/1263607/ss//output_2K/sample.h5part" {
GROUP "/" {
   ATTRIBUTE "Origin" {
      DATATYPE  H5T_STRING {
         STRSIZE 16;
         STRPAD H5T_STR_NULLTERM;
         CSET H5T_CSET_ASCII;
         CTYPE H5T_C_S1;
      }
      DATASPACE  SCALAR
   }
   GROUP "Step#0" {
      DATASET "id1" {
         DATATYPE  H5T_STD_I32LE
         DATASPACE  SIMPLE { ( 68719476736 ) / ( 68719476736 ) }
      }
      DATASET "id2" {
         DATATYPE  H5T_STD_I32LE
         DATASPACE  SIMPLE { ( 68719476736 ) / ( 68719476736 ) }
      }
      DATASET "px" {
         DATATYPE  H5T_IEEE_F32LE
         DATASPACE  SIMPLE { ( 68719476736 ) / ( 68719476736 ) }
      }
      DATASET "py" {
         DATATYPE  H5T_IEEE_F32LE
         DATASPACE  SIMPLE { ( 68719476736 ) / ( 68719476736 ) }
      }
      DATASET "pz" {
         DATATYPE  H5T_IEEE_F32LE
         DATASPACE  SIMPLE { ( 68719476736 ) / ( 68719476736 ) }
      }
      DATASET "x" {
         DATATYPE  H5T_IEEE_F32LE
         DATASPACE  SIMPLE { ( 68719476736 ) / ( 68719476736 ) }
      }
      DATASET "y" {
         DATATYPE  H5T_IEEE_F32LE
         DATASPACE  SIMPLE { ( 68719476736 ) / ( 68719476736 ) }
      }
      DATASET "z" {
         DATATYPE  H5T_IEEE_F32LE
         DATASPACE  SIMPLE { ( 68719476736 ) / ( 68719476736 ) }
      }
   }
}
}
