192 node optimal for bb config, vpicio, 64BB nodes, matched
     pool units quantity      free      gran 
test_pool bytes  5.82TiB   5.82TiB     16MiB 
 wlm_pool bytes 832.5TiB 276.11TiB 212.91GiB 

sess state   token creator owner             created expiration nodes 
4405 CA--- 1574837   SLURM 69107 2016-03-31T14:03:06      never   192 
4406 CA--- 1574839   SLURM 69107 2016-03-31T14:03:06      never   192 

inst state sess     bytes nodes             created expiration intact        label public confs 
2232 CA--- 2515 425.81GiB     2 2016-02-19T12:09:21      never   true     XuanCami   true     1 
2234 CA--- 2520 212.91GiB     1 2016-02-19T13:45:33      never   true     myBBname   true     1 
2550 CA--- 3041   1.04TiB     5 2016-03-02T15:01:02      never   true gatkbrachy_2   true     1 
3648 CA--- 4142  10.19TiB    49 2016-03-26T14:33:53      never   true     wahAtlas   true     1 
3826 CA--- 4334  40.13TiB   135 2016-03-30T15:06:41      never   true   regan_40TB   true     1 
3861 CA--- 4384  10.19TiB    49 2016-03-31T05:26:15      never   true   regan_10TB   true     1 
3869 CA--- 4405  13.31TiB    64 2016-03-31T14:03:06      never   true      I4405-0  false     1 
3870 CA--- 4406  13.31TiB    64 2016-03-31T14:03:06      never   true      I4406-0  false     1 

conf state inst    type access_type activs 
2503 CA--- 2232 scratch      stripe      0 
2505 CA--- 2234 scratch      stripe      0 
2821 CA--- 2550 scratch      stripe      0 
3923 CA--- 3648 scratch      stripe      0 
4104 CA--- 3826 scratch      stripe      0 
4139 CA--- 3861 scratch      stripe      0 
4147 CA--- 3869 scratch      stripe      1 
4148 CA--- 3870 scratch      stripe      1 

 reg state sess conf wait 
4221 CA--- 4405 4147 true 
4223 CA--- 4406 4148 true 

activ state sess conf nodes                                     mount 
 4046 CA--- 4405 4147   192 /var/opt/cray/dws/mounts/batch/1574837/ss 
 4048 CA--- 4406 4148   192 /var/opt/cray/dws/mounts/batch/1574839/ss 

  frag state inst  capacity gran     node 
 61379  CA-- 2232 212.91GiB 4MiB nid02006 
 61380  CA-- 2232 212.91GiB 4MiB nid01034 
 61382  CA-- 2234 212.91GiB 4MiB nid00457 
 73696  CA-- 2550 212.91GiB 4MiB nid02249 
 73697  CA-- 2550 212.91GiB 4MiB nid00205 
 73698  CA-- 2550 212.91GiB 4MiB nid01801 
 73699  CA-- 2550 212.91GiB 4MiB nid00014 
 73700  CA-- 2550 212.91GiB 4MiB nid01169 
129824  CA-- 3648 212.91GiB 4MiB nid02062 
129825  CA-- 3648 212.91GiB 4MiB nid01418 
129826  CA-- 3648 212.91GiB 4MiB nid00785 
129827  CA-- 3648 212.91GiB 4MiB nid00782 
129828  CA-- 3648 212.91GiB 4MiB nid00142 
129829  CA-- 3648 212.91GiB 4MiB nid02189 
129830  CA-- 3648 212.91GiB 4MiB nid00781 
129831  CA-- 3648 212.91GiB 4MiB nid00146 
129832  CA-- 3648 212.91GiB 4MiB nid01481 
129833  CA-- 3648 212.91GiB 4MiB nid01737 
129834  CA-- 3648 212.91GiB 4MiB nid00854 
129835  CA-- 3648 212.91GiB 4MiB nid00653 
129836  CA-- 3648 212.91GiB 4MiB nid01225 
129837  CA-- 3648 212.91GiB 4MiB nid00269 
129838  CA-- 3648 212.91GiB 4MiB nid01237 
129839  CA-- 3648 212.91GiB 4MiB nid01678 
129840  CA-- 3648 212.91GiB 4MiB nid01802 
129841  CA-- 3648 212.91GiB 4MiB nid01033 
129842  CA-- 3648 212.91GiB 4MiB nid00853 
129843  CA-- 3648 212.91GiB 4MiB nid00586 
129844  CA-- 3648 212.91GiB 4MiB nid01806 
129845  CA-- 3648 212.91GiB 4MiB nid00526 
129846  CA-- 3648 212.91GiB 4MiB nid01298 
129847  CA-- 3648 212.91GiB 4MiB nid00718 
129848  CA-- 3648 212.91GiB 4MiB nid01485 
129849  CA-- 3648 212.91GiB 4MiB nid00713 
129850  CA-- 3648 212.91GiB 4MiB nid02186 
129851  CA-- 3648 212.91GiB 4MiB nid00141 
129852  CA-- 3648 212.91GiB 4MiB nid00530 
129853  CA-- 3648 212.91GiB 4MiB nid01741 
129854  CA-- 3648 212.91GiB 4MiB nid00073 
129855  CA-- 3648 212.91GiB 4MiB nid00974 
129856  CA-- 3648 212.91GiB 4MiB nid00086 
129857  CA-- 3648 212.91GiB 4MiB nid01738 
129858  CA-- 3648 212.91GiB 4MiB nid01353 
129859  CA-- 3648 212.91GiB 4MiB nid00401 
129860  CA-- 3648 212.91GiB 4MiB nid02066 
129861  CA-- 3648 212.91GiB 4MiB nid00469 
129862  CA-- 3648 212.91GiB 4MiB nid00585 
129863  CA-- 3648 212.91GiB 4MiB nid00265 
129864  CA-- 3648 212.91GiB 4MiB nid01610 
129865  CA-- 3648 212.91GiB 4MiB nid02125 
129866  CA-- 3648 212.91GiB 4MiB nid00201 
129867  CA-- 3648 212.91GiB 4MiB nid00145 
129868  CA-- 3648 212.91GiB 4MiB nid00717 
129869  CA-- 3648 212.91GiB 4MiB nid00470 
129870  CA-- 3648 212.91GiB 4MiB nid00842 
129871  CA-- 3648 212.91GiB 4MiB nid01621 
129872  CA-- 3648 212.91GiB 4MiB nid01549 
138143  CA-- 3826 425.81GiB 4MiB nid01937 
138144  CA-- 3826 425.81GiB 4MiB nid00206 
138145  CA-- 3826 425.81GiB 4MiB nid02005 
138146  CA-- 3826 425.81GiB 4MiB nid00458 
138147  CA-- 3826 425.81GiB 4MiB nid01037 
138148  CA-- 3826 425.81GiB 4MiB nid01294 
138149  CA-- 3826 425.81GiB 4MiB nid00329 
138150  CA-- 3826 425.81GiB 4MiB nid02250 
138151  CA-- 3826 425.81GiB 4MiB nid01486 
138152  CA-- 3826 425.81GiB 4MiB nid00402 
138153  CA-- 3826 425.81GiB 4MiB nid00969 
138154  CA-- 3826 425.81GiB 4MiB nid01358 
138155  CA-- 3826 425.81GiB 4MiB nid01681 
138156  CA-- 3826 425.81GiB 4MiB nid02190 
138157  CA-- 3826 425.81GiB 4MiB nid01805 
138158  CA-- 3826 425.81GiB 4MiB nid00085 
138159  CA-- 3826 425.81GiB 4MiB nid01170 
138160  CA-- 3826 425.81GiB 4MiB nid00013 
138161  CA-- 3826 425.81GiB 4MiB nid02065 
138162  CA-- 3826 425.81GiB 4MiB nid01869 
138163  CA-- 3826 425.81GiB 4MiB nid00397 
138164  CA-- 3826 425.81GiB 4MiB nid01421 
138165  CA-- 3826 425.81GiB 4MiB nid01102 
138166  CA-- 3826 425.81GiB 4MiB nid01870 
138167  CA-- 3826 425.81GiB 4MiB nid00270 
138168  CA-- 3826 425.81GiB 4MiB nid01166 
138169  CA-- 3826 425.81GiB 4MiB nid01550 
138170  CA-- 3826 425.81GiB 4MiB nid01553 
138171  CA-- 3826 425.81GiB 4MiB nid00910 
138172  CA-- 3826 425.81GiB 4MiB nid02061 
138173  CA-- 3826 425.81GiB 4MiB nid02185 
138174  CA-- 3826 425.81GiB 4MiB nid01933 
138175  CA-- 3826 425.81GiB 4MiB nid02121 
138176  CA-- 3826 425.81GiB 4MiB nid00970 
138177  CA-- 3826 425.81GiB 4MiB nid00914 
138178  CA-- 3826 425.81GiB 4MiB nid00017 
138179  CA-- 3826 425.81GiB 4MiB nid01165 
138180  CA-- 3826 425.81GiB 4MiB nid01622 
138181  CA-- 3826 425.81GiB 4MiB nid00786 
138182  CA-- 3826 425.81GiB 4MiB nid00074 
138183  CA-- 3826 425.81GiB 4MiB nid01866 
138184  CA-- 3826 425.81GiB 4MiB nid00525 
138185  CA-- 3826 425.81GiB 4MiB nid00714 
138186  CA-- 3826 425.81GiB 4MiB nid00330 
138187  CA-- 3826 425.81GiB 4MiB nid00334 
138188  CA-- 3826 425.81GiB 4MiB nid01742 
138189  CA-- 3826 425.81GiB 4MiB nid00649 
138190  CA-- 3826 425.81GiB 4MiB nid01238 
138191  CA-- 3826 425.81GiB 4MiB nid01297 
138192  CA-- 3826 425.81GiB 4MiB nid01293 
138193  CA-- 3826 425.81GiB 4MiB nid01677 
138194  CA-- 3826 425.81GiB 4MiB nid02122 
138195  CA-- 3826 425.81GiB 4MiB nid01554 
138196  CA-- 3826 425.81GiB 4MiB nid00909 
138197  CA-- 3826 425.81GiB 4MiB nid00529 
138198  CA-- 3826 425.81GiB 4MiB nid00590 
138199  CA-- 3826 425.81GiB 4MiB nid00398 
138200  CA-- 3826 425.81GiB 4MiB nid00654 
138201  CA-- 3826 212.91GiB 4MiB nid01226 
138202  CA-- 3826 212.91GiB 4MiB nid00018 
138203  CA-- 3826 212.91GiB 4MiB nid02126 
138204  CA-- 3826 212.91GiB 4MiB nid01482 
138205  CA-- 3826 212.91GiB 4MiB nid01934 
138206  CA-- 3826 212.91GiB 4MiB nid01682 
138207  CA-- 3826 212.91GiB 4MiB nid01357 
138208  CA-- 3826 212.91GiB 4MiB nid01417 
138209  CA-- 3826 212.91GiB 4MiB nid01354 
138210  CA-- 3826 212.91GiB 4MiB nid01938 
138211  CA-- 3826 212.91GiB 4MiB nid00266 
138212  CA-- 3826 212.91GiB 4MiB nid00333 
138213  CA-- 3826 212.91GiB 4MiB nid00841 
138214  CA-- 3826 212.91GiB 4MiB nid01609 
138215  CA-- 3826 212.91GiB 4MiB nid00589 
138216  CA-- 3826 212.91GiB 4MiB nid02062 
138217  CA-- 3826 212.91GiB 4MiB nid01418 
138218  CA-- 3826 212.91GiB 4MiB nid01994 
138219  CA-- 3826 212.91GiB 4MiB nid00785 
138220  CA-- 3826 212.91GiB 4MiB nid00782 
138221  CA-- 3826 212.91GiB 4MiB nid00142 
138222  CA-- 3826 212.91GiB 4MiB nid02189 
138223  CA-- 3826 212.91GiB 4MiB nid00781 
138224  CA-- 3826 212.91GiB 4MiB nid00457 
138225  CA-- 3826 212.91GiB 4MiB nid00146 
138226  CA-- 3826 212.91GiB 4MiB nid01481 
138227  CA-- 3826 212.91GiB 4MiB nid01737 
138228  CA-- 3826 212.91GiB 4MiB nid00854 
138229  CA-- 3826 212.91GiB 4MiB nid00653 
138230  CA-- 3826 212.91GiB 4MiB nid02253 
138231  CA-- 3826 212.91GiB 4MiB nid01225 
138232  CA-- 3826 212.91GiB 4MiB nid00269 
138233  CA-- 3826 212.91GiB 4MiB nid01237 
138234  CA-- 3826 212.91GiB 4MiB nid01678 
138235  CA-- 3826 212.91GiB 4MiB nid01802 
138236  CA-- 3826 212.91GiB 4MiB nid01033 
138237  CA-- 3826 212.91GiB 4MiB nid00853 
138238  CA-- 3826 212.91GiB 4MiB nid00586 
138239  CA-- 3826 212.91GiB 4MiB nid01806 
138240  CA-- 3826 212.91GiB 4MiB nid00526 
138241  CA-- 3826 212.91GiB 4MiB nid01298 
138242  CA-- 3826 212.91GiB 4MiB nid00718 
138243  CA-- 3826 212.91GiB 4MiB nid01485 
138244  CA-- 3826 212.91GiB 4MiB nid00713 
138245  CA-- 3826 212.91GiB 4MiB nid02186 
138246  CA-- 3826 212.91GiB 4MiB nid00141 
138247  CA-- 3826 212.91GiB 4MiB nid00530 
138248  CA-- 3826 212.91GiB 4MiB nid01741 
138249  CA-- 3826 212.91GiB 4MiB nid00073 
138250  CA-- 3826 212.91GiB 4MiB nid00974 
138251  CA-- 3826 212.91GiB 4MiB nid00086 
138252  CA-- 3826 212.91GiB 4MiB nid01738 
138253  CA-- 3826 212.91GiB 4MiB nid01353 
138254  CA-- 3826 212.91GiB 4MiB nid00401 
138255  CA-- 3826 212.91GiB 4MiB nid02066 
138256  CA-- 3826 212.91GiB 4MiB nid00469 
138257  CA-- 3826 212.91GiB 4MiB nid00585 
138258  CA-- 3826 212.91GiB 4MiB nid00265 
138259  CA-- 3826 212.91GiB 4MiB nid01610 
138260  CA-- 3826 212.91GiB 4MiB nid02125 
138261  CA-- 3826 212.91GiB 4MiB nid00201 
138262  CA-- 3826 212.91GiB 4MiB nid00145 
138263  CA-- 3826 212.91GiB 4MiB nid00717 
138264  CA-- 3826 212.91GiB 4MiB nid00470 
138265  CA-- 3826 212.91GiB 4MiB nid00842 
138266  CA-- 3826 212.91GiB 4MiB nid01621 
138267  CA-- 3826 212.91GiB 4MiB nid01549 
138268  CA-- 3826 212.91GiB 4MiB nid00202 
138269  CA-- 3826 212.91GiB 4MiB nid00973 
138270  CA-- 3826 212.91GiB 4MiB nid00650 
138271  CA-- 3826 212.91GiB 4MiB nid02249 
138272  CA-- 3826 212.91GiB 4MiB nid00205 
138273  CA-- 3826 212.91GiB 4MiB nid01801 
138274  CA-- 3826 212.91GiB 4MiB nid00014 
138275  CA-- 3826 212.91GiB 4MiB nid01169 
138276  CA-- 3826 212.91GiB 4MiB nid02006 
138277  CA-- 3826 212.91GiB 4MiB nid01034 
139195  CA-- 3861 212.91GiB 4MiB nid00589 
139196  CA-- 3861 212.91GiB 4MiB nid02062 
139197  CA-- 3861 212.91GiB 4MiB nid01418 
139198  CA-- 3861 212.91GiB 4MiB nid01994 
139199  CA-- 3861 212.91GiB 4MiB nid00785 
139200  CA-- 3861 212.91GiB 4MiB nid00782 
139201  CA-- 3861 212.91GiB 4MiB nid00142 
139202  CA-- 3861 212.91GiB 4MiB nid02189 
139203  CA-- 3861 212.91GiB 4MiB nid00781 
139204  CA-- 3861 212.91GiB 4MiB nid00457 
139205  CA-- 3861 212.91GiB 4MiB nid00146 
139206  CA-- 3861 212.91GiB 4MiB nid01481 
139207  CA-- 3861 212.91GiB 4MiB nid01737 
139208  CA-- 3861 212.91GiB 4MiB nid00854 
139209  CA-- 3861 212.91GiB 4MiB nid00653 
139210  CA-- 3861 212.91GiB 4MiB nid02253 
139211  CA-- 3861 212.91GiB 4MiB nid01225 
139212  CA-- 3861 212.91GiB 4MiB nid00269 
139213  CA-- 3861 212.91GiB 4MiB nid01237 
139214  CA-- 3861 212.91GiB 4MiB nid01678 
139215  CA-- 3861 212.91GiB 4MiB nid01802 
139216  CA-- 3861 212.91GiB 4MiB nid01033 
139217  CA-- 3861 212.91GiB 4MiB nid00853 
139218  CA-- 3861 212.91GiB 4MiB nid00586 
139219  CA-- 3861 212.91GiB 4MiB nid01806 
139220  CA-- 3861 212.91GiB 4MiB nid00526 
139221  CA-- 3861 212.91GiB 4MiB nid01298 
139222  CA-- 3861 212.91GiB 4MiB nid00718 
139223  CA-- 3861 212.91GiB 4MiB nid01485 
139224  CA-- 3861 212.91GiB 4MiB nid00713 
139225  CA-- 3861 212.91GiB 4MiB nid02186 
139226  CA-- 3861 212.91GiB 4MiB nid00141 
139227  CA-- 3861 212.91GiB 4MiB nid00530 
139228  CA-- 3861 212.91GiB 4MiB nid01741 
139229  CA-- 3861 212.91GiB 4MiB nid00073 
139230  CA-- 3861 212.91GiB 4MiB nid00974 
139231  CA-- 3861 212.91GiB 4MiB nid00086 
139232  CA-- 3861 212.91GiB 4MiB nid01738 
139233  CA-- 3861 212.91GiB 4MiB nid01353 
139234  CA-- 3861 212.91GiB 4MiB nid00401 
139235  CA-- 3861 212.91GiB 4MiB nid02066 
139236  CA-- 3861 212.91GiB 4MiB nid00469 
139237  CA-- 3861 212.91GiB 4MiB nid00585 
139238  CA-- 3861 212.91GiB 4MiB nid00265 
139239  CA-- 3861 212.91GiB 4MiB nid01610 
139240  CA-- 3861 212.91GiB 4MiB nid02125 
139241  CA-- 3861 212.91GiB 4MiB nid00201 
139242  CA-- 3861 212.91GiB 4MiB nid00145 
139243  CA-- 3861 212.91GiB 4MiB nid00717 
139313  CA-- 3869 212.91GiB 4MiB nid00202 
139314  CA-- 3869 212.91GiB 4MiB nid00973 
139315  CA-- 3869 212.91GiB 4MiB nid00650 
139316  CA-- 3869 212.91GiB 4MiB nid00206 
139317  CA-- 3869 212.91GiB 4MiB nid02005 
139318  CA-- 3869 212.91GiB 4MiB nid00458 
139319  CA-- 3869 212.91GiB 4MiB nid01037 
139320  CA-- 3869 212.91GiB 4MiB nid01294 
139321  CA-- 3869 212.91GiB 4MiB nid01166 
139322  CA-- 3869 212.91GiB 4MiB nid01550 
139323  CA-- 3869 212.91GiB 4MiB nid01553 
139324  CA-- 3869 212.91GiB 4MiB nid00910 
139325  CA-- 3869 212.91GiB 4MiB nid02061 
139326  CA-- 3869 212.91GiB 4MiB nid01226 
139327  CA-- 3869 212.91GiB 4MiB nid00018 
139328  CA-- 3869 212.91GiB 4MiB nid02126 
139329  CA-- 3869 212.91GiB 4MiB nid01482 
139330  CA-- 3869 212.91GiB 4MiB nid01934 
139331  CA-- 3869 212.91GiB 4MiB nid01682 
139332  CA-- 3869 212.91GiB 4MiB nid01357 
139333  CA-- 3869 212.91GiB 4MiB nid01417 
139334  CA-- 3869 212.91GiB 4MiB nid01354 
139335  CA-- 3869 212.91GiB 4MiB nid01938 
139336  CA-- 3869 212.91GiB 4MiB nid00266 
139337  CA-- 3869 212.91GiB 4MiB nid00333 
139338  CA-- 3869 212.91GiB 4MiB nid00841 
139339  CA-- 3869 212.91GiB 4MiB nid01609 
139340  CA-- 3869 212.91GiB 4MiB nid01994 
139341  CA-- 3869 212.91GiB 4MiB nid02253 
139342  CA-- 3869 212.91GiB 4MiB nid00470 
139343  CA-- 3869 212.91GiB 4MiB nid00842 
139344  CA-- 3869 212.91GiB 4MiB nid01621 
139345  CA-- 3869 212.91GiB 4MiB nid01549 
139346  CA-- 3869 212.91GiB 4MiB nid01937 
139347  CA-- 3869 212.91GiB 4MiB nid00329 
139348  CA-- 3869 212.91GiB 4MiB nid02250 
139349  CA-- 3869 212.91GiB 4MiB nid01486 
139350  CA-- 3869 212.91GiB 4MiB nid00402 
139351  CA-- 3869 212.91GiB 4MiB nid00969 
139352  CA-- 3869 212.91GiB 4MiB nid01358 
139353  CA-- 3869 212.91GiB 4MiB nid01681 
139354  CA-- 3869 212.91GiB 4MiB nid02190 
139355  CA-- 3869 212.91GiB 4MiB nid01805 
139356  CA-- 3869 212.91GiB 4MiB nid00085 
139357  CA-- 3869 212.91GiB 4MiB nid01170 
139358  CA-- 3869 212.91GiB 4MiB nid00013 
139359  CA-- 3869 212.91GiB 4MiB nid02065 
139360  CA-- 3869 212.91GiB 4MiB nid01869 
139361  CA-- 3869 212.91GiB 4MiB nid00397 
139362  CA-- 3869 212.91GiB 4MiB nid01421 
139363  CA-- 3869 212.91GiB 4MiB nid01102 
139364  CA-- 3869 212.91GiB 4MiB nid01870 
139365  CA-- 3869 212.91GiB 4MiB nid00270 
139366  CA-- 3869 212.91GiB 4MiB nid02185 
139367  CA-- 3869 212.91GiB 4MiB nid01933 
139368  CA-- 3869 212.91GiB 4MiB nid02121 
139369  CA-- 3869 212.91GiB 4MiB nid00970 
139370  CA-- 3869 212.91GiB 4MiB nid00914 
139371  CA-- 3869 212.91GiB 4MiB nid00017 
139372  CA-- 3869 212.91GiB 4MiB nid01165 
139373  CA-- 3869 212.91GiB 4MiB nid01622 
139374  CA-- 3869 212.91GiB 4MiB nid00786 
139375  CA-- 3869 212.91GiB 4MiB nid00074 
139376  CA-- 3869 212.91GiB 4MiB nid01866 
139377  CA-- 3870 212.91GiB 4MiB nid00202 
139378  CA-- 3870 212.91GiB 4MiB nid00973 
139379  CA-- 3870 212.91GiB 4MiB nid00650 
139380  CA-- 3870 212.91GiB 4MiB nid00206 
139381  CA-- 3870 212.91GiB 4MiB nid02005 
139382  CA-- 3870 212.91GiB 4MiB nid00458 
139383  CA-- 3870 212.91GiB 4MiB nid01037 
139384  CA-- 3870 212.91GiB 4MiB nid01294 
139385  CA-- 3870 212.91GiB 4MiB nid01166 
139386  CA-- 3870 212.91GiB 4MiB nid01550 
139387  CA-- 3870 212.91GiB 4MiB nid01553 
139388  CA-- 3870 212.91GiB 4MiB nid00910 
139389  CA-- 3870 212.91GiB 4MiB nid02061 
139390  CA-- 3870 212.91GiB 4MiB nid00525 
139391  CA-- 3870 212.91GiB 4MiB nid00714 
139392  CA-- 3870 212.91GiB 4MiB nid00330 
139393  CA-- 3870 212.91GiB 4MiB nid00334 
139394  CA-- 3870 212.91GiB 4MiB nid01742 
139395  CA-- 3870 212.91GiB 4MiB nid00649 
139396  CA-- 3870 212.91GiB 4MiB nid01238 
139397  CA-- 3870 212.91GiB 4MiB nid01297 
139398  CA-- 3870 212.91GiB 4MiB nid01293 
139399  CA-- 3870 212.91GiB 4MiB nid01677 
139400  CA-- 3870 212.91GiB 4MiB nid02122 
139401  CA-- 3870 212.91GiB 4MiB nid01554 
139402  CA-- 3870 212.91GiB 4MiB nid00909 
139403  CA-- 3870 212.91GiB 4MiB nid00529 
139404  CA-- 3870 212.91GiB 4MiB nid00590 
139405  CA-- 3870 212.91GiB 4MiB nid00398 
139406  CA-- 3870 212.91GiB 4MiB nid00654 
139407  CA-- 3870 212.91GiB 4MiB nid01226 
139408  CA-- 3870 212.91GiB 4MiB nid00018 
139409  CA-- 3870 212.91GiB 4MiB nid02126 
139410  CA-- 3870 212.91GiB 4MiB nid01482 
139411  CA-- 3870 212.91GiB 4MiB nid01934 
139412  CA-- 3870 212.91GiB 4MiB nid01682 
139413  CA-- 3870 212.91GiB 4MiB nid02249 
139414  CA-- 3870 212.91GiB 4MiB nid00205 
139415  CA-- 3870 212.91GiB 4MiB nid01801 
139416  CA-- 3870 212.91GiB 4MiB nid00014 
139417  CA-- 3870 212.91GiB 4MiB nid01169 
139418  CA-- 3870 212.91GiB 4MiB nid01357 
139419  CA-- 3870 212.91GiB 4MiB nid01417 
139420  CA-- 3870 212.91GiB 4MiB nid02006 
139421  CA-- 3870 212.91GiB 4MiB nid01034 
139422  CA-- 3870 212.91GiB 4MiB nid01354 
139423  CA-- 3870 212.91GiB 4MiB nid01938 
139424  CA-- 3870 212.91GiB 4MiB nid00266 
139425  CA-- 3870 212.91GiB 4MiB nid00333 
139426  CA-- 3870 212.91GiB 4MiB nid00841 
139427  CA-- 3870 212.91GiB 4MiB nid01609 
139428  CA-- 3870 212.91GiB 4MiB nid00589 
139429  CA-- 3870 212.91GiB 4MiB nid02062 
139430  CA-- 3870 212.91GiB 4MiB nid01418 
139431  CA-- 3870 212.91GiB 4MiB nid01994 
139432  CA-- 3870 212.91GiB 4MiB nid00785 
139433  CA-- 3870 212.91GiB 4MiB nid00782 
139434  CA-- 3870 212.91GiB 4MiB nid00142 
139435  CA-- 3870 212.91GiB 4MiB nid02189 
139436  CA-- 3870 212.91GiB 4MiB nid00781 
139437  CA-- 3870 212.91GiB 4MiB nid00457 
139438  CA-- 3870 212.91GiB 4MiB nid00146 
139439  CA-- 3870 212.91GiB 4MiB nid01481 
139440  CA-- 3870 212.91GiB 4MiB nid01737 

   ns state conf   frag span 
49198  CA-- 2503  61379    2 
49200  CA-- 2505  61382    1 
52607  CA-- 2821  73696    5 
56888  CA-- 3923 129824   49 
57145  CA-- 4104 138143  135 
57244  CA-- 4139 139195   49 
57252  CA-- 4147 139313   64 
57253  CA-- 4148 139377   64 

    node      pool online drain  gran capacity insts activs 
nid00013  wlm_pool   true false 16MiB  5.82TiB     2      0 
nid00014  wlm_pool   true false 16MiB  5.82TiB     3      0 
nid00017  wlm_pool   true false 16MiB  5.82TiB     2      0 
nid00018  wlm_pool   true false 16MiB  5.82TiB     3      0 
nid00073  wlm_pool   true false 16MiB  5.82TiB     3      0 
nid00074  wlm_pool   true false 16MiB  5.82TiB     2      0 
nid00085  wlm_pool   true false 16MiB  5.82TiB     2      0 
nid00086  wlm_pool   true false 16MiB  5.82TiB     3      0 
nid00141  wlm_pool   true false 16MiB  5.82TiB     3      0 
nid00142  wlm_pool   true false 16MiB  5.82TiB     4      0 
nid00145  wlm_pool   true false 16MiB  5.82TiB     3      0 
nid00146  wlm_pool   true false 16MiB  5.82TiB     4      0 
nid00201  wlm_pool   true false 16MiB  5.82TiB     3      0 
nid00202  wlm_pool   true false 16MiB  5.82TiB     3      0 
nid00205  wlm_pool   true false 16MiB  5.82TiB     3      0 
nid00206  wlm_pool   true false 16MiB  5.82TiB     3      0 
nid00265  wlm_pool   true false 16MiB  5.82TiB     3      0 
nid00266  wlm_pool   true false 16MiB  5.82TiB     3      0 
nid00269  wlm_pool   true false 16MiB  5.82TiB     3      0 
nid00270  wlm_pool   true false 16MiB  5.82TiB     2      0 
nid00329  wlm_pool   true false 16MiB  5.82TiB     2      0 
nid00330  wlm_pool   true false 16MiB  5.82TiB     2      0 
nid00333  wlm_pool   true false 16MiB  5.82TiB     3      0 
nid00334  wlm_pool   true false 16MiB  5.82TiB     2      0 
nid00397  wlm_pool   true false 16MiB  5.82TiB     2      0 
nid00398  wlm_pool   true false 16MiB  5.82TiB     2      0 
nid00401  wlm_pool   true false 16MiB  5.82TiB     3      0 
nid00402  wlm_pool   true false 16MiB  5.82TiB     2      0 
nid00457  wlm_pool   true false 16MiB  5.82TiB     4      0 
nid00458  wlm_pool   true false 16MiB  5.82TiB     3      0 
nid00469  wlm_pool   true false 16MiB  5.82TiB     3      0 
nid00470  wlm_pool   true false 16MiB  5.82TiB     3      0 
nid00525  wlm_pool   true false 16MiB  5.82TiB     2      0 
nid00526  wlm_pool   true false 16MiB  5.82TiB     3      0 
nid00529  wlm_pool   true false 16MiB  5.82TiB     2      0 
nid00530  wlm_pool   true false 16MiB  5.82TiB     3      0 
nid00585  wlm_pool   true false 16MiB  5.82TiB     3      0 
nid00586  wlm_pool   true false 16MiB  5.82TiB     3      0 
nid00589  wlm_pool   true false 16MiB  5.82TiB     3      0 
nid00590  wlm_pool   true false 16MiB  5.82TiB     2      0 
nid00649  wlm_pool   true false 16MiB  5.82TiB     2      0 
nid00650  wlm_pool   true false 16MiB  5.82TiB     3      0 
nid00653  wlm_pool   true false 16MiB  5.82TiB     3      0 
nid00654  wlm_pool   true false 16MiB  5.82TiB     2      0 
nid00713  wlm_pool   true false 16MiB  5.82TiB     3      0 
nid00714  wlm_pool   true false 16MiB  5.82TiB     2      0 
nid00717  wlm_pool   true false 16MiB  5.82TiB     3      0 
nid00718  wlm_pool   true false 16MiB  5.82TiB     3      0 
nid00781  wlm_pool   true false 16MiB  5.82TiB     4      0 
nid00782  wlm_pool   true false 16MiB  5.82TiB     4      0 
nid00785  wlm_pool   true false 16MiB  5.82TiB     4      0 
nid00786  wlm_pool   true false 16MiB  5.82TiB     2      0 
nid00841  wlm_pool   true false 16MiB  5.82TiB     3      0 
nid00842  wlm_pool   true false 16MiB  5.82TiB     3      0 
nid00853  wlm_pool   true false 16MiB  5.82TiB     3      0 
nid00854  wlm_pool   true false 16MiB  5.82TiB     3      0 
nid00909  wlm_pool   true false 16MiB  5.82TiB     2      0 
nid00910  wlm_pool   true false 16MiB  5.82TiB     3      0 
nid00913  wlm_pool   true  true 16MiB  5.82TiB     0      0 
nid00914  wlm_pool   true false 16MiB  5.82TiB     2      0 
nid00969  wlm_pool   true false 16MiB  5.82TiB     2      0 
nid00970  wlm_pool   true false 16MiB  5.82TiB     2      0 
nid00973  wlm_pool   true false 16MiB  5.82TiB     3      0 
nid00974  wlm_pool   true false 16MiB  5.82TiB     3      0 
nid01033  wlm_pool   true false 16MiB  5.82TiB     3      0 
nid01034  wlm_pool   true false 16MiB  5.82TiB     3      0 
nid01037  wlm_pool   true false 16MiB  5.82TiB     3      0 
nid01038  wlm_pool   true  true 16MiB  5.82TiB     0      0 
nid01097  wlm_pool   true  true 16MiB  5.82TiB     0      0 
nid01098  wlm_pool   true  true 16MiB  5.82TiB     0      0 
nid01101  wlm_pool   true  true 16MiB  5.82TiB     0      0 
nid01102  wlm_pool   true false 16MiB  5.82TiB     2      0 
nid01165  wlm_pool   true false 16MiB  5.82TiB     2      0 
nid01166  wlm_pool   true false 16MiB  5.82TiB     3      0 
nid01169  wlm_pool   true false 16MiB  5.82TiB     3      0 
nid01170  wlm_pool   true false 16MiB  5.82TiB     2      0 
nid01225  wlm_pool   true false 16MiB  5.82TiB     3      0 
nid01226  wlm_pool   true false 16MiB  5.82TiB     3      0 
nid01237  wlm_pool   true false 16MiB  5.82TiB     3      0 
nid01238  wlm_pool   true false 16MiB  5.82TiB     2      0 
nid01293  wlm_pool   true false 16MiB  5.82TiB     2      0 
nid01294  wlm_pool   true false 16MiB  5.82TiB     3      0 
nid01297  wlm_pool   true false 16MiB  5.82TiB     2      0 
nid01298  wlm_pool   true false 16MiB  5.82TiB     3      0 
nid01353  wlm_pool   true false 16MiB  5.82TiB     3      0 
nid01354  wlm_pool   true false 16MiB  5.82TiB     3      0 
nid01357  wlm_pool   true false 16MiB  5.82TiB     3      0 
nid01358  wlm_pool   true false 16MiB  5.82TiB     2      0 
nid01417  wlm_pool   true false 16MiB  5.82TiB     3      0 
nid01418  wlm_pool   true false 16MiB  5.82TiB     4      0 
nid01421  wlm_pool   true false 16MiB  5.82TiB     2      0 
nid01422  wlm_pool   true  true 16MiB  5.82TiB     0      0 
nid01481  wlm_pool   true false 16MiB  5.82TiB     4      0 
nid01482  wlm_pool   true false 16MiB  5.82TiB     3      0 
nid01485  wlm_pool   true false 16MiB  5.82TiB     3      0 
nid01486  wlm_pool   true false 16MiB  5.82TiB     2      0 
nid01549  wlm_pool   true false 16MiB  5.82TiB     3      0 
nid01550  wlm_pool   true false 16MiB  5.82TiB     3      0 
nid01553  wlm_pool   true false 16MiB  5.82TiB     3      0 
nid01554  wlm_pool   true false 16MiB  5.82TiB     2      0 
nid01609  wlm_pool   true false 16MiB  5.82TiB     3      0 
nid01610  wlm_pool   true false 16MiB  5.82TiB     3      0 
nid01621  wlm_pool   true false 16MiB  5.82TiB     3      0 
nid01622  wlm_pool   true false 16MiB  5.82TiB     2      0 
nid01677  wlm_pool   true false 16MiB  5.82TiB     2      0 
nid01678  wlm_pool   true false 16MiB  5.82TiB     3      0 
nid01681  wlm_pool   true false 16MiB  5.82TiB     2      0 
nid01682  wlm_pool   true false 16MiB  5.82TiB     3      0 
nid01737  wlm_pool   true false 16MiB  5.82TiB     4      0 
nid01738  wlm_pool   true false 16MiB  5.82TiB     3      0 
nid01741  wlm_pool   true false 16MiB  5.82TiB     3      0 
nid01742  wlm_pool   true false 16MiB  5.82TiB     2      0 
nid01801  wlm_pool   true false 16MiB  5.82TiB     3      0 
nid01802  wlm_pool   true false 16MiB  5.82TiB     3      0 
nid01805  wlm_pool   true false 16MiB  5.82TiB     2      0 
nid01806  wlm_pool   true false 16MiB  5.82TiB     3      0 
nid01865  wlm_pool   true  true 16MiB  5.82TiB     0      0 
nid01866  wlm_pool   true false 16MiB  5.82TiB     2      0 
nid01869  wlm_pool   true false 16MiB  5.82TiB     2      0 
nid01870  wlm_pool   true false 16MiB  5.82TiB     2      0 
nid01933  wlm_pool   true false 16MiB  5.82TiB     2      0 
nid01934  wlm_pool   true false 16MiB  5.82TiB     3      0 
nid01937  wlm_pool   true false 16MiB  5.82TiB     2      0 
nid01938  wlm_pool   true false 16MiB  5.82TiB     3      0 
nid01993  wlm_pool   true  true 16MiB  5.82TiB     0      0 
nid01994  wlm_pool   true false 16MiB  5.82TiB     4      0 
nid02005  wlm_pool   true false 16MiB  5.82TiB     3      0 
nid02006  wlm_pool   true false 16MiB  5.82TiB     3      0 
nid02061  wlm_pool   true false 16MiB  5.82TiB     3      0 
nid02062  wlm_pool   true false 16MiB  5.82TiB     4      0 
nid02065  wlm_pool   true false 16MiB  5.82TiB     2      0 
nid02066  wlm_pool   true false 16MiB  5.82TiB     3      0 
nid02121  wlm_pool   true false 16MiB  5.82TiB     2      0 
nid02122  wlm_pool   true false 16MiB  5.82TiB     2      0 
nid02125  wlm_pool   true false 16MiB  5.82TiB     3      0 
nid02126  wlm_pool   true false 16MiB  5.82TiB     3      0 
nid02185  wlm_pool   true false 16MiB  5.82TiB     2      0 
nid02186  wlm_pool   true false 16MiB  5.82TiB     3      0 
nid02189  wlm_pool   true false 16MiB  5.82TiB     4      0 
nid02190  wlm_pool   true false 16MiB  5.82TiB     2      0 
nid02249  wlm_pool   true false 16MiB  5.82TiB     3      0 
nid02250  wlm_pool   true false 16MiB  5.82TiB     2      0 
nid02253  wlm_pool   true false 16MiB  5.82TiB     3      0 
nid02254 test_pool   true false 16MiB  5.82TiB     0      0 

Thu Mar 31 14:07:49 PDT 2016 - Found DataWarp/DVS fs stats file at /proc/fs/dvs/mounts/16/stats
Thu Mar 31 14:07:50 PDT 2016 - Found DataWarp/DVS fs stats file at /proc/fs/dvs/mounts/23/stats
Thu Mar 31 14:07:50 PDT 2016 - Found DataWarp/DVS fs stats file at /proc/fs/dvs/mounts/16/stats
Thu Mar 31 14:07:50 PDT 2016 - Found DataWarp/DVS fs stats file at /proc/fs/dvs/mounts/15/stats
Thu Mar 31 14:07:50 PDT 2016 - Found DataWarp/DVS fs stats file at /proc/fs/dvs/mounts/21/stats
Thu Mar 31 14:07:50 PDT 2016 - Found DataWarp/DVS fs stats file at /proc/fs/dvs/mounts/25/stats
Thu Mar 31 14:07:50 PDT 2016 - Found DataWarp/DVS fs stats file at /proc/fs/dvs/mounts/17/stats
Thu Mar 31 14:07:50 PDT 2016 - Found DataWarp/DVS fs stats file at /proc/fs/dvs/mounts/16/stats
Thu Mar 31 14:07:50 PDT 2016 - Found DataWarp/DVS fs stats file at /proc/fs/dvs/mounts/24/stats
Thu Mar 31 14:07:50 PDT 2016 - Found DataWarp/DVS fs stats file at /proc/fs/dvs/mounts/24/stats
Thu Mar 31 14:07:50 PDT 2016 - Found DataWarp/DVS fs stats file at /proc/fs/dvs/mounts/23/stats
Thu Mar 31 14:07:50 PDT 2016 - Found DataWarp/DVS fs stats file at /proc/fs/dvs/mounts/21/stats
Thu Mar 31 14:07:50 PDT 2016 - Found DataWarp/DVS fs stats file at /proc/fs/dvs/mounts/23/stats
Thu Mar 31 14:07:50 PDT 2016 - Found DataWarp/DVS fs stats file at /proc/fs/dvs/mounts/16/stats
Thu Mar 31 14:07:50 PDT 2016 - Found DataWarp/DVS fs stats file at /proc/fs/dvs/mounts/23/stats
Thu Mar 31 14:07:50 PDT 2016 - Found DataWarp/DVS fs stats file at /proc/fs/dvs/mounts/23/stats
Thu Mar 31 14:07:50 PDT 2016 - Found DataWarp/DVS fs stats file at /proc/fs/dvs/mounts/15/stats
Thu Mar 31 14:07:50 PDT 2016 - Found DataWarp/DVS fs stats file at /proc/fs/dvs/mounts/22/stats
Thu Mar 31 14:07:50 PDT 2016 - Found DataWarp/DVS fs stats file at /proc/fs/dvs/mounts/16/stats
Thu Mar 31 14:07:50 PDT 2016 - Found DataWarp/DVS fs stats file at /proc/fs/dvs/mounts/28/stats
Thu Mar 31 14:07:50 PDT 2016 - Found DataWarp/DVS fs stats file at /proc/fs/dvs/mounts/22/stats
Thu Mar 31 14:07:50 PDT 2016 - Found DataWarp/DVS fs stats file at /proc/fs/dvs/mounts/22/stats
Thu Mar 31 14:07:50 PDT 2016 - Found DataWarp/DVS fs stats file at /proc/fs/dvs/mounts/19/stats
Thu Mar 31 14:07:50 PDT 2016 - Found DataWarp/DVS fs stats file at /proc/fs/dvs/mounts/20/stats
Thu Mar 31 14:07:50 PDT 2016 - Found DataWarp/DVS fs stats file at /proc/fs/dvs/mounts/30/stats
Thu Mar 31 14:07:50 PDT 2016 - Found DataWarp/DVS fs stats file at /proc/fs/dvs/mounts/16/stats
Thu Mar 31 14:07:50 PDT 2016 - Found DataWarp/DVS fs stats file at /proc/fs/dvs/mounts/24/stats
Thu Mar 31 14:07:50 PDT 2016 - Found DataWarp/DVS fs stats file at /proc/fs/dvs/mounts/19/stats
Thu Mar 31 14:07:50 PDT 2016 - Found DataWarp/DVS fs stats file at /proc/fs/dvs/mounts/15/stats
Thu Mar 31 14:07:50 PDT 2016 - Found DataWarp/DVS fs stats file at /proc/fs/dvs/mounts/19/stats
Thu Mar 31 14:07:50 PDT 2016 - Found DataWarp/DVS fs stats file at /proc/fs/dvs/mounts/19/stats
Thu Mar 31 14:07:50 PDT 2016 - Found DataWarp/DVS fs stats file at /proc/fs/dvs/mounts/24/stats
Thu Mar 31 14:07:50 PDT 2016 - Found DataWarp/DVS fs stats file at /proc/fs/dvs/mounts/18/stats
Thu Mar 31 14:07:50 PDT 2016 - Found DataWarp/DVS fs stats file at /proc/fs/dvs/mounts/24/stats
Thu Mar 31 14:07:50 PDT 2016 - Found DataWarp/DVS fs stats file at /proc/fs/dvs/mounts/19/stats
Thu Mar 31 14:07:50 PDT 2016 - Found DataWarp/DVS fs stats file at /proc/fs/dvs/mounts/16/stats
Thu Mar 31 14:07:50 PDT 2016 - Found DataWarp/DVS fs stats file at /proc/fs/dvs/mounts/20/stats
Thu Mar 31 14:07:50 PDT 2016 - Found DataWarp/DVS fs stats file at /proc/fs/dvs/mounts/28/stats
Thu Mar 31 14:07:50 PDT 2016 - Found DataWarp/DVS fs stats file at /proc/fs/dvs/mounts/18/stats
Thu Mar 31 14:07:50 PDT 2016 - Found DataWarp/DVS fs stats file at /proc/fs/dvs/mounts/16/stats
Thu Mar 31 14:07:50 PDT 2016 - Found DataWarp/DVS fs stats file at /proc/fs/dvs/mounts/21/stats
Thu Mar 31 14:07:50 PDT 2016 - Found DataWarp/DVS fs stats file at /proc/fs/dvs/mounts/21/stats
Thu Mar 31 14:07:50 PDT 2016 - Found DataWarp/DVS fs stats file at /proc/fs/dvs/mounts/23/stats
Thu Mar 31 14:07:50 PDT 2016 - Found DataWarp/DVS fs stats file at /proc/fs/dvs/mounts/20/stats
Thu Mar 31 14:07:50 PDT 2016 - Found DataWarp/DVS fs stats file at /proc/fs/dvs/mounts/24/stats
Thu Mar 31 14:07:50 PDT 2016 - Found DataWarp/DVS fs stats file at /proc/fs/dvs/mounts/23/stats
Thu Mar 31 14:07:50 PDT 2016 - Found DataWarp/DVS fs stats file at /proc/fs/dvs/mounts/16/stats
Thu Mar 31 14:07:50 PDT 2016 - Found DataWarp/DVS fs stats file at /proc/fs/dvs/mounts/20/stats
Thu Mar 31 14:07:50 PDT 2016 - Found DataWarp/DVS fs stats file at /proc/fs/dvs/mounts/17/stats
Thu Mar 31 14:07:50 PDT 2016 - Found DataWarp/DVS fs stats file at /proc/fs/dvs/mounts/20/stats
Thu Mar 31 14:07:50 PDT 2016 - Found DataWarp/DVS fs stats file at /proc/fs/dvs/mounts/24/stats
Thu Mar 31 14:07:50 PDT 2016 - Found DataWarp/DVS fs stats file at /proc/fs/dvs/mounts/23/stats
Thu Mar 31 14:07:50 PDT 2016 - Found DataWarp/DVS fs stats file at /proc/fs/dvs/mounts/23/stats
Thu Mar 31 14:07:50 PDT 2016 - Found DataWarp/DVS fs stats file at /proc/fs/dvs/mounts/16/stats
Thu Mar 31 14:07:50 PDT 2016 - Found DataWarp/DVS fs stats file at /proc/fs/dvs/mounts/23/stats
Thu Mar 31 14:07:50 PDT 2016 - Found DataWarp/DVS fs stats file at /proc/fs/dvs/mounts/22/stats
Thu Mar 31 14:07:50 PDT 2016 - Found DataWarp/DVS fs stats file at /proc/fs/dvs/mounts/24/stats
Thu Mar 31 14:07:50 PDT 2016 - Found DataWarp/DVS fs stats file at /proc/fs/dvs/mounts/18/stats
Thu Mar 31 14:07:50 PDT 2016 - Found DataWarp/DVS fs stats file at /proc/fs/dvs/mounts/25/stats
Thu Mar 31 14:07:50 PDT 2016 - Found DataWarp/DVS fs stats file at /proc/fs/dvs/mounts/23/stats
Thu Mar 31 14:07:50 PDT 2016 - Found DataWarp/DVS fs stats file at /proc/fs/dvs/mounts/15/stats
Thu Mar 31 14:07:50 PDT 2016 - Found DataWarp/DVS fs stats file at /proc/fs/dvs/mounts/25/stats
Thu Mar 31 14:07:50 PDT 2016 - Found DataWarp/DVS fs stats file at /proc/fs/dvs/mounts/22/stats
Thu Mar 31 14:07:50 PDT 2016 - Found DataWarp/DVS fs stats file at /proc/fs/dvs/mounts/21/stats
Thu Mar 31 14:07:50 PDT 2016 - Found DataWarp/DVS fs stats file at /proc/fs/dvs/mounts/24/stats
Thu Mar 31 14:07:50 PDT 2016 - Found DataWarp/DVS fs stats file at /proc/fs/dvs/mounts/21/stats
Thu Mar 31 14:07:50 PDT 2016 - Found DataWarp/DVS fs stats file at /proc/fs/dvs/mounts/24/stats
Thu Mar 31 14:07:50 PDT 2016 - Found DataWarp/DVS fs stats file at /proc/fs/dvs/mounts/16/stats
Thu Mar 31 14:07:50 PDT 2016 - Found DataWarp/DVS fs stats file at /proc/fs/dvs/mounts/28/stats
Thu Mar 31 14:07:50 PDT 2016 - Found DataWarp/DVS fs stats file at /proc/fs/dvs/mounts/25/stats
Thu Mar 31 14:07:50 PDT 2016 - Found DataWarp/DVS fs stats file at /proc/fs/dvs/mounts/23/stats
Thu Mar 31 14:07:50 PDT 2016 - Found DataWarp/DVS fs stats file at /proc/fs/dvs/mounts/24/stats
Thu Mar 31 14:07:50 PDT 2016 - Found DataWarp/DVS fs stats file at /proc/fs/dvs/mounts/17/stats
Thu Mar 31 14:07:50 PDT 2016 - Found DataWarp/DVS fs stats file at /proc/fs/dvs/mounts/21/stats
Thu Mar 31 14:07:50 PDT 2016 - Found DataWarp/DVS fs stats file at /proc/fs/dvs/mounts/27/stats
Thu Mar 31 14:07:50 PDT 2016 - Found DataWarp/DVS fs stats file at /proc/fs/dvs/mounts/16/stats
Thu Mar 31 14:07:50 PDT 2016 - Found DataWarp/DVS fs stats file at /proc/fs/dvs/mounts/26/stats
Thu Mar 31 14:07:50 PDT 2016 - Found DataWarp/DVS fs stats file at /proc/fs/dvs/mounts/23/stats
Thu Mar 31 14:07:50 PDT 2016 - Found DataWarp/DVS fs stats file at /proc/fs/dvs/mounts/19/stats
Thu Mar 31 14:07:50 PDT 2016 - Found DataWarp/DVS fs stats file at /proc/fs/dvs/mounts/20/stats
Thu Mar 31 14:07:50 PDT 2016 - Found DataWarp/DVS fs stats file at /proc/fs/dvs/mounts/16/stats
Thu Mar 31 14:07:50 PDT 2016 - Found DataWarp/DVS fs stats file at /proc/fs/dvs/mounts/24/stats
Thu Mar 31 14:07:50 PDT 2016 - Found DataWarp/DVS fs stats file at /proc/fs/dvs/mounts/15/stats
Thu Mar 31 14:07:50 PDT 2016 - Found DataWarp/DVS fs stats file at /proc/fs/dvs/mounts/18/stats
Thu Mar 31 14:07:50 PDT 2016 - Found DataWarp/DVS fs stats file at /proc/fs/dvs/mounts/17/stats
Thu Mar 31 14:07:50 PDT 2016 - Found DataWarp/DVS fs stats file at /proc/fs/dvs/mounts/20/stats
Thu Mar 31 14:07:50 PDT 2016 - Found DataWarp/DVS fs stats file at /proc/fs/dvs/mounts/16/stats
Thu Mar 31 14:07:50 PDT 2016 - Found DataWarp/DVS fs stats file at /proc/fs/dvs/mounts/12/stats
Thu Mar 31 14:07:50 PDT 2016 - Found DataWarp/DVS fs stats file at /proc/fs/dvs/mounts/25/stats
Thu Mar 31 14:07:50 PDT 2016 - Found DataWarp/DVS fs stats file at /proc/fs/dvs/mounts/17/stats
Thu Mar 31 14:07:50 PDT 2016 - Found DataWarp/DVS fs stats file at /proc/fs/dvs/mounts/22/stats
Thu Mar 31 14:07:50 PDT 2016 - Found DataWarp/DVS fs stats file at /proc/fs/dvs/mounts/17/stats
Thu Mar 31 14:07:50 PDT 2016 - Found DataWarp/DVS fs stats file at /proc/fs/dvs/mounts/26/stats
Thu Mar 31 14:07:50 PDT 2016 - Found DataWarp/DVS fs stats file at /proc/fs/dvs/mounts/18/stats
Thu Mar 31 14:07:50 PDT 2016 - Found DataWarp/DVS fs stats file at /proc/fs/dvs/mounts/22/stats
Thu Mar 31 14:07:50 PDT 2016 - Found DataWarp/DVS fs stats file at /proc/fs/dvs/mounts/19/stats
Thu Mar 31 14:07:50 PDT 2016 - Found DataWarp/DVS fs stats file at /proc/fs/dvs/mounts/24/stats
Thu Mar 31 14:07:50 PDT 2016 - Found DataWarp/DVS fs stats file at /proc/fs/dvs/mounts/21/stats
Thu Mar 31 14:07:50 PDT 2016 - Found DataWarp/DVS fs stats file at /proc/fs/dvs/mounts/17/stats
Thu Mar 31 14:07:50 PDT 2016 - Found DataWarp/DVS fs stats file at /proc/fs/dvs/mounts/20/stats
Thu Mar 31 14:07:50 PDT 2016 - Found DataWarp/DVS fs stats file at /proc/fs/dvs/mounts/18/stats
Thu Mar 31 14:07:50 PDT 2016 - Found DataWarp/DVS fs stats file at /proc/fs/dvs/mounts/22/stats
Thu Mar 31 14:07:50 PDT 2016 - Found DataWarp/DVS fs stats file at /proc/fs/dvs/mounts/21/stats
Thu Mar 31 14:07:50 PDT 2016 - Found DataWarp/DVS fs stats file at /proc/fs/dvs/mounts/19/stats
Thu Mar 31 14:07:50 PDT 2016 - Found DataWarp/DVS fs stats file at /proc/fs/dvs/mounts/30/stats
Thu Mar 31 14:07:50 PDT 2016 - Found DataWarp/DVS fs stats file at /proc/fs/dvs/mounts/16/stats
Thu Mar 31 14:07:50 PDT 2016 - Found DataWarp/DVS fs stats file at /proc/fs/dvs/mounts/17/stats
Thu Mar 31 14:07:50 PDT 2016 - Found DataWarp/DVS fs stats file at /proc/fs/dvs/mounts/24/stats
Thu Mar 31 14:07:50 PDT 2016 - Found DataWarp/DVS fs stats file at /proc/fs/dvs/mounts/17/stats
Thu Mar 31 14:07:50 PDT 2016 - Found DataWarp/DVS fs stats file at /proc/fs/dvs/mounts/29/stats
Thu Mar 31 14:07:50 PDT 2016 - Found DataWarp/DVS fs stats file at /proc/fs/dvs/mounts/17/stats
Thu Mar 31 14:07:50 PDT 2016 - Found DataWarp/DVS fs stats file at /proc/fs/dvs/mounts/16/stats
Thu Mar 31 14:07:50 PDT 2016 - Found DataWarp/DVS fs stats file at /proc/fs/dvs/mounts/24/stats
Thu Mar 31 14:07:50 PDT 2016 - Found DataWarp/DVS fs stats file at /proc/fs/dvs/mounts/15/stats
Thu Mar 31 14:07:50 PDT 2016 - Found DataWarp/DVS fs stats file at /proc/fs/dvs/mounts/16/stats
Thu Mar 31 14:07:50 PDT 2016 - Found DataWarp/DVS fs stats file at /proc/fs/dvs/mounts/16/stats
Thu Mar 31 14:07:50 PDT 2016 - Found DataWarp/DVS fs stats file at /proc/fs/dvs/mounts/20/stats
Thu Mar 31 14:07:50 PDT 2016 - Found DataWarp/DVS fs stats file at /proc/fs/dvs/mounts/27/stats
Thu Mar 31 14:07:50 PDT 2016 - Found DataWarp/DVS fs stats file at /proc/fs/dvs/mounts/24/stats
Thu Mar 31 14:07:50 PDT 2016 - Found DataWarp/DVS fs stats file at /proc/fs/dvs/mounts/21/stats
Thu Mar 31 14:07:50 PDT 2016 - Found DataWarp/DVS fs stats file at /proc/fs/dvs/mounts/25/stats
Thu Mar 31 14:07:50 PDT 2016 - Found DataWarp/DVS fs stats file at /proc/fs/dvs/mounts/22/stats
Thu Mar 31 14:07:50 PDT 2016 - Found DataWarp/DVS fs stats file at /proc/fs/dvs/mounts/22/stats
Thu Mar 31 14:07:50 PDT 2016 - Found DataWarp/DVS fs stats file at /proc/fs/dvs/mounts/19/stats
Thu Mar 31 14:07:50 PDT 2016 - Found DataWarp/DVS fs stats file at /proc/fs/dvs/mounts/24/stats
Thu Mar 31 14:07:50 PDT 2016 - Found DataWarp/DVS fs stats file at /proc/fs/dvs/mounts/18/stats
Thu Mar 31 14:07:50 PDT 2016 - Found DataWarp/DVS fs stats file at /proc/fs/dvs/mounts/15/stats
Thu Mar 31 14:07:50 PDT 2016 - Found DataWarp/DVS fs stats file at /proc/fs/dvs/mounts/23/stats
Thu Mar 31 14:07:50 PDT 2016 - Found DataWarp/DVS fs stats file at /proc/fs/dvs/mounts/27/stats
Thu Mar 31 14:07:50 PDT 2016 - Found DataWarp/DVS fs stats file at /proc/fs/dvs/mounts/16/stats
Thu Mar 31 14:07:50 PDT 2016 - Found DataWarp/DVS fs stats file at /proc/fs/dvs/mounts/16/stats
Thu Mar 31 14:07:50 PDT 2016 - Found DataWarp/DVS fs stats file at /proc/fs/dvs/mounts/23/stats
Thu Mar 31 14:07:50 PDT 2016 - Found DataWarp/DVS fs stats file at /proc/fs/dvs/mounts/15/stats
Thu Mar 31 14:07:50 PDT 2016 - Found DataWarp/DVS fs stats file at /proc/fs/dvs/mounts/27/stats
Thu Mar 31 14:07:50 PDT 2016 - Found DataWarp/DVS fs stats file at /proc/fs/dvs/mounts/24/stats
Thu Mar 31 14:07:50 PDT 2016 - Found DataWarp/DVS fs stats file at /proc/fs/dvs/mounts/15/stats
Thu Mar 31 14:07:50 PDT 2016 - Found DataWarp/DVS fs stats file at /proc/fs/dvs/mounts/16/stats
Thu Mar 31 14:07:50 PDT 2016 - Found DataWarp/DVS fs stats file at /proc/fs/dvs/mounts/26/stats
Thu Mar 31 14:07:50 PDT 2016 - Found DataWarp/DVS fs stats file at /proc/fs/dvs/mounts/20/stats
Thu Mar 31 14:07:50 PDT 2016 - Found DataWarp/DVS fs stats file at /proc/fs/dvs/mounts/24/stats
Thu Mar 31 14:07:50 PDT 2016 - Found DataWarp/DVS fs stats file at /proc/fs/dvs/mounts/21/stats
Thu Mar 31 14:07:50 PDT 2016 - Found DataWarp/DVS fs stats file at /proc/fs/dvs/mounts/16/stats
Thu Mar 31 14:07:50 PDT 2016 - Found DataWarp/DVS fs stats file at /proc/fs/dvs/mounts/21/stats
Thu Mar 31 14:07:50 PDT 2016 - Found DataWarp/DVS fs stats file at /proc/fs/dvs/mounts/24/stats
Thu Mar 31 14:07:50 PDT 2016 - Found DataWarp/DVS fs stats file at /proc/fs/dvs/mounts/18/stats
Thu Mar 31 14:07:50 PDT 2016 - Found DataWarp/DVS fs stats file at /proc/fs/dvs/mounts/12/stats
Thu Mar 31 14:07:50 PDT 2016 - Found DataWarp/DVS fs stats file at /proc/fs/dvs/mounts/16/stats
Thu Mar 31 14:07:50 PDT 2016 - Found DataWarp/DVS fs stats file at /proc/fs/dvs/mounts/16/stats
Thu Mar 31 14:07:50 PDT 2016 - Found DataWarp/DVS fs stats file at /proc/fs/dvs/mounts/24/stats
Thu Mar 31 14:07:50 PDT 2016 - Found DataWarp/DVS fs stats file at /proc/fs/dvs/mounts/25/stats
Thu Mar 31 14:07:50 PDT 2016 - Found DataWarp/DVS fs stats file at /proc/fs/dvs/mounts/29/stats
Thu Mar 31 14:07:50 PDT 2016 - Found DataWarp/DVS fs stats file at /proc/fs/dvs/mounts/25/stats
Thu Mar 31 14:07:50 PDT 2016 - Found DataWarp/DVS fs stats file at /proc/fs/dvs/mounts/20/stats
Thu Mar 31 14:07:50 PDT 2016 - Found DataWarp/DVS fs stats file at /proc/fs/dvs/mounts/20/stats
Thu Mar 31 14:07:50 PDT 2016 - Found DataWarp/DVS fs stats file at /proc/fs/dvs/mounts/24/stats
Thu Mar 31 14:07:50 PDT 2016 - Found DataWarp/DVS fs stats file at /proc/fs/dvs/mounts/20/stats
Thu Mar 31 14:07:50 PDT 2016 - Found DataWarp/DVS fs stats file at /proc/fs/dvs/mounts/24/stats
Thu Mar 31 14:07:50 PDT 2016 - Found DataWarp/DVS fs stats file at /proc/fs/dvs/mounts/19/stats
Thu Mar 31 14:07:50 PDT 2016 - Found DataWarp/DVS fs stats file at /proc/fs/dvs/mounts/23/stats
Thu Mar 31 14:07:50 PDT 2016 - Found DataWarp/DVS fs stats file at /proc/fs/dvs/mounts/26/stats
Thu Mar 31 14:07:50 PDT 2016 - Found DataWarp/DVS fs stats file at /proc/fs/dvs/mounts/23/stats
Thu Mar 31 14:07:50 PDT 2016 - Found DataWarp/DVS fs stats file at /proc/fs/dvs/mounts/16/stats
Thu Mar 31 14:07:50 PDT 2016 - Found DataWarp/DVS fs stats file at /proc/fs/dvs/mounts/17/stats
Thu Mar 31 14:07:50 PDT 2016 - Found DataWarp/DVS fs stats file at /proc/fs/dvs/mounts/21/stats
Thu Mar 31 14:07:50 PDT 2016 - Found DataWarp/DVS fs stats file at /proc/fs/dvs/mounts/21/stats
Thu Mar 31 14:07:50 PDT 2016 - Found DataWarp/DVS fs stats file at /proc/fs/dvs/mounts/21/stats
Thu Mar 31 14:07:50 PDT 2016 - Found DataWarp/DVS fs stats file at /proc/fs/dvs/mounts/24/stats
Thu Mar 31 14:07:50 PDT 2016 - Found DataWarp/DVS fs stats file at /proc/fs/dvs/mounts/20/stats
Thu Mar 31 14:07:50 PDT 2016 - Found DataWarp/DVS fs stats file at /proc/fs/dvs/mounts/19/stats
Thu Mar 31 14:07:50 PDT 2016 - Found DataWarp/DVS fs stats file at /proc/fs/dvs/mounts/21/stats
Thu Mar 31 14:07:50 PDT 2016 - Found DataWarp/DVS fs stats file at /proc/fs/dvs/mounts/21/stats
Thu Mar 31 14:07:50 PDT 2016 - Found DataWarp/DVS fs stats file at /proc/fs/dvs/mounts/20/stats
Thu Mar 31 14:07:50 PDT 2016 - Found DataWarp/DVS fs stats file at /proc/fs/dvs/mounts/21/stats
Thu Mar 31 14:07:50 PDT 2016 - Found DataWarp/DVS fs stats file at /proc/fs/dvs/mounts/17/stats
Thu Mar 31 14:07:50 PDT 2016 - Found DataWarp/DVS fs stats file at /proc/fs/dvs/mounts/19/stats
Thu Mar 31 14:07:50 PDT 2016 - Found DataWarp/DVS fs stats file at /proc/fs/dvs/mounts/17/stats
Thu Mar 31 14:07:50 PDT 2016 - Found DataWarp/DVS fs stats file at /proc/fs/dvs/mounts/21/stats
Thu Mar 31 14:07:50 PDT 2016 - Found DataWarp/DVS fs stats file at /proc/fs/dvs/mounts/28/stats
Thu Mar 31 14:07:50 PDT 2016 - Found DataWarp/DVS fs stats file at /proc/fs/dvs/mounts/21/stats
Thu Mar 31 14:07:50 PDT 2016 - Found DataWarp/DVS fs stats file at /proc/fs/dvs/mounts/24/stats
Thu Mar 31 14:07:50 PDT 2016 - Found DataWarp/DVS fs stats file at /proc/fs/dvs/mounts/23/stats
Thu Mar 31 14:07:50 PDT 2016 - Found DataWarp/DVS fs stats file at /proc/fs/dvs/mounts/16/stats
Thu Mar 31 14:07:50 PDT 2016 - Found DataWarp/DVS fs stats file at /proc/fs/dvs/mounts/18/stats
Thu Mar 31 14:07:50 PDT 2016 - Found DataWarp/DVS fs stats file at /proc/fs/dvs/mounts/21/stats
Thu Mar 31 14:07:50 PDT 2016 - Found DataWarp/DVS fs stats file at /proc/fs/dvs/mounts/24/stats
Thu Mar 31 14:08:40 PDT 2016 - Found DataWarp/DVS fs stats file at /proc/fs/dvs/mounts/21/stats
Thu Mar 31 14:08:40 PDT 2016 - Found DataWarp/DVS fs stats file at /proc/fs/dvs/mounts/21/stats
Thu Mar 31 14:08:40 PDT 2016 - Found DataWarp/DVS fs stats file at /proc/fs/dvs/mounts/25/stats
Thu Mar 31 14:08:40 PDT 2016 - Found DataWarp/DVS fs stats file at /proc/fs/dvs/mounts/19/stats
Thu Mar 31 14:08:40 PDT 2016 - Found DataWarp/DVS fs stats file at /proc/fs/dvs/mounts/16/stats
Thu Mar 31 14:08:40 PDT 2016 - Found DataWarp/DVS fs stats file at /proc/fs/dvs/mounts/14/stats
Thu Mar 31 14:08:40 PDT 2016 - Found DataWarp/DVS fs stats file at /proc/fs/dvs/mounts/17/stats
MPIIO: unrecognized DVS real_fs_magic=0XBBFBBF10  ADIOI_CRAY_dvs_real_fstype:1246  using default optimizations
MPIIO WARNING: DVS stripe width of 32 was requested but DVS set it to 64
See MPICH_MPIIO_DVS_MAXNODES in the intro_mpi man page.
Number of paritcles: 33554432 
Finished initializing particles 
Opened H5Part file... 
Before writing particles 
Step is set 
Num particles is set 
Written variable 1 
Written variable 2 
Written variable 3 
Written variable 4 
Written variable 5 
Written variable 6 
Written variable 7 
Written variable 8 
After writing particles 
After closing particles 

Timing results
37.789703 seconds elapsed in just writing data
39.748741 seconds elapsed in opening, writing, closing file

Thu Mar 31 14:09:43 PDT 2016 - Found DataWarp/DVS fs stats file at /proc/fs/dvs/mounts/16/stats
Thu Mar 31 14:09:44 PDT 2016 - Found DataWarp/DVS fs stats file at /proc/fs/dvs/mounts/17/stats
Thu Mar 31 14:09:44 PDT 2016 - Found DataWarp/DVS fs stats file at /proc/fs/dvs/mounts/23/stats
Thu Mar 31 14:09:44 PDT 2016 - Found DataWarp/DVS fs stats file at /proc/fs/dvs/mounts/24/stats
Thu Mar 31 14:09:44 PDT 2016 - Found DataWarp/DVS fs stats file at /proc/fs/dvs/mounts/23/stats
Thu Mar 31 14:09:44 PDT 2016 - Found DataWarp/DVS fs stats file at /proc/fs/dvs/mounts/21/stats
Thu Mar 31 14:09:44 PDT 2016 - Found DataWarp/DVS fs stats file at /proc/fs/dvs/mounts/16/stats
Thu Mar 31 14:09:44 PDT 2016 - Found DataWarp/DVS fs stats file at /proc/fs/dvs/mounts/16/stats
Thu Mar 31 14:09:44 PDT 2016 - Found DataWarp/DVS fs stats file at /proc/fs/dvs/mounts/24/stats
Thu Mar 31 14:09:44 PDT 2016 - Found DataWarp/DVS fs stats file at /proc/fs/dvs/mounts/19/stats
Thu Mar 31 14:09:44 PDT 2016 - Found DataWarp/DVS fs stats file at /proc/fs/dvs/mounts/16/stats
Thu Mar 31 14:09:44 PDT 2016 - Found DataWarp/DVS fs stats file at /proc/fs/dvs/mounts/16/stats
Thu Mar 31 14:09:44 PDT 2016 - Found DataWarp/DVS fs stats file at /proc/fs/dvs/mounts/24/stats
Thu Mar 31 14:09:44 PDT 2016 - Found DataWarp/DVS fs stats file at /proc/fs/dvs/mounts/19/stats
Thu Mar 31 14:09:44 PDT 2016 - Found DataWarp/DVS fs stats file at /proc/fs/dvs/mounts/19/stats
Thu Mar 31 14:09:44 PDT 2016 - Found DataWarp/DVS fs stats file at /proc/fs/dvs/mounts/21/stats
Thu Mar 31 14:09:44 PDT 2016 - Found DataWarp/DVS fs stats file at /proc/fs/dvs/mounts/28/stats
Thu Mar 31 14:09:44 PDT 2016 - Found DataWarp/DVS fs stats file at /proc/fs/dvs/mounts/16/stats
Thu Mar 31 14:09:44 PDT 2016 - Found DataWarp/DVS fs stats file at /proc/fs/dvs/mounts/18/stats
Thu Mar 31 14:09:44 PDT 2016 - Found DataWarp/DVS fs stats file at /proc/fs/dvs/mounts/17/stats
Thu Mar 31 14:09:44 PDT 2016 - Found DataWarp/DVS fs stats file at /proc/fs/dvs/mounts/22/stats
Thu Mar 31 14:09:44 PDT 2016 - Found DataWarp/DVS fs stats file at /proc/fs/dvs/mounts/16/stats
Thu Mar 31 14:09:44 PDT 2016 - Found DataWarp/DVS fs stats file at /proc/fs/dvs/mounts/27/stats
Thu Mar 31 14:09:44 PDT 2016 - Found DataWarp/DVS fs stats file at /proc/fs/dvs/mounts/15/stats
Thu Mar 31 14:09:44 PDT 2016 - Found DataWarp/DVS fs stats file at /proc/fs/dvs/mounts/24/stats
Thu Mar 31 14:09:44 PDT 2016 - Found DataWarp/DVS fs stats file at /proc/fs/dvs/mounts/23/stats
Thu Mar 31 14:09:44 PDT 2016 - Found DataWarp/DVS fs stats file at /proc/fs/dvs/mounts/19/stats
Thu Mar 31 14:09:44 PDT 2016 - Found DataWarp/DVS fs stats file at /proc/fs/dvs/mounts/16/stats
Thu Mar 31 14:09:44 PDT 2016 - Found DataWarp/DVS fs stats file at /proc/fs/dvs/mounts/24/stats
Thu Mar 31 14:09:44 PDT 2016 - Found DataWarp/DVS fs stats file at /proc/fs/dvs/mounts/12/stats
Thu Mar 31 14:09:44 PDT 2016 - Found DataWarp/DVS fs stats file at /proc/fs/dvs/mounts/15/stats
Thu Mar 31 14:09:44 PDT 2016 - Found DataWarp/DVS fs stats file at /proc/fs/dvs/mounts/21/stats
Thu Mar 31 14:09:44 PDT 2016 - Found DataWarp/DVS fs stats file at /proc/fs/dvs/mounts/20/stats
Thu Mar 31 14:09:44 PDT 2016 - Found DataWarp/DVS fs stats file at /proc/fs/dvs/mounts/19/stats
Thu Mar 31 14:09:44 PDT 2016 - Found DataWarp/DVS fs stats file at /proc/fs/dvs/mounts/14/stats
Thu Mar 31 14:09:44 PDT 2016 - Found DataWarp/DVS fs stats file at /proc/fs/dvs/mounts/21/stats
Thu Mar 31 14:09:44 PDT 2016 - Found DataWarp/DVS fs stats file at /proc/fs/dvs/mounts/16/stats
Thu Mar 31 14:09:44 PDT 2016 - Found DataWarp/DVS fs stats file at /proc/fs/dvs/mounts/23/stats
Thu Mar 31 14:09:44 PDT 2016 - Found DataWarp/DVS fs stats file at /proc/fs/dvs/mounts/20/stats
Thu Mar 31 14:09:44 PDT 2016 - Found DataWarp/DVS fs stats file at /proc/fs/dvs/mounts/25/stats
Thu Mar 31 14:09:44 PDT 2016 - Found DataWarp/DVS fs stats file at /proc/fs/dvs/mounts/23/stats
Thu Mar 31 14:09:44 PDT 2016 - Found DataWarp/DVS fs stats file at /proc/fs/dvs/mounts/23/stats
Thu Mar 31 14:09:44 PDT 2016 - Found DataWarp/DVS fs stats file at /proc/fs/dvs/mounts/28/stats
Thu Mar 31 14:09:44 PDT 2016 - Found DataWarp/DVS fs stats file at /proc/fs/dvs/mounts/16/stats
Thu Mar 31 14:09:44 PDT 2016 - Found DataWarp/DVS fs stats file at /proc/fs/dvs/mounts/23/stats
Thu Mar 31 14:09:44 PDT 2016 - Found DataWarp/DVS fs stats file at /proc/fs/dvs/mounts/23/stats
Thu Mar 31 14:09:44 PDT 2016 - Found DataWarp/DVS fs stats file at /proc/fs/dvs/mounts/18/stats
Thu Mar 31 14:09:44 PDT 2016 - Found DataWarp/DVS fs stats file at /proc/fs/dvs/mounts/24/stats
Thu Mar 31 14:09:44 PDT 2016 - Found DataWarp/DVS fs stats file at /proc/fs/dvs/mounts/23/stats
Thu Mar 31 14:09:44 PDT 2016 - Found DataWarp/DVS fs stats file at /proc/fs/dvs/mounts/20/stats
Thu Mar 31 14:09:44 PDT 2016 - Found DataWarp/DVS fs stats file at /proc/fs/dvs/mounts/22/stats
Thu Mar 31 14:09:44 PDT 2016 - Found DataWarp/DVS fs stats file at /proc/fs/dvs/mounts/22/stats
Thu Mar 31 14:09:44 PDT 2016 - Found DataWarp/DVS fs stats file at /proc/fs/dvs/mounts/24/stats
Thu Mar 31 14:09:44 PDT 2016 - Found DataWarp/DVS fs stats file at /proc/fs/dvs/mounts/23/stats
Thu Mar 31 14:09:44 PDT 2016 - Found DataWarp/DVS fs stats file at /proc/fs/dvs/mounts/20/stats
Thu Mar 31 14:09:44 PDT 2016 - Found DataWarp/DVS fs stats file at /proc/fs/dvs/mounts/26/stats
Thu Mar 31 14:09:44 PDT 2016 - Found DataWarp/DVS fs stats file at /proc/fs/dvs/mounts/24/stats
Thu Mar 31 14:09:44 PDT 2016 - Found DataWarp/DVS fs stats file at /proc/fs/dvs/mounts/16/stats
Thu Mar 31 14:09:44 PDT 2016 - Found DataWarp/DVS fs stats file at /proc/fs/dvs/mounts/15/stats
Thu Mar 31 14:09:44 PDT 2016 - Found DataWarp/DVS fs stats file at /proc/fs/dvs/mounts/20/stats
Thu Mar 31 14:09:44 PDT 2016 - Found DataWarp/DVS fs stats file at /proc/fs/dvs/mounts/23/stats
Thu Mar 31 14:09:44 PDT 2016 - Found DataWarp/DVS fs stats file at /proc/fs/dvs/mounts/16/stats
Thu Mar 31 14:09:44 PDT 2016 - Found DataWarp/DVS fs stats file at /proc/fs/dvs/mounts/24/stats
Thu Mar 31 14:09:44 PDT 2016 - Found DataWarp/DVS fs stats file at /proc/fs/dvs/mounts/17/stats
Thu Mar 31 14:09:44 PDT 2016 - Found DataWarp/DVS fs stats file at /proc/fs/dvs/mounts/24/stats
Thu Mar 31 14:09:44 PDT 2016 - Found DataWarp/DVS fs stats file at /proc/fs/dvs/mounts/25/stats
Thu Mar 31 14:09:44 PDT 2016 - Found DataWarp/DVS fs stats file at /proc/fs/dvs/mounts/21/stats
Thu Mar 31 14:09:44 PDT 2016 - Found DataWarp/DVS fs stats file at /proc/fs/dvs/mounts/16/stats
Thu Mar 31 14:09:44 PDT 2016 - Found DataWarp/DVS fs stats file at /proc/fs/dvs/mounts/23/stats
Thu Mar 31 14:09:44 PDT 2016 - Found DataWarp/DVS fs stats file at /proc/fs/dvs/mounts/16/stats
Thu Mar 31 14:09:44 PDT 2016 - Found DataWarp/DVS fs stats file at /proc/fs/dvs/mounts/17/stats
Thu Mar 31 14:09:44 PDT 2016 - Found DataWarp/DVS fs stats file at /proc/fs/dvs/mounts/15/stats
Thu Mar 31 14:09:44 PDT 2016 - Found DataWarp/DVS fs stats file at /proc/fs/dvs/mounts/21/stats
Thu Mar 31 14:09:44 PDT 2016 - Found DataWarp/DVS fs stats file at /proc/fs/dvs/mounts/25/stats
Thu Mar 31 14:09:44 PDT 2016 - Found DataWarp/DVS fs stats file at /proc/fs/dvs/mounts/24/stats
Thu Mar 31 14:09:44 PDT 2016 - Found DataWarp/DVS fs stats file at /proc/fs/dvs/mounts/17/stats
Thu Mar 31 14:09:44 PDT 2016 - Found DataWarp/DVS fs stats file at /proc/fs/dvs/mounts/24/stats
Thu Mar 31 14:09:44 PDT 2016 - Found DataWarp/DVS fs stats file at /proc/fs/dvs/mounts/22/stats
Thu Mar 31 14:09:44 PDT 2016 - Found DataWarp/DVS fs stats file at /proc/fs/dvs/mounts/21/stats
Thu Mar 31 14:09:44 PDT 2016 - Found DataWarp/DVS fs stats file at /proc/fs/dvs/mounts/20/stats
Thu Mar 31 14:09:44 PDT 2016 - Found DataWarp/DVS fs stats file at /proc/fs/dvs/mounts/24/stats
Thu Mar 31 14:09:44 PDT 2016 - Found DataWarp/DVS fs stats file at /proc/fs/dvs/mounts/24/stats
Thu Mar 31 14:09:44 PDT 2016 - Found DataWarp/DVS fs stats file at /proc/fs/dvs/mounts/23/stats
Thu Mar 31 14:09:44 PDT 2016 - Found DataWarp/DVS fs stats file at /proc/fs/dvs/mounts/19/stats
Thu Mar 31 14:09:44 PDT 2016 - Found DataWarp/DVS fs stats file at /proc/fs/dvs/mounts/21/stats
Thu Mar 31 14:09:44 PDT 2016 - Found DataWarp/DVS fs stats file at /proc/fs/dvs/mounts/20/stats
Thu Mar 31 14:09:44 PDT 2016 - Found DataWarp/DVS fs stats file at /proc/fs/dvs/mounts/22/stats
Thu Mar 31 14:09:44 PDT 2016 - Found DataWarp/DVS fs stats file at /proc/fs/dvs/mounts/28/stats
Thu Mar 31 14:09:44 PDT 2016 - Found DataWarp/DVS fs stats file at /proc/fs/dvs/mounts/23/stats
Thu Mar 31 14:09:44 PDT 2016 - Found DataWarp/DVS fs stats file at /proc/fs/dvs/mounts/24/stats
Thu Mar 31 14:09:44 PDT 2016 - Found DataWarp/DVS fs stats file at /proc/fs/dvs/mounts/24/stats
Thu Mar 31 14:09:44 PDT 2016 - Found DataWarp/DVS fs stats file at /proc/fs/dvs/mounts/21/stats
Thu Mar 31 14:09:44 PDT 2016 - Found DataWarp/DVS fs stats file at /proc/fs/dvs/mounts/29/stats
Thu Mar 31 14:09:44 PDT 2016 - Found DataWarp/DVS fs stats file at /proc/fs/dvs/mounts/17/stats
Thu Mar 31 14:09:44 PDT 2016 - Found DataWarp/DVS fs stats file at /proc/fs/dvs/mounts/21/stats
Thu Mar 31 14:09:44 PDT 2016 - Found DataWarp/DVS fs stats file at /proc/fs/dvs/mounts/21/stats
Thu Mar 31 14:09:44 PDT 2016 - Found DataWarp/DVS fs stats file at /proc/fs/dvs/mounts/27/stats
Thu Mar 31 14:09:44 PDT 2016 - Found DataWarp/DVS fs stats file at /proc/fs/dvs/mounts/30/stats
Thu Mar 31 14:09:44 PDT 2016 - Found DataWarp/DVS fs stats file at /proc/fs/dvs/mounts/18/stats
Thu Mar 31 14:09:44 PDT 2016 - Found DataWarp/DVS fs stats file at /proc/fs/dvs/mounts/17/stats
Thu Mar 31 14:09:44 PDT 2016 - Found DataWarp/DVS fs stats file at /proc/fs/dvs/mounts/22/stats
Thu Mar 31 14:09:44 PDT 2016 - Found DataWarp/DVS fs stats file at /proc/fs/dvs/mounts/20/stats
Thu Mar 31 14:09:44 PDT 2016 - Found DataWarp/DVS fs stats file at /proc/fs/dvs/mounts/20/stats
Thu Mar 31 14:09:44 PDT 2016 - Found DataWarp/DVS fs stats file at /proc/fs/dvs/mounts/17/stats
Thu Mar 31 14:09:44 PDT 2016 - Found DataWarp/DVS fs stats file at /proc/fs/dvs/mounts/16/stats
Thu Mar 31 14:09:44 PDT 2016 - Found DataWarp/DVS fs stats file at /proc/fs/dvs/mounts/25/stats
Thu Mar 31 14:09:44 PDT 2016 - Found DataWarp/DVS fs stats file at /proc/fs/dvs/mounts/22/stats
Thu Mar 31 14:09:44 PDT 2016 - Found DataWarp/DVS fs stats file at /proc/fs/dvs/mounts/16/stats
Thu Mar 31 14:09:44 PDT 2016 - Found DataWarp/DVS fs stats file at /proc/fs/dvs/mounts/24/stats
Thu Mar 31 14:09:44 PDT 2016 - Found DataWarp/DVS fs stats file at /proc/fs/dvs/mounts/15/stats
Thu Mar 31 14:09:44 PDT 2016 - Found DataWarp/DVS fs stats file at /proc/fs/dvs/mounts/20/stats
Thu Mar 31 14:09:44 PDT 2016 - Found DataWarp/DVS fs stats file at /proc/fs/dvs/mounts/17/stats
Thu Mar 31 14:09:44 PDT 2016 - Found DataWarp/DVS fs stats file at /proc/fs/dvs/mounts/23/stats
Thu Mar 31 14:09:44 PDT 2016 - Found DataWarp/DVS fs stats file at /proc/fs/dvs/mounts/30/stats
Thu Mar 31 14:09:44 PDT 2016 - Found DataWarp/DVS fs stats file at /proc/fs/dvs/mounts/25/stats
Thu Mar 31 14:09:44 PDT 2016 - Found DataWarp/DVS fs stats file at /proc/fs/dvs/mounts/15/stats
Thu Mar 31 14:09:44 PDT 2016 - Found DataWarp/DVS fs stats file at /proc/fs/dvs/mounts/18/stats
Thu Mar 31 14:09:44 PDT 2016 - Found DataWarp/DVS fs stats file at /proc/fs/dvs/mounts/24/stats
Thu Mar 31 14:09:44 PDT 2016 - Found DataWarp/DVS fs stats file at /proc/fs/dvs/mounts/27/stats
Thu Mar 31 14:09:44 PDT 2016 - Found DataWarp/DVS fs stats file at /proc/fs/dvs/mounts/26/stats
Thu Mar 31 14:09:44 PDT 2016 - Found DataWarp/DVS fs stats file at /proc/fs/dvs/mounts/22/stats
Thu Mar 31 14:09:44 PDT 2016 - Found DataWarp/DVS fs stats file at /proc/fs/dvs/mounts/25/stats
Thu Mar 31 14:09:44 PDT 2016 - Found DataWarp/DVS fs stats file at /proc/fs/dvs/mounts/16/stats
Thu Mar 31 14:09:44 PDT 2016 - Found DataWarp/DVS fs stats file at /proc/fs/dvs/mounts/19/stats
Thu Mar 31 14:09:44 PDT 2016 - Found DataWarp/DVS fs stats file at /proc/fs/dvs/mounts/21/stats
Thu Mar 31 14:09:44 PDT 2016 - Found DataWarp/DVS fs stats file at /proc/fs/dvs/mounts/24/stats
Thu Mar 31 14:09:44 PDT 2016 - Found DataWarp/DVS fs stats file at /proc/fs/dvs/mounts/16/stats
Thu Mar 31 14:09:44 PDT 2016 - Found DataWarp/DVS fs stats file at /proc/fs/dvs/mounts/18/stats
Thu Mar 31 14:09:44 PDT 2016 - Found DataWarp/DVS fs stats file at /proc/fs/dvs/mounts/19/stats
Thu Mar 31 14:09:44 PDT 2016 - Found DataWarp/DVS fs stats file at /proc/fs/dvs/mounts/26/stats
Thu Mar 31 14:09:44 PDT 2016 - Found DataWarp/DVS fs stats file at /proc/fs/dvs/mounts/17/stats
Thu Mar 31 14:09:44 PDT 2016 - Found DataWarp/DVS fs stats file at /proc/fs/dvs/mounts/20/stats
Thu Mar 31 14:09:44 PDT 2016 - Found DataWarp/DVS fs stats file at /proc/fs/dvs/mounts/15/stats
Thu Mar 31 14:09:44 PDT 2016 - Found DataWarp/DVS fs stats file at /proc/fs/dvs/mounts/12/stats
Thu Mar 31 14:09:44 PDT 2016 - Found DataWarp/DVS fs stats file at /proc/fs/dvs/mounts/19/stats
Thu Mar 31 14:09:44 PDT 2016 - Found DataWarp/DVS fs stats file at /proc/fs/dvs/mounts/19/stats
Thu Mar 31 14:09:44 PDT 2016 - Found DataWarp/DVS fs stats file at /proc/fs/dvs/mounts/16/stats
Thu Mar 31 14:09:44 PDT 2016 - Found DataWarp/DVS fs stats file at /proc/fs/dvs/mounts/16/stats
Thu Mar 31 14:09:44 PDT 2016 - Found DataWarp/DVS fs stats file at /proc/fs/dvs/mounts/15/stats
Thu Mar 31 14:09:44 PDT 2016 - Found DataWarp/DVS fs stats file at /proc/fs/dvs/mounts/19/stats
Thu Mar 31 14:09:44 PDT 2016 - Found DataWarp/DVS fs stats file at /proc/fs/dvs/mounts/25/stats
Thu Mar 31 14:09:44 PDT 2016 - Found DataWarp/DVS fs stats file at /proc/fs/dvs/mounts/26/stats
Thu Mar 31 14:09:44 PDT 2016 - Found DataWarp/DVS fs stats file at /proc/fs/dvs/mounts/20/stats
Thu Mar 31 14:09:44 PDT 2016 - Found DataWarp/DVS fs stats file at /proc/fs/dvs/mounts/20/stats
Thu Mar 31 14:09:44 PDT 2016 - Found DataWarp/DVS fs stats file at /proc/fs/dvs/mounts/20/stats
Thu Mar 31 14:09:44 PDT 2016 - Found DataWarp/DVS fs stats file at /proc/fs/dvs/mounts/24/stats
Thu Mar 31 14:09:44 PDT 2016 - Found DataWarp/DVS fs stats file at /proc/fs/dvs/mounts/21/stats
Thu Mar 31 14:09:44 PDT 2016 - Found DataWarp/DVS fs stats file at /proc/fs/dvs/mounts/24/stats
Thu Mar 31 14:09:44 PDT 2016 - Found DataWarp/DVS fs stats file at /proc/fs/dvs/mounts/22/stats
Thu Mar 31 14:09:44 PDT 2016 - Found DataWarp/DVS fs stats file at /proc/fs/dvs/mounts/17/stats
Thu Mar 31 14:09:44 PDT 2016 - Found DataWarp/DVS fs stats file at /proc/fs/dvs/mounts/16/stats
Thu Mar 31 14:09:44 PDT 2016 - Found DataWarp/DVS fs stats file at /proc/fs/dvs/mounts/16/stats
Thu Mar 31 14:09:44 PDT 2016 - Found DataWarp/DVS fs stats file at /proc/fs/dvs/mounts/24/stats
Thu Mar 31 14:09:44 PDT 2016 - Found DataWarp/DVS fs stats file at /proc/fs/dvs/mounts/24/stats
Thu Mar 31 14:09:44 PDT 2016 - Found DataWarp/DVS fs stats file at /proc/fs/dvs/mounts/25/stats
Thu Mar 31 14:09:44 PDT 2016 - Found DataWarp/DVS fs stats file at /proc/fs/dvs/mounts/18/stats
Thu Mar 31 14:09:44 PDT 2016 - Found DataWarp/DVS fs stats file at /proc/fs/dvs/mounts/24/stats
Thu Mar 31 14:09:44 PDT 2016 - Found DataWarp/DVS fs stats file at /proc/fs/dvs/mounts/21/stats
Thu Mar 31 14:09:44 PDT 2016 - Found DataWarp/DVS fs stats file at /proc/fs/dvs/mounts/24/stats
Thu Mar 31 14:09:44 PDT 2016 - Found DataWarp/DVS fs stats file at /proc/fs/dvs/mounts/17/stats
Thu Mar 31 14:09:44 PDT 2016 - Found DataWarp/DVS fs stats file at /proc/fs/dvs/mounts/17/stats
Thu Mar 31 14:09:44 PDT 2016 - Found DataWarp/DVS fs stats file at /proc/fs/dvs/mounts/21/stats
Thu Mar 31 14:09:44 PDT 2016 - Found DataWarp/DVS fs stats file at /proc/fs/dvs/mounts/19/stats
Thu Mar 31 14:09:44 PDT 2016 - Found DataWarp/DVS fs stats file at /proc/fs/dvs/mounts/17/stats
Thu Mar 31 14:09:44 PDT 2016 - Found DataWarp/DVS fs stats file at /proc/fs/dvs/mounts/27/stats
Thu Mar 31 14:09:44 PDT 2016 - Found DataWarp/DVS fs stats file at /proc/fs/dvs/mounts/21/stats
Thu Mar 31 14:09:44 PDT 2016 - Found DataWarp/DVS fs stats file at /proc/fs/dvs/mounts/15/stats
Thu Mar 31 14:09:44 PDT 2016 - Found DataWarp/DVS fs stats file at /proc/fs/dvs/mounts/16/stats
Thu Mar 31 14:09:44 PDT 2016 - Found DataWarp/DVS fs stats file at /proc/fs/dvs/mounts/23/stats
Thu Mar 31 14:09:44 PDT 2016 - Found DataWarp/DVS fs stats file at /proc/fs/dvs/mounts/25/stats
Thu Mar 31 14:09:44 PDT 2016 - Found DataWarp/DVS fs stats file at /proc/fs/dvs/mounts/16/stats
Thu Mar 31 14:09:44 PDT 2016 - Found DataWarp/DVS fs stats file at /proc/fs/dvs/mounts/20/stats
Thu Mar 31 14:09:44 PDT 2016 - Found DataWarp/DVS fs stats file at /proc/fs/dvs/mounts/16/stats
Thu Mar 31 14:09:44 PDT 2016 - Found DataWarp/DVS fs stats file at /proc/fs/dvs/mounts/18/stats
Thu Mar 31 14:09:44 PDT 2016 - Found DataWarp/DVS fs stats file at /proc/fs/dvs/mounts/23/stats
Thu Mar 31 14:09:44 PDT 2016 - Found DataWarp/DVS fs stats file at /proc/fs/dvs/mounts/23/stats
Thu Mar 31 14:09:44 PDT 2016 - Found DataWarp/DVS fs stats file at /proc/fs/dvs/mounts/24/stats
Thu Mar 31 14:09:44 PDT 2016 - Found DataWarp/DVS fs stats file at /proc/fs/dvs/mounts/21/stats
Thu Mar 31 14:09:44 PDT 2016 - Found DataWarp/DVS fs stats file at /proc/fs/dvs/mounts/21/stats
Thu Mar 31 14:09:44 PDT 2016 - Found DataWarp/DVS fs stats file at /proc/fs/dvs/mounts/29/stats
Thu Mar 31 14:09:44 PDT 2016 - Found DataWarp/DVS fs stats file at /proc/fs/dvs/mounts/21/stats
Thu Mar 31 14:09:44 PDT 2016 - Found DataWarp/DVS fs stats file at /proc/fs/dvs/mounts/21/stats
Thu Mar 31 14:09:44 PDT 2016 - Found DataWarp/DVS fs stats file at /proc/fs/dvs/mounts/18/stats
Thu Mar 31 14:09:44 PDT 2016 - Found DataWarp/DVS fs stats file at /proc/fs/dvs/mounts/16/stats
Thu Mar 31 14:09:44 PDT 2016 - Found DataWarp/DVS fs stats file at /proc/fs/dvs/mounts/16/stats
Thu Mar 31 14:09:44 PDT 2016 - Found DataWarp/DVS fs stats file at /proc/fs/dvs/mounts/28/stats
Thu Mar 31 14:09:44 PDT 2016 - Found DataWarp/DVS fs stats file at /proc/fs/dvs/mounts/21/stats
Thu Mar 31 14:09:44 PDT 2016 - Found DataWarp/DVS fs stats file at /proc/fs/dvs/mounts/21/stats
Thu Mar 31 14:09:44 PDT 2016 - Found DataWarp/DVS fs stats file at /proc/fs/dvs/mounts/22/stats
Thu Mar 31 14:09:45 PDT 2016 - Found DataWarp/DVS fs stats file at /proc/fs/dvs/mounts/18/stats
Thu Mar 31 14:09:45 PDT 2016 - Found DataWarp/DVS fs stats file at /proc/fs/dvs/mounts/21/stats
Thu Mar 31 14:09:45 PDT 2016 - Found DataWarp/DVS fs stats file at /proc/fs/dvs/mounts/19/stats
-rw-r----- 1 mbryson mbryson 6597069772936 Mar 31 14:09 /var/opt/cray/dws/mounts/batch/1574839/ss//output_192N/sample.h5part
-rw-r----- 1 mbryson mbryson 6.1T Mar 31 14:09 /var/opt/cray/dws/mounts/batch/1574839/ss//output_192N/sample.h5part
Thu Mar 31 14:10:00 2016: [unset]:_pmi_alps_get_apid:alps response not OKAY
Thu Mar 31 14:10:00 2016: [unset]:_pmi_init:_pmi_alps_init returned -1
HDF5 "/var/opt/cray/dws/mounts/batch/1574839/ss//output_192N/sample.h5part" {
GROUP "/" {
   ATTRIBUTE "Origin" {
      DATATYPE  H5T_STRING {
         STRSIZE 16;
         STRPAD H5T_STR_NULLTERM;
         CSET H5T_CSET_ASCII;
         CTYPE H5T_C_S1;
      }
      DATASPACE  SCALAR
   }
   GROUP "Step#0" {
      DATASET "id1" {
         DATATYPE  H5T_STD_I32LE
         DATASPACE  SIMPLE { ( 206158430208 ) / ( 206158430208 ) }
      }
      DATASET "id2" {
         DATATYPE  H5T_STD_I32LE
         DATASPACE  SIMPLE { ( 206158430208 ) / ( 206158430208 ) }
      }
      DATASET "px" {
         DATATYPE  H5T_IEEE_F32LE
         DATASPACE  SIMPLE { ( 206158430208 ) / ( 206158430208 ) }
      }
      DATASET "py" {
         DATATYPE  H5T_IEEE_F32LE
         DATASPACE  SIMPLE { ( 206158430208 ) / ( 206158430208 ) }
      }
      DATASET "pz" {
         DATATYPE  H5T_IEEE_F32LE
         DATASPACE  SIMPLE { ( 206158430208 ) / ( 206158430208 ) }
      }
      DATASET "x" {
         DATATYPE  H5T_IEEE_F32LE
         DATASPACE  SIMPLE { ( 206158430208 ) / ( 206158430208 ) }
      }
      DATASET "y" {
         DATATYPE  H5T_IEEE_F32LE
         DATASPACE  SIMPLE { ( 206158430208 ) / ( 206158430208 ) }
      }
      DATASET "z" {
         DATATYPE  H5T_IEEE_F32LE
         DATASPACE  SIMPLE { ( 206158430208 ) / ( 206158430208 ) }
      }
   }
}
}
