Running VPIC-IO with 2K processes, 64BB nodes, matched
     pool units quantity      free      gran 
test_pool bytes  5.82TiB         0     16MiB 
 wlm_pool bytes 832.5TiB 616.47TiB 212.91GiB 

sess state   token creator owner             created expiration nodes 
3706 CA--- 1357763   SLURM 69107 2016-03-15T01:19:18      never    64 

inst state sess     bytes nodes             created expiration intact          label public confs 
1162 CA--- 1342 212.91GiB     1 2016-01-21T01:50:01      never   true       andreyBB   true     1 
1257 CA--- 1457 212.91GiB     1 2016-01-25T14:25:04      never   true       djbTest2   true     1 
1337 CA--- 1551   2.08TiB    10 2016-01-28T13:11:38      never   true DJBpbbcombine7   true     1 
1589 CA--- 1826   2.08TiB    10 2016-02-02T20:32:37      never   true  DJBmlrefine19   true     1 
2232 CA--- 2515 425.81GiB     2 2016-02-19T12:09:21      never   true       XuanCami   true     1 
2234 CA--- 2520 212.91GiB     1 2016-02-19T13:45:33      never   true       myBBname   true     1 
2550 CA--- 3041   1.04TiB     5 2016-03-02T15:01:02      never   true   gatkbrachy_2   true     1 
2555 CA--- 3046   2.08TiB    10 2016-03-02T16:39:18      never   true     mlrefine19   true     1 
3213 CA--- 3706  13.31TiB    64 2016-03-15T01:19:18      never   true        I3706-0  false     1 

conf state inst    type access_type activs 
1417 CA--- 1162 scratch      stripe      0 
1514 CA--- 1257 scratch      stripe      0 
1594 CA--- 1337 scratch      stripe      0 
1852 CA--- 1589 scratch      stripe      0 
2503 CA--- 2232 scratch      stripe      0 
2505 CA--- 2234 scratch      stripe      0 
2821 CA--- 2550 scratch      stripe      0 
2826 CA--- 2555 scratch      stripe      0 
3486 CA--- 3213 scratch      stripe      1 

 reg state sess conf wait 
3574 CA--- 3706 3486 true 

activ state sess conf nodes                                     mount 
 3412 CA--- 3706 3486    64 /var/opt/cray/dws/mounts/batch/1357763/ss 

  frag state inst  capacity gran     node 
 30524  CA-- 1162 212.91GiB 4MiB nid01742 
 32292  CA-- 1257 212.91GiB 4MiB nid00530 
 33955  CA-- 1337 212.91GiB 4MiB nid01038 
 33956  CA-- 1337 212.91GiB 4MiB nid00913 
 33957  CA-- 1337 212.91GiB 4MiB nid02062 
 33958  CA-- 1337 212.91GiB 4MiB nid01418 
 33959  CA-- 1337 212.91GiB 4MiB nid01994 
 33960  CA-- 1337 212.91GiB 4MiB nid00785 
 33961  CA-- 1337 212.91GiB 4MiB nid00782 
 33962  CA-- 1337 212.91GiB 4MiB nid00142 
 33963  CA-- 1337 212.91GiB 4MiB nid02189 
 33964  CA-- 1337 212.91GiB 4MiB nid00781 
 41922  CA-- 1589 212.91GiB 4MiB nid01738 
 41923  CA-- 1589 212.91GiB 4MiB nid01353 
 41924  CA-- 1589 212.91GiB 4MiB nid00401 
 41925  CA-- 1589 212.91GiB 4MiB nid02066 
 41926  CA-- 1589 212.91GiB 4MiB nid00469 
 41927  CA-- 1589 212.91GiB 4MiB nid00585 
 41928  CA-- 1589 212.91GiB 4MiB nid00265 
 41929  CA-- 1589 212.91GiB 4MiB nid01610 
 41930  CA-- 1589 212.91GiB 4MiB nid02125 
 41931  CA-- 1589 212.91GiB 4MiB nid01101 
 61379  CA-- 2232 212.91GiB 4MiB nid02006 
 61380  CA-- 2232 212.91GiB 4MiB nid01034 
 61382  CA-- 2234 212.91GiB 4MiB nid00457 
 73696  CA-- 2550 212.91GiB 4MiB nid02249 
 73697  CA-- 2550 212.91GiB 4MiB nid00205 
 73698  CA-- 2550 212.91GiB 4MiB nid01801 
 73699  CA-- 2550 212.91GiB 4MiB nid00014 
 73700  CA-- 2550 212.91GiB 4MiB nid01169 
 73976  CA-- 2555 212.91GiB 4MiB nid00018 
 73977  CA-- 2555 212.91GiB 4MiB nid02126 
 73978  CA-- 2555 212.91GiB 4MiB nid01482 
 73979  CA-- 2555 212.91GiB 4MiB nid01934 
 73980  CA-- 2555 212.91GiB 4MiB nid01682 
 73981  CA-- 2555 212.91GiB 4MiB nid00333 
 73982  CA-- 2555 212.91GiB 4MiB nid00841 
 73983  CA-- 2555 212.91GiB 4MiB nid01609 
 73984  CA-- 2555 212.91GiB 4MiB nid00589 
 73985  CA-- 2555 212.91GiB 4MiB nid01038 
105065  CA-- 3213 212.91GiB 4MiB nid01805 
105066  CA-- 3213 212.91GiB 4MiB nid00085 
105067  CA-- 3213 212.91GiB 4MiB nid01170 
105068  CA-- 3213 212.91GiB 4MiB nid00013 
105069  CA-- 3213 212.91GiB 4MiB nid02065 
105070  CA-- 3213 212.91GiB 4MiB nid01869 
105071  CA-- 3213 212.91GiB 4MiB nid00397 
105072  CA-- 3213 212.91GiB 4MiB nid01421 
105073  CA-- 3213 212.91GiB 4MiB nid01102 
105074  CA-- 3213 212.91GiB 4MiB nid01870 
105075  CA-- 3213 212.91GiB 4MiB nid00270 
105076  CA-- 3213 212.91GiB 4MiB nid01166 
105077  CA-- 3213 212.91GiB 4MiB nid01550 
105078  CA-- 3213 212.91GiB 4MiB nid01553 
105079  CA-- 3213 212.91GiB 4MiB nid00910 
105080  CA-- 3213 212.91GiB 4MiB nid02061 
105081  CA-- 3213 212.91GiB 4MiB nid02185 
105082  CA-- 3213 212.91GiB 4MiB nid01933 
105083  CA-- 3213 212.91GiB 4MiB nid02121 
105084  CA-- 3213 212.91GiB 4MiB nid00970 
105085  CA-- 3213 212.91GiB 4MiB nid00914 
105086  CA-- 3213 212.91GiB 4MiB nid00017 
105087  CA-- 3213 212.91GiB 4MiB nid01165 
105088  CA-- 3213 212.91GiB 4MiB nid01622 
105089  CA-- 3213 212.91GiB 4MiB nid00786 
105090  CA-- 3213 212.91GiB 4MiB nid00074 
105091  CA-- 3213 212.91GiB 4MiB nid01866 
105092  CA-- 3213 212.91GiB 4MiB nid01993 
105093  CA-- 3213 212.91GiB 4MiB nid00525 
105094  CA-- 3213 212.91GiB 4MiB nid00714 
105095  CA-- 3213 212.91GiB 4MiB nid00330 
105096  CA-- 3213 212.91GiB 4MiB nid00334 
105097  CA-- 3213 212.91GiB 4MiB nid01742 
105098  CA-- 3213 212.91GiB 4MiB nid00649 
105099  CA-- 3213 212.91GiB 4MiB nid01238 
105100  CA-- 3213 212.91GiB 4MiB nid01297 
105101  CA-- 3213 212.91GiB 4MiB nid01293 
105102  CA-- 3213 212.91GiB 4MiB nid01677 
105103  CA-- 3213 212.91GiB 4MiB nid02122 
105104  CA-- 3213 212.91GiB 4MiB nid01554 
105105  CA-- 3213 212.91GiB 4MiB nid00909 
105106  CA-- 3213 212.91GiB 4MiB nid00529 
105107  CA-- 3213 212.91GiB 4MiB nid00590 
105108  CA-- 3213 212.91GiB 4MiB nid00398 
105109  CA-- 3213 212.91GiB 4MiB nid00654 
105110  CA-- 3213 212.91GiB 4MiB nid01226 
105111  CA-- 3213 212.91GiB 4MiB nid00018 
105112  CA-- 3213 212.91GiB 4MiB nid02126 
105113  CA-- 3213 212.91GiB 4MiB nid01482 
105114  CA-- 3213 212.91GiB 4MiB nid01934 
105115  CA-- 3213 212.91GiB 4MiB nid01682 
105116  CA-- 3213 212.91GiB 4MiB nid02249 
105117  CA-- 3213 212.91GiB 4MiB nid00205 
105118  CA-- 3213 212.91GiB 4MiB nid01801 
105119  CA-- 3213 212.91GiB 4MiB nid00014 
105120  CA-- 3213 212.91GiB 4MiB nid01169 
105121  CA-- 3213 212.91GiB 4MiB nid01357 
105122  CA-- 3213 212.91GiB 4MiB nid01417 
105123  CA-- 3213 212.91GiB 4MiB nid02006 
105124  CA-- 3213 212.91GiB 4MiB nid01034 
105125  CA-- 3213 212.91GiB 4MiB nid01354 
105126  CA-- 3213 212.91GiB 4MiB nid01938 
105127  CA-- 3213 212.91GiB 4MiB nid00266 
105128  CA-- 3213 212.91GiB 4MiB nid00333 

   ns state conf   frag span 
45414  CA-- 1417  30524    1 
45505  CA-- 1514  32292    1 
45585  CA-- 1594  33955   10 
45907  CA-- 1852  41922   10 
49198  CA-- 2503  61379    2 
49200  CA-- 2505  61382    1 
52607  CA-- 2821  73696    5 
52612  CA-- 2826  73976   10 
54880  CA-- 3486 105065   64 

    node      pool online drain  gran capacity insts activs 
nid00013  wlm_pool   true false 16MiB  5.82TiB     1      0 
nid00014  wlm_pool   true false 16MiB  5.82TiB     2      0 
nid00017  wlm_pool   true false 16MiB  5.82TiB     1      0 
nid00018  wlm_pool   true false 16MiB  5.82TiB     2      0 
nid00073  wlm_pool   true false 16MiB  5.82TiB     0      0 
nid00074  wlm_pool   true false 16MiB  5.82TiB     1      0 
nid00085  wlm_pool   true false 16MiB  5.82TiB     1      0 
nid00086  wlm_pool   true false 16MiB  5.82TiB     0      0 
nid00141  wlm_pool   true false 16MiB  5.82TiB     0      0 
nid00142  wlm_pool   true false 16MiB  5.82TiB     1      0 
nid00145  wlm_pool   true false 16MiB  5.82TiB     0      0 
nid00146  wlm_pool   true false 16MiB  5.82TiB     0      0 
nid00201  wlm_pool   true false 16MiB  5.82TiB     0      0 
nid00202  wlm_pool   true false 16MiB  5.82TiB     0      0 
nid00205  wlm_pool   true false 16MiB  5.82TiB     2      0 
nid00206  wlm_pool   true false 16MiB  5.82TiB     0      0 
nid00265  wlm_pool   true false 16MiB  5.82TiB     1      0 
nid00266  wlm_pool   true false 16MiB  5.82TiB     1      0 
nid00269  wlm_pool   true false 16MiB  5.82TiB     0      0 
nid00270  wlm_pool   true false 16MiB  5.82TiB     1      0 
nid00329  wlm_pool   true false 16MiB  5.82TiB     0      0 
nid00330  wlm_pool   true false 16MiB  5.82TiB     1      0 
nid00333  wlm_pool   true false 16MiB  5.82TiB     2      0 
nid00334  wlm_pool   true false 16MiB  5.82TiB     1      0 
nid00397  wlm_pool   true false 16MiB  5.82TiB     1      0 
nid00398  wlm_pool   true false 16MiB  5.82TiB     1      0 
nid00401  wlm_pool   true false 16MiB  5.82TiB     1      0 
nid00402  wlm_pool   true false 16MiB  5.82TiB     0      0 
nid00457  wlm_pool   true false 16MiB  5.82TiB     1      0 
nid00458  wlm_pool   true false 16MiB  5.82TiB     0      0 
nid00469  wlm_pool   true false 16MiB  5.82TiB     1      0 
nid00470  wlm_pool   true false 16MiB  5.82TiB     0      0 
nid00525  wlm_pool   true false 16MiB  5.82TiB     1      0 
nid00526  wlm_pool   true false 16MiB  5.82TiB     0      0 
nid00529  wlm_pool   true false 16MiB  5.82TiB     1      0 
nid00530  wlm_pool   true false 16MiB  5.82TiB     1      0 
nid00585  wlm_pool   true false 16MiB  5.82TiB     1      0 
nid00586  wlm_pool   true false 16MiB  5.82TiB     0      0 
nid00589  wlm_pool   true false 16MiB  5.82TiB     1      0 
nid00590  wlm_pool   true false 16MiB  5.82TiB     1      0 
nid00649  wlm_pool   true false 16MiB  5.82TiB     1      0 
nid00650  wlm_pool   true false 16MiB  5.82TiB     0      0 
nid00653  wlm_pool   true false 16MiB  5.82TiB     0      0 
nid00654  wlm_pool   true false 16MiB  5.82TiB     1      0 
nid00713  wlm_pool   true false 16MiB  5.82TiB     0      0 
nid00714  wlm_pool   true false 16MiB  5.82TiB     1      0 
nid00717  wlm_pool   true false 16MiB  5.82TiB     0      0 
nid00718  wlm_pool   true false 16MiB  5.82TiB     0      0 
nid00781  wlm_pool   true false 16MiB  5.82TiB     1      0 
nid00782  wlm_pool   true false 16MiB  5.82TiB     1      0 
nid00785  wlm_pool   true false 16MiB  5.82TiB     1      0 
nid00786  wlm_pool   true false 16MiB  5.82TiB     1      0 
nid00841  wlm_pool   true false 16MiB  5.82TiB     1      0 
nid00842  wlm_pool   true false 16MiB  5.82TiB     0      0 
nid00853  wlm_pool   true false 16MiB  5.82TiB     0      0 
nid00854  wlm_pool   true false 16MiB  5.82TiB     0      0 
nid00909  wlm_pool   true false 16MiB  5.82TiB     1      0 
nid00910  wlm_pool   true false 16MiB  5.82TiB     1      0 
nid00913  wlm_pool   true false 16MiB  5.82TiB     1      0 
nid00914  wlm_pool   true false 16MiB  5.82TiB     1      0 
nid00969  wlm_pool   true false 16MiB  5.82TiB     0      0 
nid00970  wlm_pool   true false 16MiB  5.82TiB     1      0 
nid00973  wlm_pool   true false 16MiB  5.82TiB     0      0 
nid00974  wlm_pool   true false 16MiB  5.82TiB     0      0 
nid01033  wlm_pool   true false 16MiB  5.82TiB     0      0 
nid01034  wlm_pool   true false 16MiB  5.82TiB     2      0 
nid01037  wlm_pool   true false 16MiB  5.82TiB     0      0 
nid01038  wlm_pool   true false 16MiB  5.82TiB     2      0 
nid01097  wlm_pool   true false 16MiB  5.82TiB     0      0 
nid01098  wlm_pool   true  true 16MiB  5.82TiB     0      0 
nid01101  wlm_pool   true  true 16MiB  5.82TiB     1      0 
nid01102  wlm_pool   true false 16MiB  5.82TiB     1      0 
nid01165  wlm_pool   true false 16MiB  5.82TiB     1      0 
nid01166  wlm_pool   true false 16MiB  5.82TiB     1      0 
nid01169  wlm_pool   true false 16MiB  5.82TiB     2      0 
nid01170  wlm_pool   true false 16MiB  5.82TiB     1      0 
nid01225  wlm_pool   true false 16MiB  5.82TiB     0      0 
nid01226  wlm_pool   true false 16MiB  5.82TiB     1      0 
nid01237  wlm_pool   true false 16MiB  5.82TiB     0      0 
nid01238  wlm_pool   true false 16MiB  5.82TiB     1      0 
nid01293  wlm_pool   true false 16MiB  5.82TiB     1      0 
nid01294  wlm_pool   true false 16MiB  5.82TiB     0      0 
nid01297  wlm_pool   true false 16MiB  5.82TiB     1      0 
nid01298  wlm_pool   true false 16MiB  5.82TiB     0      0 
nid01353  wlm_pool   true false 16MiB  5.82TiB     1      0 
nid01354  wlm_pool   true false 16MiB  5.82TiB     1      0 
nid01357  wlm_pool   true false 16MiB  5.82TiB     1      0 
nid01358  wlm_pool   true false 16MiB  5.82TiB     0      0 
nid01417  wlm_pool   true false 16MiB  5.82TiB     1      0 
nid01418  wlm_pool   true false 16MiB  5.82TiB     1      0 
nid01421  wlm_pool   true false 16MiB  5.82TiB     1      0 
nid01422  wlm_pool   true  true 16MiB  5.82TiB     0      0 
nid01481  wlm_pool   true false 16MiB  5.82TiB     0      0 
nid01482  wlm_pool   true false 16MiB  5.82TiB     2      0 
nid01485  wlm_pool   true false 16MiB  5.82TiB     0      0 
nid01486  wlm_pool   true false 16MiB  5.82TiB     0      0 
nid01549  wlm_pool   true false 16MiB  5.82TiB     0      0 
nid01550  wlm_pool   true false 16MiB  5.82TiB     1      0 
nid01553  wlm_pool   true false 16MiB  5.82TiB     1      0 
nid01554  wlm_pool   true false 16MiB  5.82TiB     1      0 
nid01609  wlm_pool   true false 16MiB  5.82TiB     1      0 
nid01610  wlm_pool   true false 16MiB  5.82TiB     1      0 
nid01621  wlm_pool   true false 16MiB  5.82TiB     0      0 
nid01622  wlm_pool   true false 16MiB  5.82TiB     1      0 
nid01677  wlm_pool   true false 16MiB  5.82TiB     1      0 
nid01678  wlm_pool   true false 16MiB  5.82TiB     0      0 
nid01681  wlm_pool   true false 16MiB  5.82TiB     0      0 
nid01682  wlm_pool   true false 16MiB  5.82TiB     2      0 
nid01737  wlm_pool   true false 16MiB  5.82TiB     0      0 
nid01738  wlm_pool   true false 16MiB  5.82TiB     1      0 
nid01741  wlm_pool   true false 16MiB  5.82TiB     0      0 
nid01742  wlm_pool   true false 16MiB  5.82TiB     2      0 
nid01801  wlm_pool   true false 16MiB  5.82TiB     2      0 
nid01802  wlm_pool   true false 16MiB  5.82TiB     0      0 
nid01805  wlm_pool   true false 16MiB  5.82TiB     1      0 
nid01806  wlm_pool   true false 16MiB  5.82TiB     0      0 
nid01865  wlm_pool   true  true 16MiB  5.82TiB     0      0 
nid01866  wlm_pool   true false 16MiB  5.82TiB     1      0 
nid01869  wlm_pool   true false 16MiB  5.82TiB     1      0 
nid01870  wlm_pool   true false 16MiB  5.82TiB     1      0 
nid01933  wlm_pool   true false 16MiB  5.82TiB     1      0 
nid01934  wlm_pool   true false 16MiB  5.82TiB     2      0 
nid01937  wlm_pool   true false 16MiB  5.82TiB     0      0 
nid01938  wlm_pool   true false 16MiB  5.82TiB     1      0 
nid01993  wlm_pool   true false 16MiB  5.82TiB     1      0 
nid01994  wlm_pool   true false 16MiB  5.82TiB     1      0 
nid02005  wlm_pool   true false 16MiB  5.82TiB     0      0 
nid02006  wlm_pool   true false 16MiB  5.82TiB     2      0 
nid02061  wlm_pool   true false 16MiB  5.82TiB     1      0 
nid02062  wlm_pool   true false 16MiB  5.82TiB     1      0 
nid02065  wlm_pool   true false 16MiB  5.82TiB     1      0 
nid02066  wlm_pool   true false 16MiB  5.82TiB     1      0 
nid02121  wlm_pool   true false 16MiB  5.82TiB     1      0 
nid02122  wlm_pool   true false 16MiB  5.82TiB     1      0 
nid02125  wlm_pool   true false 16MiB  5.82TiB     1      0 
nid02126  wlm_pool   true false 16MiB  5.82TiB     2      0 
nid02185  wlm_pool   true false 16MiB  5.82TiB     1      0 
nid02186  wlm_pool   true false 16MiB  5.82TiB     0      0 
nid02189  wlm_pool   true false 16MiB  5.82TiB     1      0 
nid02190  wlm_pool   true false 16MiB  5.82TiB     0      0 
nid02249  wlm_pool   true false 16MiB  5.82TiB     2      0 
nid02250  wlm_pool   true false 16MiB  5.82TiB     0      0 
nid02253  wlm_pool   true  true 16MiB  5.82TiB     0      0 
nid02254 test_pool   true  true 16MiB  5.82TiB     0      0 

Tue Mar 15 01:44:42 PDT 2016 - Found DataWarp/DVS fs stats file at /proc/fs/dvs/mounts/58/stats
Tue Mar 15 01:44:42 PDT 2016 - Found DataWarp/DVS fs stats file at /proc/fs/dvs/mounts/71/stats
Tue Mar 15 01:44:42 PDT 2016 - Found DataWarp/DVS fs stats file at /proc/fs/dvs/mounts/73/stats
Tue Mar 15 01:44:42 PDT 2016 - Found DataWarp/DVS fs stats file at /proc/fs/dvs/mounts/71/stats
Tue Mar 15 01:44:42 PDT 2016 - Found DataWarp/DVS fs stats file at /proc/fs/dvs/mounts/68/stats
Tue Mar 15 01:44:42 PDT 2016 - Found DataWarp/DVS fs stats file at /proc/fs/dvs/mounts/72/stats
Tue Mar 15 01:44:42 PDT 2016 - Found DataWarp/DVS fs stats file at /proc/fs/dvs/mounts/71/stats
Tue Mar 15 01:44:42 PDT 2016 - Found DataWarp/DVS fs stats file at /proc/fs/dvs/mounts/73/stats
Tue Mar 15 01:44:42 PDT 2016 - Found DataWarp/DVS fs stats file at /proc/fs/dvs/mounts/68/stats
Tue Mar 15 01:44:42 PDT 2016 - Found DataWarp/DVS fs stats file at /proc/fs/dvs/mounts/72/stats
Tue Mar 15 01:44:42 PDT 2016 - Found DataWarp/DVS fs stats file at /proc/fs/dvs/mounts/72/stats
Tue Mar 15 01:44:42 PDT 2016 - Found DataWarp/DVS fs stats file at /proc/fs/dvs/mounts/84/stats
Tue Mar 15 01:44:42 PDT 2016 - Found DataWarp/DVS fs stats file at /proc/fs/dvs/mounts/67/stats
Tue Mar 15 01:44:42 PDT 2016 - Found DataWarp/DVS fs stats file at /proc/fs/dvs/mounts/56/stats
Tue Mar 15 01:44:42 PDT 2016 - Found DataWarp/DVS fs stats file at /proc/fs/dvs/mounts/74/stats
Tue Mar 15 01:44:42 PDT 2016 - Found DataWarp/DVS fs stats file at /proc/fs/dvs/mounts/74/stats
Tue Mar 15 01:44:42 PDT 2016 - Found DataWarp/DVS fs stats file at /proc/fs/dvs/mounts/82/stats
Tue Mar 15 01:44:42 PDT 2016 - Found DataWarp/DVS fs stats file at /proc/fs/dvs/mounts/57/stats
Tue Mar 15 01:44:42 PDT 2016 - Found DataWarp/DVS fs stats file at /proc/fs/dvs/mounts/54/stats
Tue Mar 15 01:44:42 PDT 2016 - Found DataWarp/DVS fs stats file at /proc/fs/dvs/mounts/58/stats
Tue Mar 15 01:44:43 PDT 2016 - Found DataWarp/DVS fs stats file at /proc/fs/dvs/mounts/48/stats
Tue Mar 15 01:44:43 PDT 2016 - Found DataWarp/DVS fs stats file at /proc/fs/dvs/mounts/75/stats
Tue Mar 15 01:44:43 PDT 2016 - Found DataWarp/DVS fs stats file at /proc/fs/dvs/mounts/68/stats
Tue Mar 15 01:44:43 PDT 2016 - Found DataWarp/DVS fs stats file at /proc/fs/dvs/mounts/62/stats
Tue Mar 15 01:44:43 PDT 2016 - Found DataWarp/DVS fs stats file at /proc/fs/dvs/mounts/62/stats
Tue Mar 15 01:44:43 PDT 2016 - Found DataWarp/DVS fs stats file at /proc/fs/dvs/mounts/68/stats
Tue Mar 15 01:44:43 PDT 2016 - Found DataWarp/DVS fs stats file at /proc/fs/dvs/mounts/70/stats
Tue Mar 15 01:44:43 PDT 2016 - Found DataWarp/DVS fs stats file at /proc/fs/dvs/mounts/47/stats
Tue Mar 15 01:44:43 PDT 2016 - Found DataWarp/DVS fs stats file at /proc/fs/dvs/mounts/49/stats
Tue Mar 15 01:44:43 PDT 2016 - Found DataWarp/DVS fs stats file at /proc/fs/dvs/mounts/65/stats
Tue Mar 15 01:44:43 PDT 2016 - Found DataWarp/DVS fs stats file at /proc/fs/dvs/mounts/72/stats
Tue Mar 15 01:44:43 PDT 2016 - Found DataWarp/DVS fs stats file at /proc/fs/dvs/mounts/16/stats
Tue Mar 15 01:44:43 PDT 2016 - Found DataWarp/DVS fs stats file at /proc/fs/dvs/mounts/47/stats
Tue Mar 15 01:44:43 PDT 2016 - Found DataWarp/DVS fs stats file at /proc/fs/dvs/mounts/65/stats
Tue Mar 15 01:44:43 PDT 2016 - Found DataWarp/DVS fs stats file at /proc/fs/dvs/mounts/83/stats
Tue Mar 15 01:44:43 PDT 2016 - Found DataWarp/DVS fs stats file at /proc/fs/dvs/mounts/62/stats
Tue Mar 15 01:44:43 PDT 2016 - Found DataWarp/DVS fs stats file at /proc/fs/dvs/mounts/60/stats
Tue Mar 15 01:44:43 PDT 2016 - Found DataWarp/DVS fs stats file at /proc/fs/dvs/mounts/71/stats
Tue Mar 15 01:44:43 PDT 2016 - Found DataWarp/DVS fs stats file at /proc/fs/dvs/mounts/57/stats
Tue Mar 15 01:44:43 PDT 2016 - Found DataWarp/DVS fs stats file at /proc/fs/dvs/mounts/63/stats
Tue Mar 15 01:44:43 PDT 2016 - Found DataWarp/DVS fs stats file at /proc/fs/dvs/mounts/71/stats
Tue Mar 15 01:44:43 PDT 2016 - Found DataWarp/DVS fs stats file at /proc/fs/dvs/mounts/47/stats
Tue Mar 15 01:44:43 PDT 2016 - Found DataWarp/DVS fs stats file at /proc/fs/dvs/mounts/78/stats
Tue Mar 15 01:44:43 PDT 2016 - Found DataWarp/DVS fs stats file at /proc/fs/dvs/mounts/63/stats
Tue Mar 15 01:44:43 PDT 2016 - Found DataWarp/DVS fs stats file at /proc/fs/dvs/mounts/70/stats
Tue Mar 15 01:44:43 PDT 2016 - Found DataWarp/DVS fs stats file at /proc/fs/dvs/mounts/71/stats
Tue Mar 15 01:44:43 PDT 2016 - Found DataWarp/DVS fs stats file at /proc/fs/dvs/mounts/70/stats
Tue Mar 15 01:44:43 PDT 2016 - Found DataWarp/DVS fs stats file at /proc/fs/dvs/mounts/70/stats
Tue Mar 15 01:44:43 PDT 2016 - Found DataWarp/DVS fs stats file at /proc/fs/dvs/mounts/71/stats
Tue Mar 15 01:44:43 PDT 2016 - Found DataWarp/DVS fs stats file at /proc/fs/dvs/mounts/46/stats
Tue Mar 15 01:44:43 PDT 2016 - Found DataWarp/DVS fs stats file at /proc/fs/dvs/mounts/71/stats
Tue Mar 15 01:44:43 PDT 2016 - Found DataWarp/DVS fs stats file at /proc/fs/dvs/mounts/75/stats
Tue Mar 15 01:44:43 PDT 2016 - Found DataWarp/DVS fs stats file at /proc/fs/dvs/mounts/73/stats
Tue Mar 15 01:44:43 PDT 2016 - Found DataWarp/DVS fs stats file at /proc/fs/dvs/mounts/70/stats
Tue Mar 15 01:44:43 PDT 2016 - Found DataWarp/DVS fs stats file at /proc/fs/dvs/mounts/70/stats
Tue Mar 15 01:44:43 PDT 2016 - Found DataWarp/DVS fs stats file at /proc/fs/dvs/mounts/47/stats
Tue Mar 15 01:44:43 PDT 2016 - Found DataWarp/DVS fs stats file at /proc/fs/dvs/mounts/63/stats
Tue Mar 15 01:44:43 PDT 2016 - Found DataWarp/DVS fs stats file at /proc/fs/dvs/mounts/75/stats
Tue Mar 15 01:44:43 PDT 2016 - Found DataWarp/DVS fs stats file at /proc/fs/dvs/mounts/56/stats
Tue Mar 15 01:44:43 PDT 2016 - Found DataWarp/DVS fs stats file at /proc/fs/dvs/mounts/71/stats
Tue Mar 15 01:44:43 PDT 2016 - Found DataWarp/DVS fs stats file at /proc/fs/dvs/mounts/75/stats
Tue Mar 15 01:44:43 PDT 2016 - Found DataWarp/DVS fs stats file at /proc/fs/dvs/mounts/71/stats
Tue Mar 15 01:44:43 PDT 2016 - Found DataWarp/DVS fs stats file at /proc/fs/dvs/mounts/62/stats
Tue Mar 15 01:44:43 PDT 2016 - Found DataWarp/DVS fs stats file at /proc/fs/dvs/mounts/62/stats
MPIIO: unrecognized DVS real_fs_magic=0XBBFBBF10  ADIOI_CRAY_dvs_real_fstype:1246  using default optimizations
MPIIO WARNING: DVS stripe width of 32 was requested but DVS set it to 64
See MPICH_MPIIO_DVS_MAXNODES in the intro_mpi man page.
Number of paritcles: 33554432 
Finished initializing particles 
Opened H5Part file... 
Before writing particles 
Step is set 
Num particles is set 
Written variable 1 
Written variable 2 
Written variable 3 
Written variable 4 
Written variable 5 
Written variable 6 
Written variable 7 
Written variable 8 
After writing particles 
After closing particles 

Timing results
27.868282 seconds elapsed in just writing data
29.167505 seconds elapsed in opening, writing, closing file

Tue Mar 15 01:45:37 PDT 2016 - Found DataWarp/DVS fs stats file at /proc/fs/dvs/mounts/58/stats
Tue Mar 15 01:45:37 PDT 2016 - Found DataWarp/DVS fs stats file at /proc/fs/dvs/mounts/74/stats
Tue Mar 15 01:45:37 PDT 2016 - Found DataWarp/DVS fs stats file at /proc/fs/dvs/mounts/73/stats
Tue Mar 15 01:45:37 PDT 2016 - Found DataWarp/DVS fs stats file at /proc/fs/dvs/mounts/48/stats
Tue Mar 15 01:45:37 PDT 2016 - Found DataWarp/DVS fs stats file at /proc/fs/dvs/mounts/72/stats
Tue Mar 15 01:45:37 PDT 2016 - Found DataWarp/DVS fs stats file at /proc/fs/dvs/mounts/16/stats
Tue Mar 15 01:45:37 PDT 2016 - Found DataWarp/DVS fs stats file at /proc/fs/dvs/mounts/72/stats
Tue Mar 15 01:45:37 PDT 2016 - Found DataWarp/DVS fs stats file at /proc/fs/dvs/mounts/72/stats
Tue Mar 15 01:45:37 PDT 2016 - Found DataWarp/DVS fs stats file at /proc/fs/dvs/mounts/65/stats
Tue Mar 15 01:45:37 PDT 2016 - Found DataWarp/DVS fs stats file at /proc/fs/dvs/mounts/54/stats
Tue Mar 15 01:45:37 PDT 2016 - Found DataWarp/DVS fs stats file at /proc/fs/dvs/mounts/71/stats
Tue Mar 15 01:45:37 PDT 2016 - Found DataWarp/DVS fs stats file at /proc/fs/dvs/mounts/56/stats
Tue Mar 15 01:45:37 PDT 2016 - Found DataWarp/DVS fs stats file at /proc/fs/dvs/mounts/82/stats
Tue Mar 15 01:45:37 PDT 2016 - Found DataWarp/DVS fs stats file at /proc/fs/dvs/mounts/68/stats
Tue Mar 15 01:45:37 PDT 2016 - Found DataWarp/DVS fs stats file at /proc/fs/dvs/mounts/47/stats
Tue Mar 15 01:45:37 PDT 2016 - Found DataWarp/DVS fs stats file at /proc/fs/dvs/mounts/70/stats
Tue Mar 15 01:45:37 PDT 2016 - Found DataWarp/DVS fs stats file at /proc/fs/dvs/mounts/71/stats
Tue Mar 15 01:45:37 PDT 2016 - Found DataWarp/DVS fs stats file at /proc/fs/dvs/mounts/60/stats
Tue Mar 15 01:45:37 PDT 2016 - Found DataWarp/DVS fs stats file at /proc/fs/dvs/mounts/63/stats
Tue Mar 15 01:45:38 PDT 2016 - Found DataWarp/DVS fs stats file at /proc/fs/dvs/mounts/71/stats
Tue Mar 15 01:45:38 PDT 2016 - Found DataWarp/DVS fs stats file at /proc/fs/dvs/mounts/72/stats
Tue Mar 15 01:45:38 PDT 2016 - Found DataWarp/DVS fs stats file at /proc/fs/dvs/mounts/74/stats
Tue Mar 15 01:45:38 PDT 2016 - Found DataWarp/DVS fs stats file at /proc/fs/dvs/mounts/68/stats
Tue Mar 15 01:45:38 PDT 2016 - Found DataWarp/DVS fs stats file at /proc/fs/dvs/mounts/73/stats
Tue Mar 15 01:45:38 PDT 2016 - Found DataWarp/DVS fs stats file at /proc/fs/dvs/mounts/70/stats
Tue Mar 15 01:45:38 PDT 2016 - Found DataWarp/DVS fs stats file at /proc/fs/dvs/mounts/71/stats
Tue Mar 15 01:45:38 PDT 2016 - Found DataWarp/DVS fs stats file at /proc/fs/dvs/mounts/46/stats
Tue Mar 15 01:45:38 PDT 2016 - Found DataWarp/DVS fs stats file at /proc/fs/dvs/mounts/71/stats
Tue Mar 15 01:45:38 PDT 2016 - Found DataWarp/DVS fs stats file at /proc/fs/dvs/mounts/70/stats
Tue Mar 15 01:45:38 PDT 2016 - Found DataWarp/DVS fs stats file at /proc/fs/dvs/mounts/68/stats
Tue Mar 15 01:45:38 PDT 2016 - Found DataWarp/DVS fs stats file at /proc/fs/dvs/mounts/62/stats
Tue Mar 15 01:45:38 PDT 2016 - Found DataWarp/DVS fs stats file at /proc/fs/dvs/mounts/67/stats
Tue Mar 15 01:45:38 PDT 2016 - Found DataWarp/DVS fs stats file at /proc/fs/dvs/mounts/57/stats
Tue Mar 15 01:45:38 PDT 2016 - Found DataWarp/DVS fs stats file at /proc/fs/dvs/mounts/68/stats
Tue Mar 15 01:45:38 PDT 2016 - Found DataWarp/DVS fs stats file at /proc/fs/dvs/mounts/62/stats
Tue Mar 15 01:45:38 PDT 2016 - Found DataWarp/DVS fs stats file at /proc/fs/dvs/mounts/47/stats
Tue Mar 15 01:45:38 PDT 2016 - Found DataWarp/DVS fs stats file at /proc/fs/dvs/mounts/62/stats
Tue Mar 15 01:45:38 PDT 2016 - Found DataWarp/DVS fs stats file at /proc/fs/dvs/mounts/47/stats
Tue Mar 15 01:45:38 PDT 2016 - Found DataWarp/DVS fs stats file at /proc/fs/dvs/mounts/75/stats
Tue Mar 15 01:45:38 PDT 2016 - Found DataWarp/DVS fs stats file at /proc/fs/dvs/mounts/58/stats
Tue Mar 15 01:45:38 PDT 2016 - Found DataWarp/DVS fs stats file at /proc/fs/dvs/mounts/78/stats
Tue Mar 15 01:45:38 PDT 2016 - Found DataWarp/DVS fs stats file at /proc/fs/dvs/mounts/47/stats
Tue Mar 15 01:45:38 PDT 2016 - Found DataWarp/DVS fs stats file at /proc/fs/dvs/mounts/65/stats
Tue Mar 15 01:45:38 PDT 2016 - Found DataWarp/DVS fs stats file at /proc/fs/dvs/mounts/84/stats
Tue Mar 15 01:45:38 PDT 2016 - Found DataWarp/DVS fs stats file at /proc/fs/dvs/mounts/70/stats
Tue Mar 15 01:45:38 PDT 2016 - Found DataWarp/DVS fs stats file at /proc/fs/dvs/mounts/75/stats
Tue Mar 15 01:45:38 PDT 2016 - Found DataWarp/DVS fs stats file at /proc/fs/dvs/mounts/63/stats
Tue Mar 15 01:45:38 PDT 2016 - Found DataWarp/DVS fs stats file at /proc/fs/dvs/mounts/56/stats
Tue Mar 15 01:45:38 PDT 2016 - Found DataWarp/DVS fs stats file at /proc/fs/dvs/mounts/70/stats
Tue Mar 15 01:45:38 PDT 2016 - Found DataWarp/DVS fs stats file at /proc/fs/dvs/mounts/57/stats
Tue Mar 15 01:45:38 PDT 2016 - Found DataWarp/DVS fs stats file at /proc/fs/dvs/mounts/73/stats
Tue Mar 15 01:45:38 PDT 2016 - Found DataWarp/DVS fs stats file at /proc/fs/dvs/mounts/71/stats
Tue Mar 15 01:45:38 PDT 2016 - Found DataWarp/DVS fs stats file at /proc/fs/dvs/mounts/75/stats
Tue Mar 15 01:45:38 PDT 2016 - Found DataWarp/DVS fs stats file at /proc/fs/dvs/mounts/83/stats
Tue Mar 15 01:45:38 PDT 2016 - Found DataWarp/DVS fs stats file at /proc/fs/dvs/mounts/71/stats
Tue Mar 15 01:45:38 PDT 2016 - Found DataWarp/DVS fs stats file at /proc/fs/dvs/mounts/71/stats
Tue Mar 15 01:45:38 PDT 2016 - Found DataWarp/DVS fs stats file at /proc/fs/dvs/mounts/63/stats
Tue Mar 15 01:45:38 PDT 2016 - Found DataWarp/DVS fs stats file at /proc/fs/dvs/mounts/49/stats
Tue Mar 15 01:45:38 PDT 2016 - Found DataWarp/DVS fs stats file at /proc/fs/dvs/mounts/62/stats
Tue Mar 15 01:45:38 PDT 2016 - Found DataWarp/DVS fs stats file at /proc/fs/dvs/mounts/70/stats
Tue Mar 15 01:45:38 PDT 2016 - Found DataWarp/DVS fs stats file at /proc/fs/dvs/mounts/71/stats
Tue Mar 15 01:45:38 PDT 2016 - Found DataWarp/DVS fs stats file at /proc/fs/dvs/mounts/75/stats
Tue Mar 15 01:45:38 PDT 2016 - Found DataWarp/DVS fs stats file at /proc/fs/dvs/mounts/71/stats
Tue Mar 15 01:45:38 PDT 2016 - Found DataWarp/DVS fs stats file at /proc/fs/dvs/mounts/62/stats
-rw-r----- 1 mbryson mbryson 2199023261832 Mar 15 01:45 /var/opt/cray/dws/mounts/batch/1357763/ss//output_2K/sample.h5part
-rw-r----- 1 mbryson mbryson 2.1T Mar 15 01:45 /var/opt/cray/dws/mounts/batch/1357763/ss//output_2K/sample.h5part
Tue Mar 15 01:45:58 2016: [unset]:_pmi_alps_get_apid:alps response not OKAY
Tue Mar 15 01:45:58 2016: [unset]:_pmi_init:_pmi_alps_init returned -1
HDF5 "/var/opt/cray/dws/mounts/batch/1357763/ss//output_2K/sample.h5part" {
GROUP "/" {
   ATTRIBUTE "Origin" {
      DATATYPE  H5T_STRING {
         STRSIZE 16;
         STRPAD H5T_STR_NULLTERM;
         CSET H5T_CSET_ASCII;
         CTYPE H5T_C_S1;
      }
      DATASPACE  SCALAR
   }
   GROUP "Step#0" {
      DATASET "id1" {
         DATATYPE  H5T_STD_I32LE
         DATASPACE  SIMPLE { ( 68719476736 ) / ( 68719476736 ) }
      }
      DATASET "id2" {
         DATATYPE  H5T_STD_I32LE
         DATASPACE  SIMPLE { ( 68719476736 ) / ( 68719476736 ) }
      }
      DATASET "px" {
         DATATYPE  H5T_IEEE_F32LE
         DATASPACE  SIMPLE { ( 68719476736 ) / ( 68719476736 ) }
      }
      DATASET "py" {
         DATATYPE  H5T_IEEE_F32LE
         DATASPACE  SIMPLE { ( 68719476736 ) / ( 68719476736 ) }
      }
      DATASET "pz" {
         DATATYPE  H5T_IEEE_F32LE
         DATASPACE  SIMPLE { ( 68719476736 ) / ( 68719476736 ) }
      }
      DATASET "x" {
         DATATYPE  H5T_IEEE_F32LE
         DATASPACE  SIMPLE { ( 68719476736 ) / ( 68719476736 ) }
      }
      DATASET "y" {
         DATATYPE  H5T_IEEE_F32LE
         DATASPACE  SIMPLE { ( 68719476736 ) / ( 68719476736 ) }
      }
      DATASET "z" {
         DATATYPE  H5T_IEEE_F32LE
         DATASPACE  SIMPLE { ( 68719476736 ) / ( 68719476736 ) }
      }
   }
}
}
