Running VPIC-IO with 8K processes, 65BB nodes, unmatched
     pool units quantity      free      gran 
test_pool bytes  5.82TiB   5.82TiB     16MiB 
 wlm_pool bytes 832.5TiB 687.99TiB 212.91GiB 

sess state   token creator owner             created expiration nodes 
2964 CA--- 1236915   SLURM 69107 2016-02-29T14:33:35      never   256 
2965 CA--- 1236912   SLURM 69107 2016-02-29T14:33:35      never     0 
2967 CA--- 1236913   SLURM 69107 2016-02-29T14:33:35      never     0 
2968 CA--- 1236940   SLURM 69107 2016-02-29T14:41:24      never     0 
2969 CA--- 1236941   SLURM 69107 2016-02-29T14:41:24      never     0 
2970 CA--- 1236937   SLURM 69107 2016-02-29T14:41:24      never     0 
2971 CA--- 1236938   SLURM 69107 2016-02-29T14:41:24      never     0 

inst state sess     bytes nodes             created expiration intact          label public confs 
1162 CA--- 1342 212.91GiB     1 2016-01-21T01:50:01      never   true       andreyBB   true     1 
1257 CA--- 1457 212.91GiB     1 2016-01-25T14:25:04      never   true       djbTest2   true     1 
1337 CA--- 1551   2.08TiB    10 2016-01-28T13:11:38      never   true DJBpbbcombine7   true     1 
1472 CA--- 1706 212.91GiB     1 2016-02-01T11:58:12      never   true        MelTest   true     1 
1475 CA--- 1710 425.81GiB     2 2016-02-01T14:09:01      never   true       MelTest2   true     1 
1589 CA--- 1826   2.08TiB    10 2016-02-02T20:32:37      never   true  DJBmlrefine19   true     1 
2232 CA--- 2515 425.81GiB     2 2016-02-19T12:09:21      never   true       XuanCami   true     1 
2234 CA--- 2520 212.91GiB     1 2016-02-19T13:45:33      never   true       myBBname   true     1 
2337 CA--- 2708  30.15TiB   141 2016-02-24T13:30:33      never   true     regan_30TB   true     1 
2387 CA--- 2825 212.91GiB     1 2016-02-25T18:02:57      never   true        djbTest   true     1 
2388 CA--- 2827 212.91GiB     1 2016-02-25T18:05:58      never   true       djb_Test   true     1 
2473 CA--- 2964  13.51TiB    65 2016-02-29T14:33:35      never   true        I2964-0  false     1 
2474 CA--- 2965  13.31TiB    64 2016-02-29T14:33:35      never   true        I2965-0  false     1 
2476 CA--- 2967  13.31TiB    64 2016-02-29T14:33:35      never   true        I2967-0  false     1 
2477 CA--- 2968  13.51TiB    65 2016-02-29T14:41:25      never   true        I2968-0  false     1 
2478 CA--- 2969  13.31TiB    64 2016-02-29T14:41:25      never   true        I2969-0  false     1 
2479 CA--- 2970  13.31TiB    64 2016-02-29T14:41:25      never   true        I2970-0  false     1 
2480 CA--- 2971  13.51TiB    65 2016-02-29T14:41:25      never   true        I2971-0  false     1 

conf state inst    type access_type activs 
1417 CA--- 1162 scratch      stripe      0 
1514 CA--- 1257 scratch      stripe      0 
1594 CA--- 1337 scratch      stripe      0 
1731 CA--- 1472 scratch      stripe      0 
1734 CA--- 1475 scratch      stripe      0 
1852 CA--- 1589 scratch      stripe      0 
2503 CA--- 2232 scratch      stripe     11 
2505 CA--- 2234 scratch      stripe      0 
2608 CA--- 2337 scratch      stripe      0 
2658 CA--- 2387 scratch      stripe      0 
2659 CA--- 2388 scratch      stripe      0 
2744 CA--- 2473 scratch      stripe      1 
2745 CA--- 2476 scratch      stripe      0 
2747 CA--- 2474 scratch      stripe      0 
2748 CA--- 2477 scratch      stripe      0 
2749 CA--- 2479 scratch      stripe      0 
2750 CA--- 2480 scratch      stripe      0 
2751 CA--- 2478 scratch      stripe      0 

 reg state sess conf wait 
2876 CA--- 2964 2744 true 

activ state sess conf nodes                                      mount 
 2717 CA--- 2908 2503     1 /var/opt/cray/dws/mounts/batch/XuanCami/ss 
 2725 CA--- 2924 2503     1 /var/opt/cray/dws/mounts/batch/XuanCami/ss 
 2726 CA--- 2921 2503     1 /var/opt/cray/dws/mounts/batch/XuanCami/ss 
 2727 CA--- 2919 2503     1 /var/opt/cray/dws/mounts/batch/XuanCami/ss 
 2728 CA--- 2912 2503     1 /var/opt/cray/dws/mounts/batch/XuanCami/ss 
 2729 CA--- 2917 2503     1 /var/opt/cray/dws/mounts/batch/XuanCami/ss 
 2730 CA--- 2918 2503     1 /var/opt/cray/dws/mounts/batch/XuanCami/ss 
 2731 CA--- 2915 2503     1 /var/opt/cray/dws/mounts/batch/XuanCami/ss 
 2732 CA--- 2922 2503     1 /var/opt/cray/dws/mounts/batch/XuanCami/ss 
 2733 CA--- 2923 2503     1 /var/opt/cray/dws/mounts/batch/XuanCami/ss 
 2734 CA--- 2920 2503     1 /var/opt/cray/dws/mounts/batch/XuanCami/ss 
 2741 CA--- 2964 2744   256  /var/opt/cray/dws/mounts/batch/1236915/ss 

 frag state inst  capacity gran     node 
30524  CA-- 1162 212.91GiB 4MiB nid01742 
32292  CA-- 1257 212.91GiB 4MiB nid00530 
33955  CA-- 1337 212.91GiB 4MiB nid01038 
33956  CA-- 1337 212.91GiB 4MiB nid00913 
33957  CA-- 1337 212.91GiB 4MiB nid02062 
33958  CA-- 1337 212.91GiB 4MiB nid01418 
33959  CA-- 1337 212.91GiB 4MiB nid01994 
33960  CA-- 1337 212.91GiB 4MiB nid00785 
33961  CA-- 1337 212.91GiB 4MiB nid00782 
33962  CA-- 1337 212.91GiB 4MiB nid00142 
33963  CA-- 1337 212.91GiB 4MiB nid02189 
33964  CA-- 1337 212.91GiB 4MiB nid00781 
39205  CA-- 1472 212.91GiB 4MiB nid00146 
39208  CA-- 1475 212.91GiB 4MiB nid01481 
39209  CA-- 1475 212.91GiB 4MiB nid01737 
41922  CA-- 1589 212.91GiB 4MiB nid01738 
41923  CA-- 1589 212.91GiB 4MiB nid01353 
41924  CA-- 1589 212.91GiB 4MiB nid00401 
41925  CA-- 1589 212.91GiB 4MiB nid02066 
41926  CA-- 1589 212.91GiB 4MiB nid00469 
41927  CA-- 1589 212.91GiB 4MiB nid00585 
41928  CA-- 1589 212.91GiB 4MiB nid00265 
41929  CA-- 1589 212.91GiB 4MiB nid01610 
41930  CA-- 1589 212.91GiB 4MiB nid02125 
41931  CA-- 1589 212.91GiB 4MiB nid01101 
61379  CA-- 2232 212.91GiB 4MiB nid02006 
61380  CA-- 2232 212.91GiB 4MiB nid01034 
61382  CA-- 2234 212.91GiB 4MiB nid00457 
63967  CA-- 2337 425.81GiB 4MiB nid02253 
63968  CA-- 2337 425.81GiB 4MiB nid01225 
63969  CA-- 2337 425.81GiB 4MiB nid00269 
63970  CA-- 2337 425.81GiB 4MiB nid01237 
63971  CA-- 2337 212.91GiB 4MiB nid01678 
63972  CA-- 2337 212.91GiB 4MiB nid01802 
63973  CA-- 2337 212.91GiB 4MiB nid01033 
63974  CA-- 2337 212.91GiB 4MiB nid00853 
63975  CA-- 2337 212.91GiB 4MiB nid00586 
63976  CA-- 2337 212.91GiB 4MiB nid01806 
63977  CA-- 2337 212.91GiB 4MiB nid00526 
63978  CA-- 2337 212.91GiB 4MiB nid01298 
63979  CA-- 2337 212.91GiB 4MiB nid00718 
63980  CA-- 2337 212.91GiB 4MiB nid01485 
63981  CA-- 2337 212.91GiB 4MiB nid00713 
63982  CA-- 2337 212.91GiB 4MiB nid02186 
63983  CA-- 2337 212.91GiB 4MiB nid00141 
63984  CA-- 2337 212.91GiB 4MiB nid01741 
63985  CA-- 2337 212.91GiB 4MiB nid00073 
63986  CA-- 2337 212.91GiB 4MiB nid00974 
63987  CA-- 2337 212.91GiB 4MiB nid00201 
63988  CA-- 2337 212.91GiB 4MiB nid00145 
63989  CA-- 2337 212.91GiB 4MiB nid00717 
63990  CA-- 2337 212.91GiB 4MiB nid00470 
63991  CA-- 2337 212.91GiB 4MiB nid00842 
63992  CA-- 2337 212.91GiB 4MiB nid01621 
63993  CA-- 2337 212.91GiB 4MiB nid01549 
63994  CA-- 2337 212.91GiB 4MiB nid00202 
63995  CA-- 2337 212.91GiB 4MiB nid00973 
63996  CA-- 2337 212.91GiB 4MiB nid00650 
63997  CA-- 2337 212.91GiB 4MiB nid01937 
63998  CA-- 2337 212.91GiB 4MiB nid00206 
63999  CA-- 2337 212.91GiB 4MiB nid02005 
64000  CA-- 2337 212.91GiB 4MiB nid00458 
64001  CA-- 2337 212.91GiB 4MiB nid01037 
64002  CA-- 2337 212.91GiB 4MiB nid01294 
64003  CA-- 2337 212.91GiB 4MiB nid00329 
64004  CA-- 2337 212.91GiB 4MiB nid02250 
64005  CA-- 2337 212.91GiB 4MiB nid01486 
64006  CA-- 2337 212.91GiB 4MiB nid00402 
64007  CA-- 2337 212.91GiB 4MiB nid00969 
64008  CA-- 2337 212.91GiB 4MiB nid01358 
64009  CA-- 2337 212.91GiB 4MiB nid01681 
64010  CA-- 2337 212.91GiB 4MiB nid02190 
64011  CA-- 2337 212.91GiB 4MiB nid01097 
64012  CA-- 2337 212.91GiB 4MiB nid01805 
64013  CA-- 2337 212.91GiB 4MiB nid00085 
64014  CA-- 2337 212.91GiB 4MiB nid01170 
64015  CA-- 2337 212.91GiB 4MiB nid00013 
64016  CA-- 2337 212.91GiB 4MiB nid02065 
64017  CA-- 2337 212.91GiB 4MiB nid01869 
64018  CA-- 2337 212.91GiB 4MiB nid00397 
64019  CA-- 2337 212.91GiB 4MiB nid01421 
64020  CA-- 2337 212.91GiB 4MiB nid01102 
64021  CA-- 2337 212.91GiB 4MiB nid01870 
64022  CA-- 2337 212.91GiB 4MiB nid00270 
64023  CA-- 2337 212.91GiB 4MiB nid01166 
64024  CA-- 2337 212.91GiB 4MiB nid01550 
64025  CA-- 2337 212.91GiB 4MiB nid01553 
64026  CA-- 2337 212.91GiB 4MiB nid00910 
64027  CA-- 2337 212.91GiB 4MiB nid02061 
64028  CA-- 2337 212.91GiB 4MiB nid02185 
64029  CA-- 2337 212.91GiB 4MiB nid01933 
64030  CA-- 2337 212.91GiB 4MiB nid02121 
64031  CA-- 2337 212.91GiB 4MiB nid00970 
64032  CA-- 2337 212.91GiB 4MiB nid00914 
64033  CA-- 2337 212.91GiB 4MiB nid00017 
64034  CA-- 2337 212.91GiB 4MiB nid01165 
64035  CA-- 2337 212.91GiB 4MiB nid01622 
64036  CA-- 2337 212.91GiB 4MiB nid00786 
64037  CA-- 2337 212.91GiB 4MiB nid00074 
64038  CA-- 2337 212.91GiB 4MiB nid01866 
64039  CA-- 2337 212.91GiB 4MiB nid01993 
64040  CA-- 2337 212.91GiB 4MiB nid00525 
64041  CA-- 2337 212.91GiB 4MiB nid00714 
64042  CA-- 2337 212.91GiB 4MiB nid00330 
64043  CA-- 2337 212.91GiB 4MiB nid00334 
64044  CA-- 2337 212.91GiB 4MiB nid00649 
64045  CA-- 2337 212.91GiB 4MiB nid01238 
64046  CA-- 2337 212.91GiB 4MiB nid01297 
64047  CA-- 2337 212.91GiB 4MiB nid01293 
64048  CA-- 2337 212.91GiB 4MiB nid01677 
64049  CA-- 2337 212.91GiB 4MiB nid02122 
64050  CA-- 2337 212.91GiB 4MiB nid01554 
64051  CA-- 2337 212.91GiB 4MiB nid00909 
64052  CA-- 2337 212.91GiB 4MiB nid00529 
64053  CA-- 2337 212.91GiB 4MiB nid00590 
64054  CA-- 2337 212.91GiB 4MiB nid00398 
64055  CA-- 2337 212.91GiB 4MiB nid00654 
64056  CA-- 2337 212.91GiB 4MiB nid01226 
64057  CA-- 2337 212.91GiB 4MiB nid00018 
64058  CA-- 2337 212.91GiB 4MiB nid02126 
64059  CA-- 2337 212.91GiB 4MiB nid01482 
64060  CA-- 2337 212.91GiB 4MiB nid01354 
64061  CA-- 2337 212.91GiB 4MiB nid01938 
64062  CA-- 2337 212.91GiB 4MiB nid00266 
64063  CA-- 2337 212.91GiB 4MiB nid00333 
64064  CA-- 2337 212.91GiB 4MiB nid00841 
64065  CA-- 2337 212.91GiB 4MiB nid01609 
64066  CA-- 2337 212.91GiB 4MiB nid00589 
64067  CA-- 2337 212.91GiB 4MiB nid01038 
64068  CA-- 2337 212.91GiB 4MiB nid00913 
64069  CA-- 2337 212.91GiB 4MiB nid02062 
64070  CA-- 2337 212.91GiB 4MiB nid01418 
64071  CA-- 2337 212.91GiB 4MiB nid01994 
64072  CA-- 2337 212.91GiB 4MiB nid00785 
64073  CA-- 2337 212.91GiB 4MiB nid00782 
64074  CA-- 2337 212.91GiB 4MiB nid00142 
64075  CA-- 2337 212.91GiB 4MiB nid02189 
64076  CA-- 2337 212.91GiB 4MiB nid00781 
64077  CA-- 2337 212.91GiB 4MiB nid00457 
64078  CA-- 2337 212.91GiB 4MiB nid01098 
64079  CA-- 2337 212.91GiB 4MiB nid00146 
64080  CA-- 2337 212.91GiB 4MiB nid01865 
64081  CA-- 2337 212.91GiB 4MiB nid01481 
64082  CA-- 2337 212.91GiB 4MiB nid01737 
64083  CA-- 2337 212.91GiB 4MiB nid00854 
64084  CA-- 2337 212.91GiB 4MiB nid00653 
64085  CA-- 2337 212.91GiB 4MiB nid00530 
64086  CA-- 2337 212.91GiB 4MiB nid00086 
64087  CA-- 2337 212.91GiB 4MiB nid01738 
64088  CA-- 2337 212.91GiB 4MiB nid01353 
64089  CA-- 2337 212.91GiB 4MiB nid00401 
64090  CA-- 2337 212.91GiB 4MiB nid02066 
64091  CA-- 2337 212.91GiB 4MiB nid00469 
64092  CA-- 2337 212.91GiB 4MiB nid00585 
64093  CA-- 2337 212.91GiB 4MiB nid00265 
64094  CA-- 2337 212.91GiB 4MiB nid01610 
64095  CA-- 2337 212.91GiB 4MiB nid02125 
64096  CA-- 2337 212.91GiB 4MiB nid01742 
64097  CA-- 2337 212.91GiB 4MiB nid01934 
64098  CA-- 2337 212.91GiB 4MiB nid01682 
64099  CA-- 2337 212.91GiB 4MiB nid02249 
64100  CA-- 2337 212.91GiB 4MiB nid00205 
64101  CA-- 2337 212.91GiB 4MiB nid01801 
64102  CA-- 2337 212.91GiB 4MiB nid00014 
64103  CA-- 2337 212.91GiB 4MiB nid01169 
64104  CA-- 2337 212.91GiB 4MiB nid01357 
64105  CA-- 2337 212.91GiB 4MiB nid01417 
64106  CA-- 2337 212.91GiB 4MiB nid02006 
64107  CA-- 2337 212.91GiB 4MiB nid01034 
64768  CA-- 2387 212.91GiB 4MiB nid00854 
64769  CA-- 2388 212.91GiB 4MiB nid00653 
68662  CA-- 2473 212.91GiB 4MiB nid01097 
68663  CA-- 2473 212.91GiB 4MiB nid01805 
68664  CA-- 2473 212.91GiB 4MiB nid00085 
68665  CA-- 2473 212.91GiB 4MiB nid01170 
68666  CA-- 2473 212.91GiB 4MiB nid00013 
68667  CA-- 2473 212.91GiB 4MiB nid02065 
68668  CA-- 2473 212.91GiB 4MiB nid01869 
68669  CA-- 2473 212.91GiB 4MiB nid00397 
68670  CA-- 2473 212.91GiB 4MiB nid01421 
68671  CA-- 2473 212.91GiB 4MiB nid01102 
68672  CA-- 2473 212.91GiB 4MiB nid01870 
68673  CA-- 2473 212.91GiB 4MiB nid00270 
68674  CA-- 2473 212.91GiB 4MiB nid01166 
68675  CA-- 2473 212.91GiB 4MiB nid01550 
68676  CA-- 2473 212.91GiB 4MiB nid01553 
68677  CA-- 2473 212.91GiB 4MiB nid00910 
68678  CA-- 2473 212.91GiB 4MiB nid02061 
68679  CA-- 2473 212.91GiB 4MiB nid02185 
68680  CA-- 2473 212.91GiB 4MiB nid01933 
68681  CA-- 2473 212.91GiB 4MiB nid02121 
68682  CA-- 2473 212.91GiB 4MiB nid00970 
68683  CA-- 2473 212.91GiB 4MiB nid00914 
68684  CA-- 2473 212.91GiB 4MiB nid00017 
68685  CA-- 2473 212.91GiB 4MiB nid01165 
68686  CA-- 2473 212.91GiB 4MiB nid01622 
68687  CA-- 2473 212.91GiB 4MiB nid00786 
68688  CA-- 2473 212.91GiB 4MiB nid00074 
68689  CA-- 2473 212.91GiB 4MiB nid01866 
68690  CA-- 2473 212.91GiB 4MiB nid01993 
68691  CA-- 2473 212.91GiB 4MiB nid00525 
68692  CA-- 2473 212.91GiB 4MiB nid00714 
68693  CA-- 2473 212.91GiB 4MiB nid00330 
68694  CA-- 2473 212.91GiB 4MiB nid00334 
68695  CA-- 2473 212.91GiB 4MiB nid01742 
68696  CA-- 2473 212.91GiB 4MiB nid00649 
68697  CA-- 2473 212.91GiB 4MiB nid01238 
68698  CA-- 2473 212.91GiB 4MiB nid01297 
68699  CA-- 2473 212.91GiB 4MiB nid01293 
68700  CA-- 2473 212.91GiB 4MiB nid01677 
68701  CA-- 2473 212.91GiB 4MiB nid02122 
68702  CA-- 2473 212.91GiB 4MiB nid01554 
68703  CA-- 2473 212.91GiB 4MiB nid00909 
68704  CA-- 2473 212.91GiB 4MiB nid00529 
68705  CA-- 2473 212.91GiB 4MiB nid00590 
68706  CA-- 2473 212.91GiB 4MiB nid00398 
68707  CA-- 2473 212.91GiB 4MiB nid00654 
68708  CA-- 2473 212.91GiB 4MiB nid01226 
68709  CA-- 2473 212.91GiB 4MiB nid00018 
68710  CA-- 2473 212.91GiB 4MiB nid02126 
68711  CA-- 2473 212.91GiB 4MiB nid01482 
68712  CA-- 2473 212.91GiB 4MiB nid01934 
68713  CA-- 2473 212.91GiB 4MiB nid01682 
68714  CA-- 2473 212.91GiB 4MiB nid02249 
68715  CA-- 2473 212.91GiB 4MiB nid00205 
68716  CA-- 2473 212.91GiB 4MiB nid01801 
68717  CA-- 2473 212.91GiB 4MiB nid00014 
68718  CA-- 2473 212.91GiB 4MiB nid01169 
68719  CA-- 2473 212.91GiB 4MiB nid01357 
68720  CA-- 2473 212.91GiB 4MiB nid01417 
68721  CA-- 2473 212.91GiB 4MiB nid02006 
68722  CA-- 2473 212.91GiB 4MiB nid01034 
68723  CA-- 2473 212.91GiB 4MiB nid01354 
68724  CA-- 2473 212.91GiB 4MiB nid01938 
68725  CA-- 2473 212.91GiB 4MiB nid00266 
68726  CA-- 2473 212.91GiB 4MiB nid00333 
68727  CA-- 2474 212.91GiB 4MiB nid01038 
68728  CA-- 2474 212.91GiB 4MiB nid01037 
68729  CA-- 2474 212.91GiB 4MiB nid01294 
68730  CA-- 2474 212.91GiB 4MiB nid00329 
68731  CA-- 2474 212.91GiB 4MiB nid02250 
68732  CA-- 2474 212.91GiB 4MiB nid01486 
68733  CA-- 2474 212.91GiB 4MiB nid00402 
68734  CA-- 2474 212.91GiB 4MiB nid00969 
68735  CA-- 2474 212.91GiB 4MiB nid01358 
68736  CA-- 2474 212.91GiB 4MiB nid01681 
68737  CA-- 2474 212.91GiB 4MiB nid02190 
68738  CA-- 2474 212.91GiB 4MiB nid01097 
68739  CA-- 2474 212.91GiB 4MiB nid01805 
68740  CA-- 2474 212.91GiB 4MiB nid00085 
68741  CA-- 2474 212.91GiB 4MiB nid01170 
68742  CA-- 2474 212.91GiB 4MiB nid00013 
68743  CA-- 2474 212.91GiB 4MiB nid02065 
68744  CA-- 2474 212.91GiB 4MiB nid01869 
68745  CA-- 2474 212.91GiB 4MiB nid00397 
68746  CA-- 2474 212.91GiB 4MiB nid01421 
68747  CA-- 2474 212.91GiB 4MiB nid01102 
68748  CA-- 2474 212.91GiB 4MiB nid01870 
68749  CA-- 2474 212.91GiB 4MiB nid00270 
68750  CA-- 2474 212.91GiB 4MiB nid01166 
68751  CA-- 2474 212.91GiB 4MiB nid01550 
68752  CA-- 2474 212.91GiB 4MiB nid01553 
68753  CA-- 2474 212.91GiB 4MiB nid00910 
68754  CA-- 2474 212.91GiB 4MiB nid02061 
68755  CA-- 2474 212.91GiB 4MiB nid02185 
68756  CA-- 2474 212.91GiB 4MiB nid01933 
68757  CA-- 2474 212.91GiB 4MiB nid02121 
68758  CA-- 2474 212.91GiB 4MiB nid00970 
68759  CA-- 2474 212.91GiB 4MiB nid00914 
68760  CA-- 2474 212.91GiB 4MiB nid00017 
68761  CA-- 2474 212.91GiB 4MiB nid01165 
68762  CA-- 2474 212.91GiB 4MiB nid01622 
68763  CA-- 2474 212.91GiB 4MiB nid00786 
68764  CA-- 2474 212.91GiB 4MiB nid00074 
68765  CA-- 2474 212.91GiB 4MiB nid01866 
68766  CA-- 2474 212.91GiB 4MiB nid01993 
68767  CA-- 2474 212.91GiB 4MiB nid00525 
68768  CA-- 2474 212.91GiB 4MiB nid00714 
68769  CA-- 2474 212.91GiB 4MiB nid00330 
68770  CA-- 2474 212.91GiB 4MiB nid00334 
68771  CA-- 2474 212.91GiB 4MiB nid01742 
68772  CA-- 2474 212.91GiB 4MiB nid00649 
68773  CA-- 2474 212.91GiB 4MiB nid01238 
68774  CA-- 2474 212.91GiB 4MiB nid01297 
68775  CA-- 2474 212.91GiB 4MiB nid01293 
68776  CA-- 2474 212.91GiB 4MiB nid01677 
68777  CA-- 2474 212.91GiB 4MiB nid02122 
68778  CA-- 2474 212.91GiB 4MiB nid01554 
68779  CA-- 2474 212.91GiB 4MiB nid00909 
68780  CA-- 2474 212.91GiB 4MiB nid00529 
68781  CA-- 2474 212.91GiB 4MiB nid00590 
68782  CA-- 2474 212.91GiB 4MiB nid00398 
68783  CA-- 2474 212.91GiB 4MiB nid00654 
68784  CA-- 2474 212.91GiB 4MiB nid01226 
68785  CA-- 2474 212.91GiB 4MiB nid00018 
68786  CA-- 2474 212.91GiB 4MiB nid02126 
68787  CA-- 2474 212.91GiB 4MiB nid01482 
68788  CA-- 2474 212.91GiB 4MiB nid01934 
68789  CA-- 2474 212.91GiB 4MiB nid01682 
68790  CA-- 2474 212.91GiB 4MiB nid02249 
68856  CA-- 2476 212.91GiB 4MiB nid00145 
68857  CA-- 2476 212.91GiB 4MiB nid00717 
68858  CA-- 2476 212.91GiB 4MiB nid00470 
68859  CA-- 2476 212.91GiB 4MiB nid00842 
68860  CA-- 2476 212.91GiB 4MiB nid01621 
68861  CA-- 2476 212.91GiB 4MiB nid01549 
68862  CA-- 2476 212.91GiB 4MiB nid00202 
68863  CA-- 2476 212.91GiB 4MiB nid00973 
68864  CA-- 2476 212.91GiB 4MiB nid00650 
68865  CA-- 2476 212.91GiB 4MiB nid01937 
68866  CA-- 2476 212.91GiB 4MiB nid00206 
68867  CA-- 2476 212.91GiB 4MiB nid02005 
68868  CA-- 2476 212.91GiB 4MiB nid00458 
68869  CA-- 2476 212.91GiB 4MiB nid01037 
68870  CA-- 2476 212.91GiB 4MiB nid01294 
68871  CA-- 2476 212.91GiB 4MiB nid00329 
68872  CA-- 2476 212.91GiB 4MiB nid02250 
68873  CA-- 2476 212.91GiB 4MiB nid01486 
68874  CA-- 2476 212.91GiB 4MiB nid00402 
68875  CA-- 2476 212.91GiB 4MiB nid00969 
68876  CA-- 2476 212.91GiB 4MiB nid01358 
68877  CA-- 2476 212.91GiB 4MiB nid01681 
68878  CA-- 2476 212.91GiB 4MiB nid02190 
68879  CA-- 2476 212.91GiB 4MiB nid01097 
68880  CA-- 2476 212.91GiB 4MiB nid01805 
68881  CA-- 2476 212.91GiB 4MiB nid00085 
68882  CA-- 2476 212.91GiB 4MiB nid01170 
68883  CA-- 2476 212.91GiB 4MiB nid00013 
68884  CA-- 2476 212.91GiB 4MiB nid02065 
68885  CA-- 2476 212.91GiB 4MiB nid01869 
68886  CA-- 2476 212.91GiB 4MiB nid00397 
68887  CA-- 2476 212.91GiB 4MiB nid01421 
68888  CA-- 2476 212.91GiB 4MiB nid01102 
68889  CA-- 2476 212.91GiB 4MiB nid01870 
68890  CA-- 2476 212.91GiB 4MiB nid00270 
68891  CA-- 2476 212.91GiB 4MiB nid01166 
68892  CA-- 2476 212.91GiB 4MiB nid01550 
68893  CA-- 2476 212.91GiB 4MiB nid01553 
68894  CA-- 2476 212.91GiB 4MiB nid00910 
68895  CA-- 2476 212.91GiB 4MiB nid02061 
68896  CA-- 2476 212.91GiB 4MiB nid02185 
68897  CA-- 2476 212.91GiB 4MiB nid01933 
68898  CA-- 2476 212.91GiB 4MiB nid02121 
68899  CA-- 2476 212.91GiB 4MiB nid00970 
68900  CA-- 2476 212.91GiB 4MiB nid00914 
68901  CA-- 2476 212.91GiB 4MiB nid00017 
68902  CA-- 2476 212.91GiB 4MiB nid01165 
68903  CA-- 2476 212.91GiB 4MiB nid01622 
68904  CA-- 2476 212.91GiB 4MiB nid00786 
68905  CA-- 2476 212.91GiB 4MiB nid00074 
68906  CA-- 2476 212.91GiB 4MiB nid01866 
68907  CA-- 2476 212.91GiB 4MiB nid01993 
68908  CA-- 2476 212.91GiB 4MiB nid00525 
68909  CA-- 2476 212.91GiB 4MiB nid00714 
68910  CA-- 2476 212.91GiB 4MiB nid00330 
68911  CA-- 2476 212.91GiB 4MiB nid00334 
68912  CA-- 2476 212.91GiB 4MiB nid01742 
68913  CA-- 2476 212.91GiB 4MiB nid00649 
68914  CA-- 2476 212.91GiB 4MiB nid01238 
68915  CA-- 2476 212.91GiB 4MiB nid01297 
68916  CA-- 2476 212.91GiB 4MiB nid01293 
68917  CA-- 2476 212.91GiB 4MiB nid01677 
68918  CA-- 2476 212.91GiB 4MiB nid02122 
68919  CA-- 2476 212.91GiB 4MiB nid01554 
68920  CA-- 2477 212.91GiB 4MiB nid00201 
68921  CA-- 2477 212.91GiB 4MiB nid00145 
68922  CA-- 2477 212.91GiB 4MiB nid00717 
68923  CA-- 2477 212.91GiB 4MiB nid00470 
68924  CA-- 2477 212.91GiB 4MiB nid00842 
68925  CA-- 2477 212.91GiB 4MiB nid01621 
68926  CA-- 2477 212.91GiB 4MiB nid01549 
68927  CA-- 2477 212.91GiB 4MiB nid00202 
68928  CA-- 2477 212.91GiB 4MiB nid00973 
68929  CA-- 2477 212.91GiB 4MiB nid00650 
68930  CA-- 2477 212.91GiB 4MiB nid01937 
68931  CA-- 2477 212.91GiB 4MiB nid00206 
68932  CA-- 2477 212.91GiB 4MiB nid02005 
68933  CA-- 2477 212.91GiB 4MiB nid00458 
68934  CA-- 2477 212.91GiB 4MiB nid01098 
68935  CA-- 2477 212.91GiB 4MiB nid01865 
68936  CA-- 2477 212.91GiB 4MiB nid01678 
68937  CA-- 2477 212.91GiB 4MiB nid01802 
68938  CA-- 2477 212.91GiB 4MiB nid01033 
68939  CA-- 2477 212.91GiB 4MiB nid00853 
68940  CA-- 2477 212.91GiB 4MiB nid00586 
68941  CA-- 2477 212.91GiB 4MiB nid01806 
68942  CA-- 2477 212.91GiB 4MiB nid00526 
68943  CA-- 2477 212.91GiB 4MiB nid01298 
68944  CA-- 2477 212.91GiB 4MiB nid00718 
68945  CA-- 2477 212.91GiB 4MiB nid01485 
68946  CA-- 2477 212.91GiB 4MiB nid00713 
68947  CA-- 2477 212.91GiB 4MiB nid02186 
68948  CA-- 2477 212.91GiB 4MiB nid00141 
68949  CA-- 2477 212.91GiB 4MiB nid01741 
68950  CA-- 2477 212.91GiB 4MiB nid00073 
68951  CA-- 2477 212.91GiB 4MiB nid00974 
68952  CA-- 2477 212.91GiB 4MiB nid00086 
68953  CA-- 2477 212.91GiB 4MiB nid00401 
68954  CA-- 2477 212.91GiB 4MiB nid02066 
68955  CA-- 2477 212.91GiB 4MiB nid00469 
68956  CA-- 2477 212.91GiB 4MiB nid00585 
68957  CA-- 2477 212.91GiB 4MiB nid00265 
68958  CA-- 2477 212.91GiB 4MiB nid01610 
68959  CA-- 2477 212.91GiB 4MiB nid02125 
68960  CA-- 2477 212.91GiB 4MiB nid01037 
68961  CA-- 2477 212.91GiB 4MiB nid01294 
68962  CA-- 2477 212.91GiB 4MiB nid00329 
68963  CA-- 2477 212.91GiB 4MiB nid02250 
68964  CA-- 2477 212.91GiB 4MiB nid01486 
68965  CA-- 2477 212.91GiB 4MiB nid00402 
68966  CA-- 2477 212.91GiB 4MiB nid00969 
68967  CA-- 2477 212.91GiB 4MiB nid01358 
68968  CA-- 2477 212.91GiB 4MiB nid01681 
68969  CA-- 2477 212.91GiB 4MiB nid02190 
68970  CA-- 2477 212.91GiB 4MiB nid00909 
68971  CA-- 2477 212.91GiB 4MiB nid00529 
68972  CA-- 2477 212.91GiB 4MiB nid00590 
68973  CA-- 2477 212.91GiB 4MiB nid00398 
68974  CA-- 2477 212.91GiB 4MiB nid00654 
68975  CA-- 2477 212.91GiB 4MiB nid01226 
68976  CA-- 2477 212.91GiB 4MiB nid00018 
68977  CA-- 2477 212.91GiB 4MiB nid02126 
68978  CA-- 2477 212.91GiB 4MiB nid01482 
68979  CA-- 2477 212.91GiB 4MiB nid01934 
68980  CA-- 2477 212.91GiB 4MiB nid01682 
68981  CA-- 2477 212.91GiB 4MiB nid02249 
68982  CA-- 2477 212.91GiB 4MiB nid00205 
68983  CA-- 2477 212.91GiB 4MiB nid01801 
68984  CA-- 2477 212.91GiB 4MiB nid00841 
68985  CA-- 2478 212.91GiB 4MiB nid00201 
68986  CA-- 2478 212.91GiB 4MiB nid00145 
68987  CA-- 2478 212.91GiB 4MiB nid00717 
68988  CA-- 2478 212.91GiB 4MiB nid00470 
68989  CA-- 2478 212.91GiB 4MiB nid00842 
68990  CA-- 2478 212.91GiB 4MiB nid01621 
68991  CA-- 2478 212.91GiB 4MiB nid01549 
68992  CA-- 2478 212.91GiB 4MiB nid00202 
68993  CA-- 2478 212.91GiB 4MiB nid00973 
68994  CA-- 2478 212.91GiB 4MiB nid00650 
68995  CA-- 2478 212.91GiB 4MiB nid01937 
68996  CA-- 2478 212.91GiB 4MiB nid00206 
68997  CA-- 2478 212.91GiB 4MiB nid02005 
68998  CA-- 2478 212.91GiB 4MiB nid00458 
68999  CA-- 2478 212.91GiB 4MiB nid01609 
69000  CA-- 2478 212.91GiB 4MiB nid00589 
69001  CA-- 2478 212.91GiB 4MiB nid00913 
69002  CA-- 2478 212.91GiB 4MiB nid02062 
69003  CA-- 2478 212.91GiB 4MiB nid01418 
69004  CA-- 2478 212.91GiB 4MiB nid01994 
69005  CA-- 2478 212.91GiB 4MiB nid00785 
69006  CA-- 2478 212.91GiB 4MiB nid00782 
69007  CA-- 2478 212.91GiB 4MiB nid00142 
69008  CA-- 2478 212.91GiB 4MiB nid02189 
69009  CA-- 2478 212.91GiB 4MiB nid00781 
69010  CA-- 2478 212.91GiB 4MiB nid00457 
69011  CA-- 2478 212.91GiB 4MiB nid01098 
69012  CA-- 2478 212.91GiB 4MiB nid00146 
69013  CA-- 2478 212.91GiB 4MiB nid01865 
69014  CA-- 2478 212.91GiB 4MiB nid01481 
69015  CA-- 2478 212.91GiB 4MiB nid01737 
69016  CA-- 2478 212.91GiB 4MiB nid00854 
69017  CA-- 2478 212.91GiB 4MiB nid00653 
69018  CA-- 2478 212.91GiB 4MiB nid02253 
69019  CA-- 2478 212.91GiB 4MiB nid01225 
69020  CA-- 2478 212.91GiB 4MiB nid00269 
69021  CA-- 2478 212.91GiB 4MiB nid01237 
69022  CA-- 2478 212.91GiB 4MiB nid01678 
69023  CA-- 2478 212.91GiB 4MiB nid01802 
69024  CA-- 2478 212.91GiB 4MiB nid01033 
69025  CA-- 2478 212.91GiB 4MiB nid00853 
69026  CA-- 2478 212.91GiB 4MiB nid00586 
69027  CA-- 2478 212.91GiB 4MiB nid01806 
69028  CA-- 2478 212.91GiB 4MiB nid00526 
69029  CA-- 2478 212.91GiB 4MiB nid01298 
69030  CA-- 2478 212.91GiB 4MiB nid00718 
69031  CA-- 2478 212.91GiB 4MiB nid01485 
69032  CA-- 2478 212.91GiB 4MiB nid00713 
69033  CA-- 2478 212.91GiB 4MiB nid02186 
69034  CA-- 2478 212.91GiB 4MiB nid00141 
69035  CA-- 2478 212.91GiB 4MiB nid00530 
69036  CA-- 2478 212.91GiB 4MiB nid01741 
69037  CA-- 2478 212.91GiB 4MiB nid00073 
69038  CA-- 2478 212.91GiB 4MiB nid00974 
69039  CA-- 2478 212.91GiB 4MiB nid00086 
69040  CA-- 2478 212.91GiB 4MiB nid01738 
69041  CA-- 2478 212.91GiB 4MiB nid01353 
69042  CA-- 2478 212.91GiB 4MiB nid00401 
69043  CA-- 2478 212.91GiB 4MiB nid02066 
69044  CA-- 2478 212.91GiB 4MiB nid00469 
69045  CA-- 2478 212.91GiB 4MiB nid00585 
69046  CA-- 2478 212.91GiB 4MiB nid00265 
69047  CA-- 2478 212.91GiB 4MiB nid01610 
69048  CA-- 2478 212.91GiB 4MiB nid02125 
69049  CA-- 2479 212.91GiB 4MiB nid00201 
69050  CA-- 2479 212.91GiB 4MiB nid00145 
69051  CA-- 2479 212.91GiB 4MiB nid00717 
69052  CA-- 2479 212.91GiB 4MiB nid00470 
69053  CA-- 2479 212.91GiB 4MiB nid00842 
69054  CA-- 2479 212.91GiB 4MiB nid01621 
69055  CA-- 2479 212.91GiB 4MiB nid01549 
69056  CA-- 2479 212.91GiB 4MiB nid00202 
69057  CA-- 2479 212.91GiB 4MiB nid00973 
69058  CA-- 2479 212.91GiB 4MiB nid00650 
69059  CA-- 2479 212.91GiB 4MiB nid01937 
69060  CA-- 2479 212.91GiB 4MiB nid00206 
69061  CA-- 2479 212.91GiB 4MiB nid02005 
69062  CA-- 2479 212.91GiB 4MiB nid00458 
69063  CA-- 2479 212.91GiB 4MiB nid01037 
69064  CA-- 2479 212.91GiB 4MiB nid01294 
69065  CA-- 2479 212.91GiB 4MiB nid00329 
69066  CA-- 2479 212.91GiB 4MiB nid02250 
69067  CA-- 2479 212.91GiB 4MiB nid01486 
69068  CA-- 2479 212.91GiB 4MiB nid00402 
69069  CA-- 2479 212.91GiB 4MiB nid00969 
69070  CA-- 2479 212.91GiB 4MiB nid01358 
69071  CA-- 2479 212.91GiB 4MiB nid01681 
69072  CA-- 2479 212.91GiB 4MiB nid02190 
69073  CA-- 2479 212.91GiB 4MiB nid01097 
69074  CA-- 2479 212.91GiB 4MiB nid01805 
69075  CA-- 2479 212.91GiB 4MiB nid00085 
69076  CA-- 2479 212.91GiB 4MiB nid01170 
69077  CA-- 2479 212.91GiB 4MiB nid00013 
69078  CA-- 2479 212.91GiB 4MiB nid02065 
69079  CA-- 2479 212.91GiB 4MiB nid01869 
69080  CA-- 2479 212.91GiB 4MiB nid00397 
69081  CA-- 2479 212.91GiB 4MiB nid01421 
69082  CA-- 2479 212.91GiB 4MiB nid01102 
69083  CA-- 2479 212.91GiB 4MiB nid01870 
69084  CA-- 2479 212.91GiB 4MiB nid00270 
69085  CA-- 2479 212.91GiB 4MiB nid01166 
69086  CA-- 2479 212.91GiB 4MiB nid01550 
69087  CA-- 2479 212.91GiB 4MiB nid01553 
69088  CA-- 2479 212.91GiB 4MiB nid00910 
69089  CA-- 2479 212.91GiB 4MiB nid02061 
69090  CA-- 2479 212.91GiB 4MiB nid02185 
69091  CA-- 2479 212.91GiB 4MiB nid01933 
69092  CA-- 2479 212.91GiB 4MiB nid02121 
69093  CA-- 2479 212.91GiB 4MiB nid00970 
69094  CA-- 2479 212.91GiB 4MiB nid00914 
69095  CA-- 2479 212.91GiB 4MiB nid00017 
69096  CA-- 2479 212.91GiB 4MiB nid01165 
69097  CA-- 2479 212.91GiB 4MiB nid01622 
69098  CA-- 2479 212.91GiB 4MiB nid00786 
69099  CA-- 2479 212.91GiB 4MiB nid00074 
69100  CA-- 2479 212.91GiB 4MiB nid01866 
69101  CA-- 2479 212.91GiB 4MiB nid01993 
69102  CA-- 2479 212.91GiB 4MiB nid00525 
69103  CA-- 2479 212.91GiB 4MiB nid00714 
69104  CA-- 2479 212.91GiB 4MiB nid00330 
69105  CA-- 2479 212.91GiB 4MiB nid00334 
69106  CA-- 2479 212.91GiB 4MiB nid00649 
69107  CA-- 2479 212.91GiB 4MiB nid01238 
69108  CA-- 2479 212.91GiB 4MiB nid01297 
69109  CA-- 2479 212.91GiB 4MiB nid01293 
69110  CA-- 2479 212.91GiB 4MiB nid01677 
69111  CA-- 2479 212.91GiB 4MiB nid02122 
69112  CA-- 2479 212.91GiB 4MiB nid01554 
69113  CA-- 2480 212.91GiB 4MiB nid00909 
69114  CA-- 2480 212.91GiB 4MiB nid00529 
69115  CA-- 2480 212.91GiB 4MiB nid00590 
69116  CA-- 2480 212.91GiB 4MiB nid00398 
69117  CA-- 2480 212.91GiB 4MiB nid00654 
69118  CA-- 2480 212.91GiB 4MiB nid01226 
69119  CA-- 2480 212.91GiB 4MiB nid00018 
69120  CA-- 2480 212.91GiB 4MiB nid02126 
69121  CA-- 2480 212.91GiB 4MiB nid01482 
69122  CA-- 2480 212.91GiB 4MiB nid01934 
69123  CA-- 2480 212.91GiB 4MiB nid01682 
69124  CA-- 2480 212.91GiB 4MiB nid02249 
69125  CA-- 2480 212.91GiB 4MiB nid00205 
69126  CA-- 2480 212.91GiB 4MiB nid01801 
69127  CA-- 2480 212.91GiB 4MiB nid00014 
69128  CA-- 2480 212.91GiB 4MiB nid01169 
69129  CA-- 2480 212.91GiB 4MiB nid01357 
69130  CA-- 2480 212.91GiB 4MiB nid01417 
69131  CA-- 2480 212.91GiB 4MiB nid02006 
69132  CA-- 2480 212.91GiB 4MiB nid01034 
69133  CA-- 2480 212.91GiB 4MiB nid01354 
69134  CA-- 2480 212.91GiB 4MiB nid01938 
69135  CA-- 2480 212.91GiB 4MiB nid00266 
69136  CA-- 2480 212.91GiB 4MiB nid00333 
69137  CA-- 2480 212.91GiB 4MiB nid00841 
69138  CA-- 2480 212.91GiB 4MiB nid01609 
69139  CA-- 2480 212.91GiB 4MiB nid00589 
69140  CA-- 2480 212.91GiB 4MiB nid01038 
69141  CA-- 2480 212.91GiB 4MiB nid00913 
69142  CA-- 2480 212.91GiB 4MiB nid02062 
69143  CA-- 2480 212.91GiB 4MiB nid01418 
69144  CA-- 2480 212.91GiB 4MiB nid01994 
69145  CA-- 2480 212.91GiB 4MiB nid00785 
69146  CA-- 2480 212.91GiB 4MiB nid00782 
69147  CA-- 2480 212.91GiB 4MiB nid00142 
69148  CA-- 2480 212.91GiB 4MiB nid02189 
69149  CA-- 2480 212.91GiB 4MiB nid00781 
69150  CA-- 2480 212.91GiB 4MiB nid00457 
69151  CA-- 2480 212.91GiB 4MiB nid01098 
69152  CA-- 2480 212.91GiB 4MiB nid00146 
69153  CA-- 2480 212.91GiB 4MiB nid01865 
69154  CA-- 2480 212.91GiB 4MiB nid01481 
69155  CA-- 2480 212.91GiB 4MiB nid01737 
69156  CA-- 2480 212.91GiB 4MiB nid00854 
69157  CA-- 2480 212.91GiB 4MiB nid00653 
69158  CA-- 2480 212.91GiB 4MiB nid02253 
69159  CA-- 2480 212.91GiB 4MiB nid01225 
69160  CA-- 2480 212.91GiB 4MiB nid00269 
69161  CA-- 2480 212.91GiB 4MiB nid01237 
69162  CA-- 2480 212.91GiB 4MiB nid01678 
69163  CA-- 2480 212.91GiB 4MiB nid01802 
69164  CA-- 2480 212.91GiB 4MiB nid01033 
69165  CA-- 2480 212.91GiB 4MiB nid00853 
69166  CA-- 2480 212.91GiB 4MiB nid00586 
69167  CA-- 2480 212.91GiB 4MiB nid01806 
69168  CA-- 2480 212.91GiB 4MiB nid00526 
69169  CA-- 2480 212.91GiB 4MiB nid01298 
69170  CA-- 2480 212.91GiB 4MiB nid00718 
69171  CA-- 2480 212.91GiB 4MiB nid01485 
69172  CA-- 2480 212.91GiB 4MiB nid00713 
69173  CA-- 2480 212.91GiB 4MiB nid02186 
69174  CA-- 2480 212.91GiB 4MiB nid00141 
69175  CA-- 2480 212.91GiB 4MiB nid00530 
69176  CA-- 2480 212.91GiB 4MiB nid01741 
69177  CA-- 2480 212.91GiB 4MiB nid00073 

   ns state conf  frag span 
45414  CA-- 1417 30524    1 
45505  CA-- 1514 32292    1 
45585  CA-- 1594 33955   10 
45722  CA-- 1731 39205    1 
45725  CA-- 1734 39208    2 
45907  CA-- 1852 41922   10 
49198  CA-- 2503 61379    2 
49200  CA-- 2505 61382    1 
49962  CA-- 2608 63967  141 
50012  CA-- 2658 64768    1 
50013  CA-- 2659 64769    1 
51930  CA-- 2744 68662   65 
51931  CA-- 2745 68856   64 
51933  CA-- 2747 68727   64 
51934  CA-- 2748 68920   65 
51935  CA-- 2749 69049   64 
51936  CA-- 2750 69113   65 
51937  CA-- 2751 68985   64 

    node      pool online drain  gran capacity insts activs 
nid00013  wlm_pool   true false 16MiB  5.82TiB     5      0 
nid00014  wlm_pool   true false 16MiB  5.82TiB     3      0 
nid00017  wlm_pool   true false 16MiB  5.82TiB     5      0 
nid00018  wlm_pool   true false 16MiB  5.82TiB     5      0 
nid00073  wlm_pool   true false 16MiB  5.82TiB     4      0 
nid00074  wlm_pool   true false 16MiB  5.82TiB     5      0 
nid00085  wlm_pool   true false 16MiB  5.82TiB     5      0 
nid00086  wlm_pool   true false 16MiB  5.82TiB     3      0 
nid00141  wlm_pool   true false 16MiB  5.82TiB     4      0 
nid00142  wlm_pool   true false 16MiB  5.82TiB     4      0 
nid00145  wlm_pool   true false 16MiB  5.82TiB     5      0 
nid00146  wlm_pool   true false 16MiB  5.82TiB     4      0 
nid00201  wlm_pool   true false 16MiB  5.82TiB     4      0 
nid00202  wlm_pool   true false 16MiB  5.82TiB     5      0 
nid00205  wlm_pool   true false 16MiB  5.82TiB     4      0 
nid00206  wlm_pool   true false 16MiB  5.82TiB     5      0 
nid00265  wlm_pool   true false 16MiB  5.82TiB     4      0 
nid00266  wlm_pool   true false 16MiB  5.82TiB     3      0 
nid00269  wlm_pool   true false 16MiB  5.82TiB     3      0 
nid00270  wlm_pool   true false 16MiB  5.82TiB     5      0 
nid00329  wlm_pool   true false 16MiB  5.82TiB     5      0 
nid00330  wlm_pool   true false 16MiB  5.82TiB     5      0 
nid00333  wlm_pool   true false 16MiB  5.82TiB     3      0 
nid00334  wlm_pool   true false 16MiB  5.82TiB     5      0 
nid00397  wlm_pool   true false 16MiB  5.82TiB     5      0 
nid00398  wlm_pool   true false 16MiB  5.82TiB     5      0 
nid00401  wlm_pool   true false 16MiB  5.82TiB     4      0 
nid00402  wlm_pool   true false 16MiB  5.82TiB     5      0 
nid00457  wlm_pool   true false 16MiB  5.82TiB     4      0 
nid00458  wlm_pool   true false 16MiB  5.82TiB     5      0 
nid00469  wlm_pool   true false 16MiB  5.82TiB     4      0 
nid00470  wlm_pool   true false 16MiB  5.82TiB     5      0 
nid00525  wlm_pool   true false 16MiB  5.82TiB     5      0 
nid00526  wlm_pool   true false 16MiB  5.82TiB     4      0 
nid00529  wlm_pool   true false 16MiB  5.82TiB     5      0 
nid00530  wlm_pool   true false 16MiB  5.82TiB     4      0 
nid00585  wlm_pool   true false 16MiB  5.82TiB     4      0 
nid00586  wlm_pool   true false 16MiB  5.82TiB     4      0 
nid00589  wlm_pool   true false 16MiB  5.82TiB     3      0 
nid00590  wlm_pool   true false 16MiB  5.82TiB     5      0 
nid00649  wlm_pool   true false 16MiB  5.82TiB     5      0 
nid00650  wlm_pool   true false 16MiB  5.82TiB     5      0 
nid00653  wlm_pool   true false 16MiB  5.82TiB     4      0 
nid00654  wlm_pool   true false 16MiB  5.82TiB     5      0 
nid00713  wlm_pool   true false 16MiB  5.82TiB     4      0 
nid00714  wlm_pool   true false 16MiB  5.82TiB     5      0 
nid00717  wlm_pool   true false 16MiB  5.82TiB     5      0 
nid00718  wlm_pool   true false 16MiB  5.82TiB     4      0 
nid00781  wlm_pool   true false 16MiB  5.82TiB     4      0 
nid00782  wlm_pool   true false 16MiB  5.82TiB     4      0 
nid00785  wlm_pool   true false 16MiB  5.82TiB     4      0 
nid00786  wlm_pool   true false 16MiB  5.82TiB     5      0 
nid00841  wlm_pool   true false 16MiB  5.82TiB     3      0 
nid00842  wlm_pool   true false 16MiB  5.82TiB     5      0 
nid00853  wlm_pool   true false 16MiB  5.82TiB     4      0 
nid00854  wlm_pool   true false 16MiB  5.82TiB     4      0 
nid00909  wlm_pool   true false 16MiB  5.82TiB     5      0 
nid00910  wlm_pool   true false 16MiB  5.82TiB     5      0 
nid00913  wlm_pool   true false 16MiB  5.82TiB     4      0 
nid00914  wlm_pool   true false 16MiB  5.82TiB     5      0 
nid00969  wlm_pool   true false 16MiB  5.82TiB     5      0 
nid00970  wlm_pool   true false 16MiB  5.82TiB     5      0 
nid00973  wlm_pool   true false 16MiB  5.82TiB     5      0 
nid00974  wlm_pool   true false 16MiB  5.82TiB     3      0 
nid01033  wlm_pool   true false 16MiB  5.82TiB     4      0 
nid01034  wlm_pool   true false 16MiB  5.82TiB     4      0 
nid01037  wlm_pool   true false 16MiB  5.82TiB     5      0 
nid01038  wlm_pool   true false 16MiB  5.82TiB     4      0 
nid01097  wlm_pool   true false 16MiB  5.82TiB     5      0 
nid01098  wlm_pool   true false 16MiB  5.82TiB     4      0 
nid01101  wlm_pool   true  true 16MiB  5.82TiB     1      0 
nid01102  wlm_pool   true false 16MiB  5.82TiB     5      0 
nid01165  wlm_pool   true false 16MiB  5.82TiB     5      0 
nid01166  wlm_pool   true false 16MiB  5.82TiB     5      0 
nid01169  wlm_pool   true false 16MiB  5.82TiB     3      0 
nid01170  wlm_pool   true false 16MiB  5.82TiB     5      0 
nid01225  wlm_pool   true false 16MiB  5.82TiB     3      0 
nid01226  wlm_pool   true false 16MiB  5.82TiB     5      0 
nid01237  wlm_pool   true false 16MiB  5.82TiB     3      0 
nid01238  wlm_pool   true false 16MiB  5.82TiB     5      0 
nid01293  wlm_pool   true false 16MiB  5.82TiB     5      0 
nid01294  wlm_pool   true false 16MiB  5.82TiB     5      0 
nid01297  wlm_pool   true false 16MiB  5.82TiB     5      0 
nid01298  wlm_pool   true false 16MiB  5.82TiB     4      0 
nid01353  wlm_pool   true false 16MiB  5.82TiB     3      0 
nid01354  wlm_pool   true false 16MiB  5.82TiB     3      0 
nid01357  wlm_pool   true false 16MiB  5.82TiB     3      0 
nid01358  wlm_pool   true false 16MiB  5.82TiB     5      0 
nid01417  wlm_pool   true false 16MiB  5.82TiB     3      0 
nid01418  wlm_pool   true false 16MiB  5.82TiB     4      0 
nid01421  wlm_pool   true false 16MiB  5.82TiB     5      0 
nid01422  wlm_pool   true  true 16MiB  5.82TiB     0      0 
nid01481  wlm_pool   true false 16MiB  5.82TiB     4      0 
nid01482  wlm_pool   true false 16MiB  5.82TiB     5      0 
nid01485  wlm_pool   true false 16MiB  5.82TiB     4      0 
nid01486  wlm_pool   true false 16MiB  5.82TiB     5      0 
nid01549  wlm_pool   true false 16MiB  5.82TiB     5      0 
nid01550  wlm_pool   true false 16MiB  5.82TiB     5      0 
nid01553  wlm_pool   true false 16MiB  5.82TiB     5      0 
nid01554  wlm_pool   true false 16MiB  5.82TiB     5      0 
nid01609  wlm_pool   true false 16MiB  5.82TiB     3      0 
nid01610  wlm_pool   true false 16MiB  5.82TiB     4      0 
nid01621  wlm_pool   true false 16MiB  5.82TiB     5      0 
nid01622  wlm_pool   true false 16MiB  5.82TiB     5      0 
nid01677  wlm_pool   true false 16MiB  5.82TiB     5      0 
nid01678  wlm_pool   true false 16MiB  5.82TiB     4      0 
nid01681  wlm_pool   true false 16MiB  5.82TiB     5      0 
nid01682  wlm_pool   true false 16MiB  5.82TiB     5      0 
nid01737  wlm_pool   true false 16MiB  5.82TiB     4      0 
nid01738  wlm_pool   true false 16MiB  5.82TiB     3      0 
nid01741  wlm_pool   true false 16MiB  5.82TiB     4      0 
nid01742  wlm_pool   true false 16MiB  5.82TiB     5      0 
nid01801  wlm_pool   true false 16MiB  5.82TiB     4      0 
nid01802  wlm_pool   true false 16MiB  5.82TiB     4      0 
nid01805  wlm_pool   true false 16MiB  5.82TiB     5      0 
nid01806  wlm_pool   true false 16MiB  5.82TiB     4      0 
nid01865  wlm_pool   true false 16MiB  5.82TiB     4      0 
nid01866  wlm_pool   true false 16MiB  5.82TiB     5      0 
nid01869  wlm_pool   true false 16MiB  5.82TiB     5      0 
nid01870  wlm_pool   true false 16MiB  5.82TiB     5      0 
nid01933  wlm_pool   true false 16MiB  5.82TiB     5      0 
nid01934  wlm_pool   true false 16MiB  5.82TiB     5      0 
nid01937  wlm_pool   true false 16MiB  5.82TiB     5      0 
nid01938  wlm_pool   true false 16MiB  5.82TiB     3      0 
nid01993  wlm_pool   true false 16MiB  5.82TiB     5      0 
nid01994  wlm_pool   true false 16MiB  5.82TiB     4      0 
nid02005  wlm_pool   true false 16MiB  5.82TiB     5      0 
nid02006  wlm_pool   true false 16MiB  5.82TiB     4      0 
nid02061  wlm_pool   true false 16MiB  5.82TiB     5      0 
nid02062  wlm_pool   true false 16MiB  5.82TiB     4      0 
nid02065  wlm_pool   true false 16MiB  5.82TiB     5      0 
nid02066  wlm_pool   true false 16MiB  5.82TiB     4      0 
nid02121  wlm_pool   true false 16MiB  5.82TiB     5      0 
nid02122  wlm_pool   true false 16MiB  5.82TiB     5      0 
nid02125  wlm_pool   true false 16MiB  5.82TiB     4      0 
nid02126  wlm_pool   true false 16MiB  5.82TiB     5      0 
nid02185  wlm_pool   true false 16MiB  5.82TiB     5      0 
nid02186  wlm_pool   true false 16MiB  5.82TiB     4      0 
nid02189  wlm_pool   true false 16MiB  5.82TiB     4      0 
nid02190  wlm_pool   true false 16MiB  5.82TiB     5      0 
nid02249  wlm_pool   true false 16MiB  5.82TiB     5      0 
nid02250  wlm_pool   true false 16MiB  5.82TiB     5      0 
nid02253  wlm_pool   true false 16MiB  5.82TiB     3      0 
nid02254 test_pool   true false 16MiB  5.82TiB     0      0 

MPIIO: unrecognized DVS real_fs_magic=0XBBFBBF10  ADIOI_CRAY_dvs_real_fstype:1249  using default optimizations
MPIIO WARNING: DVS stripe width of 32 was requested but DVS set it to 65
See MPICH_MPIIO_DVS_MAXNODES in the intro_mpi man page.
Number of paritcles: 33554432 
Finished initializing particles 
Opened H5Part file... 
Before writing particles 
Step is set 
Num particles is set 
Written variable 1 
Written variable 2 
Written variable 3 
Written variable 4 
Written variable 5 
Written variable 6 
Written variable 7 
Written variable 8 
After writing particles 
After closing particles 

Timing results
241.742004 seconds elapsed in just writing data
242.934158 seconds elapsed in opening, writing, closing file

-rw-r----- 1 mbryson mbryson 8796093028488 Feb 29 16:26 /var/opt/cray/dws/mounts/batch/1236915/ss//output_8K/sample.h5part
-rw-r----- 1 mbryson mbryson 8.1T Feb 29 16:26 /var/opt/cray/dws/mounts/batch/1236915/ss//output_8K/sample.h5part
Mon Feb 29 16:26:18 2016: [unset]:_pmi_alps_get_apid:alps response not OKAY
Mon Feb 29 16:26:18 2016: [unset]:_pmi_init:_pmi_alps_init returned -1
HDF5 "/var/opt/cray/dws/mounts/batch/1236915/ss//output_8K/sample.h5part" {
GROUP "/" {
   ATTRIBUTE "Origin" {
      DATATYPE  H5T_STRING {
         STRSIZE 15;
         STRPAD H5T_STR_NULLTERM;
         CSET H5T_CSET_ASCII;
         CTYPE H5T_C_S1;
      }
      DATASPACE  SCALAR
   }
   GROUP "Step#0" {
      DATASET "id1" {
         DATATYPE  H5T_STD_I32LE
         DATASPACE  SIMPLE { ( 274877906944 ) / ( 274877906944 ) }
      }
      DATASET "id2" {
         DATATYPE  H5T_STD_I32LE
         DATASPACE  SIMPLE { ( 274877906944 ) / ( 274877906944 ) }
      }
      DATASET "px" {
         DATATYPE  H5T_IEEE_F32LE
         DATASPACE  SIMPLE { ( 274877906944 ) / ( 274877906944 ) }
      }
      DATASET "py" {
         DATATYPE  H5T_IEEE_F32LE
         DATASPACE  SIMPLE { ( 274877906944 ) / ( 274877906944 ) }
      }
      DATASET "pz" {
         DATATYPE  H5T_IEEE_F32LE
         DATASPACE  SIMPLE { ( 274877906944 ) / ( 274877906944 ) }
      }
      DATASET "x" {
         DATATYPE  H5T_IEEE_F32LE
         DATASPACE  SIMPLE { ( 274877906944 ) / ( 274877906944 ) }
      }
      DATASET "y" {
         DATATYPE  H5T_IEEE_F32LE
         DATASPACE  SIMPLE { ( 274877906944 ) / ( 274877906944 ) }
      }
      DATASET "z" {
         DATATYPE  H5T_IEEE_F32LE
         DATASPACE  SIMPLE { ( 274877906944 ) / ( 274877906944 ) }
      }
   }
}
}
