     pool units quantity      free      gran 
test_pool bytes  5.82TiB   5.82TiB     16MiB 
 wlm_pool bytes 832.5TiB 418.74TiB 212.91GiB 

sess state   token creator owner             created expiration nodes 
4716 CA--- 1745776   SLURM 69107 2016-04-05T11:38:41      never    32 
4717 CA--- 1745777   SLURM 69107 2016-04-05T11:38:41      never     0 

inst state sess     bytes nodes             created expiration intact        label public confs 
2232 CA--- 2515 425.81GiB     2 2016-02-19T12:09:21      never   true     XuanCami   true     1 
2234 CA--- 2520 212.91GiB     1 2016-02-19T13:45:33      never   true     myBBname   true     1 
2550 CA--- 3041   1.04TiB     5 2016-03-02T15:01:02      never   true gatkbrachy_2   true     1 
3648 CA--- 4142  10.19TiB    49 2016-03-26T14:33:53      never   true     wahAtlas   true     1 
3826 CA--- 4334  40.13TiB   135 2016-03-30T15:06:41      never   true   regan_40TB   true     1 
3861 CA--- 4384  10.19TiB    49 2016-03-31T05:26:15      never   true   regan_10TB   true     1 
4165 CA--- 4716  13.31TiB    64 2016-04-05T11:38:41      never   true      I4716-0  false     1 
4166 CA--- 4717  13.31TiB    64 2016-04-05T11:38:41      never   true      I4717-0  false     1 

conf state inst    type access_type activs 
2503 CA--- 2232 scratch      stripe      0 
2505 CA--- 2234 scratch      stripe      0 
2821 CA--- 2550 scratch      stripe      0 
3923 CA--- 3648 scratch      stripe      0 
4104 CA--- 3826 scratch      stripe      0 
4139 CA--- 3861 scratch      stripe      0 
4442 CA--- 4165 scratch      stripe      1 
4443 CA--- 4166 scratch      stripe      0 

 reg state sess conf wait 
4519 CA--- 4716 4442 true 

activ state sess conf nodes                                     mount 
 4337 CA--- 4716 4442    32 /var/opt/cray/dws/mounts/batch/1745776/ss 

  frag state inst  capacity gran     node 
 61379  CA-- 2232 212.91GiB 4MiB nid02006 
 61380  CA-- 2232 212.91GiB 4MiB nid01034 
 61382  CA-- 2234 212.91GiB 4MiB nid00457 
 73696  CA-- 2550 212.91GiB 4MiB nid02249 
 73697  CA-- 2550 212.91GiB 4MiB nid00205 
 73698  CA-- 2550 212.91GiB 4MiB nid01801 
 73699  CA-- 2550 212.91GiB 4MiB nid00014 
 73700  CA-- 2550 212.91GiB 4MiB nid01169 
129824  CA-- 3648 212.91GiB 4MiB nid02062 
129825  CA-- 3648 212.91GiB 4MiB nid01418 
129826  CA-- 3648 212.91GiB 4MiB nid00785 
129827  CA-- 3648 212.91GiB 4MiB nid00782 
129828  CA-- 3648 212.91GiB 4MiB nid00142 
129829  CA-- 3648 212.91GiB 4MiB nid02189 
129830  CA-- 3648 212.91GiB 4MiB nid00781 
129831  CA-- 3648 212.91GiB 4MiB nid00146 
129832  CA-- 3648 212.91GiB 4MiB nid01481 
129833  CA-- 3648 212.91GiB 4MiB nid01737 
129834  CA-- 3648 212.91GiB 4MiB nid00854 
129835  CA-- 3648 212.91GiB 4MiB nid00653 
129836  CA-- 3648 212.91GiB 4MiB nid01225 
129837  CA-- 3648 212.91GiB 4MiB nid00269 
129838  CA-- 3648 212.91GiB 4MiB nid01237 
129839  CA-- 3648 212.91GiB 4MiB nid01678 
129840  CA-- 3648 212.91GiB 4MiB nid01802 
129841  CA-- 3648 212.91GiB 4MiB nid01033 
129842  CA-- 3648 212.91GiB 4MiB nid00853 
129843  CA-- 3648 212.91GiB 4MiB nid00586 
129844  CA-- 3648 212.91GiB 4MiB nid01806 
129845  CA-- 3648 212.91GiB 4MiB nid00526 
129846  CA-- 3648 212.91GiB 4MiB nid01298 
129847  CA-- 3648 212.91GiB 4MiB nid00718 
129848  CA-- 3648 212.91GiB 4MiB nid01485 
129849  CA-- 3648 212.91GiB 4MiB nid00713 
129850  CA-- 3648 212.91GiB 4MiB nid02186 
129851  CA-- 3648 212.91GiB 4MiB nid00141 
129852  CA-- 3648 212.91GiB 4MiB nid00530 
129853  CA-- 3648 212.91GiB 4MiB nid01741 
129854  CA-- 3648 212.91GiB 4MiB nid00073 
129855  CA-- 3648 212.91GiB 4MiB nid00974 
129856  CA-- 3648 212.91GiB 4MiB nid00086 
129857  CA-- 3648 212.91GiB 4MiB nid01738 
129858  CA-- 3648 212.91GiB 4MiB nid01353 
129859  CA-- 3648 212.91GiB 4MiB nid00401 
129860  CA-- 3648 212.91GiB 4MiB nid02066 
129861  CA-- 3648 212.91GiB 4MiB nid00469 
129862  CA-- 3648 212.91GiB 4MiB nid00585 
129863  CA-- 3648 212.91GiB 4MiB nid00265 
129864  CA-- 3648 212.91GiB 4MiB nid01610 
129865  CA-- 3648 212.91GiB 4MiB nid02125 
129866  CA-- 3648 212.91GiB 4MiB nid00201 
129867  CA-- 3648 212.91GiB 4MiB nid00145 
129868  CA-- 3648 212.91GiB 4MiB nid00717 
129869  CA-- 3648 212.91GiB 4MiB nid00470 
129870  CA-- 3648 212.91GiB 4MiB nid00842 
129871  CA-- 3648 212.91GiB 4MiB nid01621 
129872  CA-- 3648 212.91GiB 4MiB nid01549 
138143  CA-- 3826 425.81GiB 4MiB nid01937 
138144  CA-- 3826 425.81GiB 4MiB nid00206 
138145  CA-- 3826 425.81GiB 4MiB nid02005 
138146  CA-- 3826 425.81GiB 4MiB nid00458 
138147  CA-- 3826 425.81GiB 4MiB nid01037 
138148  CA-- 3826 425.81GiB 4MiB nid01294 
138149  CA-- 3826 425.81GiB 4MiB nid00329 
138150  CA-- 3826 425.81GiB 4MiB nid02250 
138151  CA-- 3826 425.81GiB 4MiB nid01486 
138152  CA-- 3826 425.81GiB 4MiB nid00402 
138153  CA-- 3826 425.81GiB 4MiB nid00969 
138154  CA-- 3826 425.81GiB 4MiB nid01358 
138155  CA-- 3826 425.81GiB 4MiB nid01681 
138156  CA-- 3826 425.81GiB 4MiB nid02190 
138157  CA-- 3826 425.81GiB 4MiB nid01805 
138158  CA-- 3826 425.81GiB 4MiB nid00085 
138159  CA-- 3826 425.81GiB 4MiB nid01170 
138160  CA-- 3826 425.81GiB 4MiB nid00013 
138161  CA-- 3826 425.81GiB 4MiB nid02065 
138162  CA-- 3826 425.81GiB 4MiB nid01869 
138163  CA-- 3826 425.81GiB 4MiB nid00397 
138164  CA-- 3826 425.81GiB 4MiB nid01421 
138165  CA-- 3826 425.81GiB 4MiB nid01102 
138166  CA-- 3826 425.81GiB 4MiB nid01870 
138167  CA-- 3826 425.81GiB 4MiB nid00270 
138168  CA-- 3826 425.81GiB 4MiB nid01166 
138169  CA-- 3826 425.81GiB 4MiB nid01550 
138170  CA-- 3826 425.81GiB 4MiB nid01553 
138171  CA-- 3826 425.81GiB 4MiB nid00910 
138172  CA-- 3826 425.81GiB 4MiB nid02061 
138173  CA-- 3826 425.81GiB 4MiB nid02185 
138174  CA-- 3826 425.81GiB 4MiB nid01933 
138175  CA-- 3826 425.81GiB 4MiB nid02121 
138176  CA-- 3826 425.81GiB 4MiB nid00970 
138177  CA-- 3826 425.81GiB 4MiB nid00914 
138178  CA-- 3826 425.81GiB 4MiB nid00017 
138179  CA-- 3826 425.81GiB 4MiB nid01165 
138180  CA-- 3826 425.81GiB 4MiB nid01622 
138181  CA-- 3826 425.81GiB 4MiB nid00786 
138182  CA-- 3826 425.81GiB 4MiB nid00074 
138183  CA-- 3826 425.81GiB 4MiB nid01866 
138184  CA-- 3826 425.81GiB 4MiB nid00525 
138185  CA-- 3826 425.81GiB 4MiB nid00714 
138186  CA-- 3826 425.81GiB 4MiB nid00330 
138187  CA-- 3826 425.81GiB 4MiB nid00334 
138188  CA-- 3826 425.81GiB 4MiB nid01742 
138189  CA-- 3826 425.81GiB 4MiB nid00649 
138190  CA-- 3826 425.81GiB 4MiB nid01238 
138191  CA-- 3826 425.81GiB 4MiB nid01297 
138192  CA-- 3826 425.81GiB 4MiB nid01293 
138193  CA-- 3826 425.81GiB 4MiB nid01677 
138194  CA-- 3826 425.81GiB 4MiB nid02122 
138195  CA-- 3826 425.81GiB 4MiB nid01554 
138196  CA-- 3826 425.81GiB 4MiB nid00909 
138197  CA-- 3826 425.81GiB 4MiB nid00529 
138198  CA-- 3826 425.81GiB 4MiB nid00590 
138199  CA-- 3826 425.81GiB 4MiB nid00398 
138200  CA-- 3826 425.81GiB 4MiB nid00654 
138201  CA-- 3826 212.91GiB 4MiB nid01226 
138202  CA-- 3826 212.91GiB 4MiB nid00018 
138203  CA-- 3826 212.91GiB 4MiB nid02126 
138204  CA-- 3826 212.91GiB 4MiB nid01482 
138205  CA-- 3826 212.91GiB 4MiB nid01934 
138206  CA-- 3826 212.91GiB 4MiB nid01682 
138207  CA-- 3826 212.91GiB 4MiB nid01357 
138208  CA-- 3826 212.91GiB 4MiB nid01417 
138209  CA-- 3826 212.91GiB 4MiB nid01354 
138210  CA-- 3826 212.91GiB 4MiB nid01938 
138211  CA-- 3826 212.91GiB 4MiB nid00266 
138212  CA-- 3826 212.91GiB 4MiB nid00333 
138213  CA-- 3826 212.91GiB 4MiB nid00841 
138214  CA-- 3826 212.91GiB 4MiB nid01609 
138215  CA-- 3826 212.91GiB 4MiB nid00589 
138216  CA-- 3826 212.91GiB 4MiB nid02062 
138217  CA-- 3826 212.91GiB 4MiB nid01418 
138218  CA-- 3826 212.91GiB 4MiB nid01994 
138219  CA-- 3826 212.91GiB 4MiB nid00785 
138220  CA-- 3826 212.91GiB 4MiB nid00782 
138221  CA-- 3826 212.91GiB 4MiB nid00142 
138222  CA-- 3826 212.91GiB 4MiB nid02189 
138223  CA-- 3826 212.91GiB 4MiB nid00781 
138224  CA-- 3826 212.91GiB 4MiB nid00457 
138225  CA-- 3826 212.91GiB 4MiB nid00146 
138226  CA-- 3826 212.91GiB 4MiB nid01481 
138227  CA-- 3826 212.91GiB 4MiB nid01737 
138228  CA-- 3826 212.91GiB 4MiB nid00854 
138229  CA-- 3826 212.91GiB 4MiB nid00653 
138230  CA-- 3826 212.91GiB 4MiB nid02253 
138231  CA-- 3826 212.91GiB 4MiB nid01225 
138232  CA-- 3826 212.91GiB 4MiB nid00269 
138233  CA-- 3826 212.91GiB 4MiB nid01237 
138234  CA-- 3826 212.91GiB 4MiB nid01678 
138235  CA-- 3826 212.91GiB 4MiB nid01802 
138236  CA-- 3826 212.91GiB 4MiB nid01033 
138237  CA-- 3826 212.91GiB 4MiB nid00853 
138238  CA-- 3826 212.91GiB 4MiB nid00586 
138239  CA-- 3826 212.91GiB 4MiB nid01806 
138240  CA-- 3826 212.91GiB 4MiB nid00526 
138241  CA-- 3826 212.91GiB 4MiB nid01298 
138242  CA-- 3826 212.91GiB 4MiB nid00718 
138243  CA-- 3826 212.91GiB 4MiB nid01485 
138244  CA-- 3826 212.91GiB 4MiB nid00713 
138245  CA-- 3826 212.91GiB 4MiB nid02186 
138246  CA-- 3826 212.91GiB 4MiB nid00141 
138247  CA-- 3826 212.91GiB 4MiB nid00530 
138248  CA-- 3826 212.91GiB 4MiB nid01741 
138249  CA-- 3826 212.91GiB 4MiB nid00073 
138250  CA-- 3826 212.91GiB 4MiB nid00974 
138251  CA-- 3826 212.91GiB 4MiB nid00086 
138252  CA-- 3826 212.91GiB 4MiB nid01738 
138253  CA-- 3826 212.91GiB 4MiB nid01353 
138254  CA-- 3826 212.91GiB 4MiB nid00401 
138255  CA-- 3826 212.91GiB 4MiB nid02066 
138256  CA-- 3826 212.91GiB 4MiB nid00469 
138257  CA-- 3826 212.91GiB 4MiB nid00585 
138258  CA-- 3826 212.91GiB 4MiB nid00265 
138259  CA-- 3826 212.91GiB 4MiB nid01610 
138260  CA-- 3826 212.91GiB 4MiB nid02125 
138261  CA-- 3826 212.91GiB 4MiB nid00201 
138262  CA-- 3826 212.91GiB 4MiB nid00145 
138263  CA-- 3826 212.91GiB 4MiB nid00717 
138264  CA-- 3826 212.91GiB 4MiB nid00470 
138265  CA-- 3826 212.91GiB 4MiB nid00842 
138266  CA-- 3826 212.91GiB 4MiB nid01621 
138267  CA-- 3826 212.91GiB 4MiB nid01549 
138268  CA-- 3826 212.91GiB 4MiB nid00202 
138269  CA-- 3826 212.91GiB 4MiB nid00973 
138270  CA-- 3826 212.91GiB 4MiB nid00650 
138271  CA-- 3826 212.91GiB 4MiB nid02249 
138272  CA-- 3826 212.91GiB 4MiB nid00205 
138273  CA-- 3826 212.91GiB 4MiB nid01801 
138274  CA-- 3826 212.91GiB 4MiB nid00014 
138275  CA-- 3826 212.91GiB 4MiB nid01169 
138276  CA-- 3826 212.91GiB 4MiB nid02006 
138277  CA-- 3826 212.91GiB 4MiB nid01034 
139195  CA-- 3861 212.91GiB 4MiB nid00589 
139196  CA-- 3861 212.91GiB 4MiB nid02062 
139197  CA-- 3861 212.91GiB 4MiB nid01418 
139198  CA-- 3861 212.91GiB 4MiB nid01994 
139199  CA-- 3861 212.91GiB 4MiB nid00785 
139200  CA-- 3861 212.91GiB 4MiB nid00782 
139201  CA-- 3861 212.91GiB 4MiB nid00142 
139202  CA-- 3861 212.91GiB 4MiB nid02189 
139203  CA-- 3861 212.91GiB 4MiB nid00781 
139204  CA-- 3861 212.91GiB 4MiB nid00457 
139205  CA-- 3861 212.91GiB 4MiB nid00146 
139206  CA-- 3861 212.91GiB 4MiB nid01481 
139207  CA-- 3861 212.91GiB 4MiB nid01737 
139208  CA-- 3861 212.91GiB 4MiB nid00854 
139209  CA-- 3861 212.91GiB 4MiB nid00653 
139210  CA-- 3861 212.91GiB 4MiB nid02253 
139211  CA-- 3861 212.91GiB 4MiB nid01225 
139212  CA-- 3861 212.91GiB 4MiB nid00269 
139213  CA-- 3861 212.91GiB 4MiB nid01237 
139214  CA-- 3861 212.91GiB 4MiB nid01678 
139215  CA-- 3861 212.91GiB 4MiB nid01802 
139216  CA-- 3861 212.91GiB 4MiB nid01033 
139217  CA-- 3861 212.91GiB 4MiB nid00853 
139218  CA-- 3861 212.91GiB 4MiB nid00586 
139219  CA-- 3861 212.91GiB 4MiB nid01806 
139220  CA-- 3861 212.91GiB 4MiB nid00526 
139221  CA-- 3861 212.91GiB 4MiB nid01298 
139222  CA-- 3861 212.91GiB 4MiB nid00718 
139223  CA-- 3861 212.91GiB 4MiB nid01485 
139224  CA-- 3861 212.91GiB 4MiB nid00713 
139225  CA-- 3861 212.91GiB 4MiB nid02186 
139226  CA-- 3861 212.91GiB 4MiB nid00141 
139227  CA-- 3861 212.91GiB 4MiB nid00530 
139228  CA-- 3861 212.91GiB 4MiB nid01741 
139229  CA-- 3861 212.91GiB 4MiB nid00073 
139230  CA-- 3861 212.91GiB 4MiB nid00974 
139231  CA-- 3861 212.91GiB 4MiB nid00086 
139232  CA-- 3861 212.91GiB 4MiB nid01738 
139233  CA-- 3861 212.91GiB 4MiB nid01353 
139234  CA-- 3861 212.91GiB 4MiB nid00401 
139235  CA-- 3861 212.91GiB 4MiB nid02066 
139236  CA-- 3861 212.91GiB 4MiB nid00469 
139237  CA-- 3861 212.91GiB 4MiB nid00585 
139238  CA-- 3861 212.91GiB 4MiB nid00265 
139239  CA-- 3861 212.91GiB 4MiB nid01610 
139240  CA-- 3861 212.91GiB 4MiB nid02125 
139241  CA-- 3861 212.91GiB 4MiB nid00201 
139242  CA-- 3861 212.91GiB 4MiB nid00145 
139243  CA-- 3861 212.91GiB 4MiB nid00717 
146448  CA-- 4165 212.91GiB 4MiB nid00401 
146449  CA-- 4165 212.91GiB 4MiB nid02066 
146450  CA-- 4165 212.91GiB 4MiB nid00469 
146451  CA-- 4165 212.91GiB 4MiB nid00585 
146452  CA-- 4165 212.91GiB 4MiB nid00265 
146453  CA-- 4165 212.91GiB 4MiB nid01610 
146454  CA-- 4165 212.91GiB 4MiB nid02125 
146455  CA-- 4165 212.91GiB 4MiB nid00201 
146456  CA-- 4165 212.91GiB 4MiB nid00145 
146457  CA-- 4165 212.91GiB 4MiB nid00717 
146458  CA-- 4165 212.91GiB 4MiB nid00470 
146459  CA-- 4165 212.91GiB 4MiB nid00842 
146460  CA-- 4165 212.91GiB 4MiB nid01621 
146461  CA-- 4165 212.91GiB 4MiB nid00525 
146462  CA-- 4165 212.91GiB 4MiB nid00714 
146463  CA-- 4165 212.91GiB 4MiB nid00330 
146464  CA-- 4165 212.91GiB 4MiB nid01485 
146465  CA-- 4165 212.91GiB 4MiB nid00713 
146466  CA-- 4165 212.91GiB 4MiB nid02186 
146467  CA-- 4165 212.91GiB 4MiB nid00141 
146468  CA-- 4165 212.91GiB 4MiB nid00530 
146469  CA-- 4165 212.91GiB 4MiB nid01741 
146470  CA-- 4165 212.91GiB 4MiB nid00073 
146471  CA-- 4165 212.91GiB 4MiB nid00974 
146472  CA-- 4165 212.91GiB 4MiB nid00086 
146473  CA-- 4165 212.91GiB 4MiB nid01738 
146474  CA-- 4165 212.91GiB 4MiB nid01353 
146475  CA-- 4165 212.91GiB 4MiB nid01549 
146476  CA-- 4165 212.91GiB 4MiB nid00202 
146477  CA-- 4165 212.91GiB 4MiB nid00973 
146478  CA-- 4165 212.91GiB 4MiB nid00650 
146479  CA-- 4165 212.91GiB 4MiB nid01937 
146480  CA-- 4165 212.91GiB 4MiB nid00206 
146481  CA-- 4165 212.91GiB 4MiB nid02005 
146482  CA-- 4165 212.91GiB 4MiB nid00458 
146483  CA-- 4165 212.91GiB 4MiB nid01037 
146484  CA-- 4165 212.91GiB 4MiB nid01294 
146485  CA-- 4165 212.91GiB 4MiB nid00329 
146486  CA-- 4165 212.91GiB 4MiB nid02250 
146487  CA-- 4165 212.91GiB 4MiB nid01486 
146488  CA-- 4165 212.91GiB 4MiB nid00402 
146489  CA-- 4165 212.91GiB 4MiB nid00969 
146490  CA-- 4165 212.91GiB 4MiB nid01358 
146491  CA-- 4165 212.91GiB 4MiB nid01681 
146492  CA-- 4165 212.91GiB 4MiB nid02190 
146493  CA-- 4165 212.91GiB 4MiB nid01805 
146494  CA-- 4165 212.91GiB 4MiB nid00085 
146495  CA-- 4165 212.91GiB 4MiB nid01170 
146496  CA-- 4165 212.91GiB 4MiB nid00013 
146497  CA-- 4165 212.91GiB 4MiB nid02065 
146498  CA-- 4165 212.91GiB 4MiB nid01869 
146499  CA-- 4165 212.91GiB 4MiB nid00397 
146500  CA-- 4165 212.91GiB 4MiB nid01421 
146501  CA-- 4165 212.91GiB 4MiB nid01102 
146502  CA-- 4165 212.91GiB 4MiB nid01870 
146503  CA-- 4165 212.91GiB 4MiB nid00270 
146504  CA-- 4165 212.91GiB 4MiB nid01166 
146505  CA-- 4165 212.91GiB 4MiB nid01550 
146506  CA-- 4165 212.91GiB 4MiB nid01553 
146507  CA-- 4165 212.91GiB 4MiB nid00910 
146508  CA-- 4165 212.91GiB 4MiB nid02061 
146509  CA-- 4165 212.91GiB 4MiB nid02185 
146510  CA-- 4165 212.91GiB 4MiB nid01933 
146511  CA-- 4165 212.91GiB 4MiB nid02121 
146512  CA-- 4166 212.91GiB 4MiB nid00401 
146513  CA-- 4166 212.91GiB 4MiB nid02066 
146514  CA-- 4166 212.91GiB 4MiB nid00469 
146515  CA-- 4166 212.91GiB 4MiB nid00585 
146516  CA-- 4166 212.91GiB 4MiB nid00265 
146517  CA-- 4166 212.91GiB 4MiB nid01610 
146518  CA-- 4166 212.91GiB 4MiB nid02125 
146519  CA-- 4166 212.91GiB 4MiB nid00201 
146520  CA-- 4166 212.91GiB 4MiB nid00145 
146521  CA-- 4166 212.91GiB 4MiB nid00717 
146522  CA-- 4166 212.91GiB 4MiB nid00470 
146523  CA-- 4166 212.91GiB 4MiB nid00842 
146524  CA-- 4166 212.91GiB 4MiB nid01621 
146525  CA-- 4166 212.91GiB 4MiB nid00970 
146526  CA-- 4166 212.91GiB 4MiB nid00914 
146527  CA-- 4166 212.91GiB 4MiB nid00017 
146528  CA-- 4166 212.91GiB 4MiB nid01165 
146529  CA-- 4166 212.91GiB 4MiB nid01622 
146530  CA-- 4166 212.91GiB 4MiB nid00786 
146531  CA-- 4166 212.91GiB 4MiB nid00074 
146532  CA-- 4166 212.91GiB 4MiB nid01866 
146533  CA-- 4166 212.91GiB 4MiB nid00525 
146534  CA-- 4166 212.91GiB 4MiB nid00714 
146535  CA-- 4166 212.91GiB 4MiB nid00330 
146536  CA-- 4166 212.91GiB 4MiB nid00334 
146537  CA-- 4166 212.91GiB 4MiB nid01742 
146538  CA-- 4166 212.91GiB 4MiB nid00649 
146539  CA-- 4166 212.91GiB 4MiB nid01238 
146540  CA-- 4166 212.91GiB 4MiB nid01297 
146541  CA-- 4166 212.91GiB 4MiB nid01293 
146542  CA-- 4166 212.91GiB 4MiB nid00654 
146543  CA-- 4166 212.91GiB 4MiB nid01226 
146544  CA-- 4166 212.91GiB 4MiB nid00018 
146545  CA-- 4166 212.91GiB 4MiB nid02126 
146546  CA-- 4166 212.91GiB 4MiB nid01482 
146547  CA-- 4166 212.91GiB 4MiB nid01934 
146548  CA-- 4166 212.91GiB 4MiB nid01682 
146549  CA-- 4166 212.91GiB 4MiB nid02249 
146550  CA-- 4166 212.91GiB 4MiB nid00205 
146551  CA-- 4166 212.91GiB 4MiB nid01801 
146552  CA-- 4166 212.91GiB 4MiB nid00014 
146553  CA-- 4166 212.91GiB 4MiB nid01169 
146554  CA-- 4166 212.91GiB 4MiB nid01357 
146555  CA-- 4166 212.91GiB 4MiB nid01417 
146556  CA-- 4166 212.91GiB 4MiB nid02006 
146557  CA-- 4166 212.91GiB 4MiB nid01034 
146558  CA-- 4166 212.91GiB 4MiB nid01354 
146559  CA-- 4166 212.91GiB 4MiB nid01938 
146560  CA-- 4166 212.91GiB 4MiB nid00266 
146561  CA-- 4166 212.91GiB 4MiB nid00333 
146562  CA-- 4166 212.91GiB 4MiB nid00841 
146563  CA-- 4166 212.91GiB 4MiB nid01609 
146564  CA-- 4166 212.91GiB 4MiB nid00589 
146565  CA-- 4166 212.91GiB 4MiB nid02062 
146566  CA-- 4166 212.91GiB 4MiB nid01418 
146567  CA-- 4166 212.91GiB 4MiB nid01994 
146568  CA-- 4166 212.91GiB 4MiB nid00785 
146569  CA-- 4166 212.91GiB 4MiB nid00782 
146570  CA-- 4166 212.91GiB 4MiB nid00142 
146571  CA-- 4166 212.91GiB 4MiB nid02189 
146572  CA-- 4166 212.91GiB 4MiB nid00781 
146573  CA-- 4166 212.91GiB 4MiB nid00457 
146574  CA-- 4166 212.91GiB 4MiB nid00146 
146575  CA-- 4166 212.91GiB 4MiB nid01481 

   ns state conf   frag span 
49198  CA-- 2503  61379    2 
49200  CA-- 2505  61382    1 
52607  CA-- 2821  73696    5 
56888  CA-- 3923 129824   49 
57145  CA-- 4104 138143  135 
57244  CA-- 4139 139195   49 
58036  CA-- 4442 146448   64 
58037  CA-- 4443 146512   64 

    node      pool online drain  gran capacity insts activs 
nid00013  wlm_pool   true false 16MiB  5.82TiB     2      0 
nid00014  wlm_pool   true false 16MiB  5.82TiB     3      0 
nid00017  wlm_pool   true false 16MiB  5.82TiB     2      0 
nid00018  wlm_pool   true false 16MiB  5.82TiB     2      0 
nid00073  wlm_pool   true false 16MiB  5.82TiB     4      0 
nid00074  wlm_pool   true false 16MiB  5.82TiB     2      0 
nid00085  wlm_pool   true false 16MiB  5.82TiB     2      0 
nid00086  wlm_pool   true false 16MiB  5.82TiB     4      0 
nid00141  wlm_pool   true false 16MiB  5.82TiB     4      0 
nid00142  wlm_pool   true false 16MiB  5.82TiB     4      0 
nid00145  wlm_pool   true false 16MiB  5.82TiB     5      0 
nid00146  wlm_pool   true false 16MiB  5.82TiB     4      0 
nid00201  wlm_pool   true false 16MiB  5.82TiB     5      0 
nid00202  wlm_pool   true false 16MiB  5.82TiB     2      0 
nid00205  wlm_pool   true false 16MiB  5.82TiB     3      0 
nid00206  wlm_pool   true false 16MiB  5.82TiB     2      0 
nid00265  wlm_pool   true false 16MiB  5.82TiB     5      0 
nid00266  wlm_pool   true false 16MiB  5.82TiB     2      0 
nid00269  wlm_pool   true false 16MiB  5.82TiB     3      0 
nid00270  wlm_pool   true false 16MiB  5.82TiB     2      0 
nid00329  wlm_pool   true false 16MiB  5.82TiB     2      0 
nid00330  wlm_pool   true false 16MiB  5.82TiB     3      0 
nid00333  wlm_pool   true false 16MiB  5.82TiB     2      0 
nid00334  wlm_pool   true false 16MiB  5.82TiB     2      0 
nid00397  wlm_pool   true false 16MiB  5.82TiB     2      0 
nid00398  wlm_pool   true false 16MiB  5.82TiB     1      0 
nid00401  wlm_pool   true false 16MiB  5.82TiB     5      0 
nid00402  wlm_pool   true false 16MiB  5.82TiB     2      0 
nid00457  wlm_pool   true false 16MiB  5.82TiB     4      0 
nid00458  wlm_pool   true false 16MiB  5.82TiB     2      0 
nid00469  wlm_pool   true false 16MiB  5.82TiB     5      0 
nid00470  wlm_pool   true false 16MiB  5.82TiB     4      0 
nid00525  wlm_pool   true false 16MiB  5.82TiB     3      0 
nid00526  wlm_pool   true false 16MiB  5.82TiB     3      0 
nid00529  wlm_pool   true false 16MiB  5.82TiB     1      0 
nid00530  wlm_pool   true false 16MiB  5.82TiB     4      0 
nid00585  wlm_pool   true false 16MiB  5.82TiB     5      0 
nid00586  wlm_pool   true false 16MiB  5.82TiB     3      0 
nid00589  wlm_pool   true false 16MiB  5.82TiB     3      0 
nid00590  wlm_pool   true false 16MiB  5.82TiB     1      0 
nid00649  wlm_pool   true false 16MiB  5.82TiB     2      0 
nid00650  wlm_pool   true false 16MiB  5.82TiB     2      0 
nid00653  wlm_pool   true false 16MiB  5.82TiB     3      0 
nid00654  wlm_pool   true false 16MiB  5.82TiB     2      0 
nid00713  wlm_pool   true false 16MiB  5.82TiB     4      0 
nid00714  wlm_pool   true false 16MiB  5.82TiB     3      0 
nid00717  wlm_pool   true false 16MiB  5.82TiB     5      0 
nid00718  wlm_pool   true false 16MiB  5.82TiB     3      0 
nid00781  wlm_pool   true false 16MiB  5.82TiB     4      0 
nid00782  wlm_pool   true false 16MiB  5.82TiB     4      0 
nid00785  wlm_pool   true false 16MiB  5.82TiB     4      0 
nid00786  wlm_pool   true false 16MiB  5.82TiB     2      0 
nid00841  wlm_pool   true false 16MiB  5.82TiB     2      0 
nid00842  wlm_pool   true false 16MiB  5.82TiB     4      0 
nid00853  wlm_pool   true false 16MiB  5.82TiB     3      0 
nid00854  wlm_pool   true false 16MiB  5.82TiB     3      0 
nid00909  wlm_pool   true false 16MiB  5.82TiB     1      0 
nid00910  wlm_pool   true false 16MiB  5.82TiB     2      0 
nid00913  wlm_pool   true  true 16MiB  5.82TiB     0      0 
nid00914  wlm_pool   true false 16MiB  5.82TiB     2      0 
nid00969  wlm_pool   true false 16MiB  5.82TiB     2      0 
nid00970  wlm_pool   true false 16MiB  5.82TiB     2      0 
nid00973  wlm_pool   true false 16MiB  5.82TiB     2      0 
nid00974  wlm_pool   true false 16MiB  5.82TiB     4      0 
nid01033  wlm_pool   true false 16MiB  5.82TiB     3      0 
nid01034  wlm_pool   true false 16MiB  5.82TiB     3      0 
nid01037  wlm_pool   true false 16MiB  5.82TiB     2      0 
nid01038  wlm_pool   true  true 16MiB  5.82TiB     0      0 
nid01097  wlm_pool   true  true 16MiB  5.82TiB     0      0 
nid01098  wlm_pool   true  true 16MiB  5.82TiB     0      0 
nid01101  wlm_pool   true  true 16MiB  5.82TiB     0      0 
nid01102  wlm_pool   true false 16MiB  5.82TiB     2      0 
nid01165  wlm_pool   true false 16MiB  5.82TiB     2      0 
nid01166  wlm_pool   true false 16MiB  5.82TiB     2      0 
nid01169  wlm_pool   true false 16MiB  5.82TiB     3      0 
nid01170  wlm_pool   true false 16MiB  5.82TiB     2      0 
nid01225  wlm_pool   true false 16MiB  5.82TiB     3      0 
nid01226  wlm_pool   true false 16MiB  5.82TiB     2      0 
nid01237  wlm_pool   true false 16MiB  5.82TiB     3      0 
nid01238  wlm_pool   true false 16MiB  5.82TiB     2      0 
nid01293  wlm_pool   true false 16MiB  5.82TiB     2      0 
nid01294  wlm_pool   true false 16MiB  5.82TiB     2      0 
nid01297  wlm_pool   true false 16MiB  5.82TiB     2      0 
nid01298  wlm_pool   true false 16MiB  5.82TiB     3      0 
nid01353  wlm_pool   true false 16MiB  5.82TiB     4      0 
nid01354  wlm_pool   true false 16MiB  5.82TiB     2      0 
nid01357  wlm_pool   true false 16MiB  5.82TiB     2      0 
nid01358  wlm_pool   true false 16MiB  5.82TiB     2      0 
nid01417  wlm_pool   true false 16MiB  5.82TiB     2      0 
nid01418  wlm_pool   true false 16MiB  5.82TiB     4      0 
nid01421  wlm_pool   true false 16MiB  5.82TiB     2      0 
nid01422  wlm_pool   true  true 16MiB  5.82TiB     0      0 
nid01481  wlm_pool   true false 16MiB  5.82TiB     4      0 
nid01482  wlm_pool   true false 16MiB  5.82TiB     2      0 
nid01485  wlm_pool   true false 16MiB  5.82TiB     4      0 
nid01486  wlm_pool   true false 16MiB  5.82TiB     2      0 
nid01549  wlm_pool   true false 16MiB  5.82TiB     3      0 
nid01550  wlm_pool   true false 16MiB  5.82TiB     2      0 
nid01553  wlm_pool   true false 16MiB  5.82TiB     2      0 
nid01554  wlm_pool   true false 16MiB  5.82TiB     1      0 
nid01609  wlm_pool   true false 16MiB  5.82TiB     2      0 
nid01610  wlm_pool   true false 16MiB  5.82TiB     5      0 
nid01621  wlm_pool   true false 16MiB  5.82TiB     4      0 
nid01622  wlm_pool   true false 16MiB  5.82TiB     2      0 
nid01677  wlm_pool   true false 16MiB  5.82TiB     1      0 
nid01678  wlm_pool   true false 16MiB  5.82TiB     3      0 
nid01681  wlm_pool   true false 16MiB  5.82TiB     2      0 
nid01682  wlm_pool   true false 16MiB  5.82TiB     2      0 
nid01737  wlm_pool   true false 16MiB  5.82TiB     3      0 
nid01738  wlm_pool   true false 16MiB  5.82TiB     4      0 
nid01741  wlm_pool   true false 16MiB  5.82TiB     4      0 
nid01742  wlm_pool   true false 16MiB  5.82TiB     2      0 
nid01801  wlm_pool   true false 16MiB  5.82TiB     3      0 
nid01802  wlm_pool   true false 16MiB  5.82TiB     3      0 
nid01805  wlm_pool   true false 16MiB  5.82TiB     2      0 
nid01806  wlm_pool   true false 16MiB  5.82TiB     3      0 
nid01865  wlm_pool   true  true 16MiB  5.82TiB     0      0 
nid01866  wlm_pool   true false 16MiB  5.82TiB     2      0 
nid01869  wlm_pool   true false 16MiB  5.82TiB     2      0 
nid01870  wlm_pool   true false 16MiB  5.82TiB     2      0 
nid01933  wlm_pool   true false 16MiB  5.82TiB     2      0 
nid01934  wlm_pool   true false 16MiB  5.82TiB     2      0 
nid01937  wlm_pool   true false 16MiB  5.82TiB     2      0 
nid01938  wlm_pool   true false 16MiB  5.82TiB     2      0 
nid01993  wlm_pool   true  true 16MiB  5.82TiB     0      0 
nid01994  wlm_pool   true false 16MiB  5.82TiB     3      0 
nid02005  wlm_pool   true false 16MiB  5.82TiB     2      0 
nid02006  wlm_pool   true false 16MiB  5.82TiB     3      0 
nid02061  wlm_pool   true false 16MiB  5.82TiB     2      0 
nid02062  wlm_pool   true false 16MiB  5.82TiB     4      0 
nid02065  wlm_pool   true false 16MiB  5.82TiB     2      0 
nid02066  wlm_pool   true false 16MiB  5.82TiB     5      0 
nid02121  wlm_pool   true false 16MiB  5.82TiB     2      0 
nid02122  wlm_pool   true false 16MiB  5.82TiB     1      0 
nid02125  wlm_pool   true false 16MiB  5.82TiB     5      0 
nid02126  wlm_pool   true false 16MiB  5.82TiB     2      0 
nid02185  wlm_pool   true false 16MiB  5.82TiB     2      0 
nid02186  wlm_pool   true false 16MiB  5.82TiB     4      0 
nid02189  wlm_pool   true false 16MiB  5.82TiB     4      0 
nid02190  wlm_pool   true false 16MiB  5.82TiB     2      0 
nid02249  wlm_pool   true false 16MiB  5.82TiB     3      0 
nid02250  wlm_pool   true false 16MiB  5.82TiB     2      0 
nid02253  wlm_pool   true false 16MiB  5.82TiB     2      0 
nid02254 test_pool   true false 16MiB  5.82TiB     0      0 

slurmstepd: execve(): /global/project/projectdirs/m1248/mbryson_data/burstb/profTests/aligned_coll/drop_bb_stats.sh: No such file or directory
slurmstepd: execve(): /global/project/projectdirs/m1248/mbryson_data/burstb/profTests/aligned_coll/drop_bb_stats.sh: No such file or directory
slurmstepd: execve(): /global/project/projectdirs/m1248/mbryson_data/burstb/profTests/aligned_coll/drop_bb_stats.sh: No such file or directory
slurmstepd: execve(): /global/project/projectdirs/m1248/mbryson_data/burstb/profTests/aligned_coll/drop_bb_stats.sh: No such file or directory
slurmstepd: execve(): /global/project/projectdirs/m1248/mbryson_data/burstb/profTests/aligned_coll/drop_bb_stats.sh: No such file or directory
slurmstepd: execve(): /global/project/projectdirs/m1248/mbryson_data/burstb/profTests/aligned_coll/drop_bb_stats.sh: No such file or directory
slurmstepd: execve(): /global/project/projectdirs/m1248/mbryson_data/burstb/profTests/aligned_coll/drop_bb_stats.sh: No such file or directory
slurmstepd: execve(): /global/project/projectdirs/m1248/mbryson_data/burstb/profTests/aligned_coll/drop_bb_stats.sh: No such file or directory
slurmstepd: execve(): /global/project/projectdirs/m1248/mbryson_data/burstb/profTests/aligned_coll/drop_bb_stats.sh: No such file or directory
slurmstepd: execve(): /global/project/projectdirs/m1248/mbryson_data/burstb/profTests/aligned_coll/drop_bb_stats.sh: No such file or directory
slurmstepd: execve(): /global/project/projectdirs/m1248/mbryson_data/burstb/profTests/aligned_coll/drop_bb_stats.sh: No such file or directory
slurmstepd: execve(): /global/project/projectdirs/m1248/mbryson_data/burstb/profTests/aligned_coll/drop_bb_stats.sh: No such file or directory
slurmstepd: execve(): /global/project/projectdirs/m1248/mbryson_data/burstb/profTests/aligned_coll/drop_bb_stats.sh: No such file or directory
slurmstepd: execve(): /global/project/projectdirs/m1248/mbryson_data/burstb/profTests/aligned_coll/drop_bb_stats.sh: No such file or directory
slurmstepd: execve(): /global/project/projectdirs/m1248/mbryson_data/burstb/profTests/aligned_coll/drop_bb_stats.sh: No such file or directory
slurmstepd: execve(): /global/project/projectdirs/m1248/mbryson_data/burstb/profTests/aligned_coll/drop_bb_stats.sh: No such file or directory
slurmstepd: execve(): /global/project/projectdirs/m1248/mbryson_data/burstb/profTests/aligned_coll/drop_bb_stats.sh: No such file or directory
slurmstepd: execve(): /global/project/projectdirs/m1248/mbryson_data/burstb/profTests/aligned_coll/drop_bb_stats.sh: No such file or directory
slurmstepd: execve(): /global/project/projectdirs/m1248/mbryson_data/burstb/profTests/aligned_coll/drop_bb_stats.sh: No such file or directory
slurmstepd: execve(): /global/project/projectdirs/m1248/mbryson_data/burstb/profTests/aligned_coll/drop_bb_stats.sh: No such file or directory
slurmstepd: execve(): /global/project/projectdirs/m1248/mbryson_data/burstb/profTests/aligned_coll/drop_bb_stats.sh: No such file or directory
slurmstepd: execve(): /global/project/projectdirs/m1248/mbryson_data/burstb/profTests/aligned_coll/drop_bb_stats.sh: No such file or directory
slurmstepd: execve(): /global/project/projectdirs/m1248/mbryson_data/burstb/profTests/aligned_coll/drop_bb_stats.sh: No such file or directory
slurmstepd: execve(): /global/project/projectdirs/m1248/mbryson_data/burstb/profTests/aligned_coll/drop_bb_stats.sh: No such file or directory
slurmstepd: execve(): /global/project/projectdirs/m1248/mbryson_data/burstb/profTests/aligned_coll/drop_bb_stats.sh: No such file or directory
slurmstepd: execve(): /global/project/projectdirs/m1248/mbryson_data/burstb/profTests/aligned_coll/drop_bb_stats.sh: No such file or directory
slurmstepd: execve(): /global/project/projectdirs/m1248/mbryson_data/burstb/profTests/aligned_coll/drop_bb_stats.sh: No such file or directory
slurmstepd: execve(): /global/project/projectdirs/m1248/mbryson_data/burstb/profTests/aligned_coll/drop_bb_stats.sh: No such file or directory
slurmstepd: execve(): /global/project/projectdirs/m1248/mbryson_data/burstb/profTests/aligned_coll/drop_bb_stats.sh: No such file or directory
slurmstepd: execve(): /global/project/projectdirs/m1248/mbryson_data/burstb/profTests/aligned_coll/drop_bb_stats.sh: No such file or directory
slurmstepd: execve(): /global/project/projectdirs/m1248/mbryson_data/burstb/profTests/aligned_coll/drop_bb_stats.sh: No such file or directory
slurmstepd: execve(): /global/project/projectdirs/m1248/mbryson_data/burstb/profTests/aligned_coll/drop_bb_stats.sh: No such file or directory
srun: error: nid00092: task 5: Exited with exit code 2
srun: Terminating job step 1745776.0
srun: error: nid00166: task 30: Exited with exit code 2
srun: Job step aborted: Waiting up to 32 seconds for job step to finish.
srun: error: nid00154: task 18: Exited with exit code 2
srun: error: nid00167: task 31: Exited with exit code 2
srun: error: nid00125: task 15: Exited with exit code 2
srun: error: nid00153: task 17: Exited with exit code 2
srun: error: nid00120: task 10: Exited with exit code 2
srun: error: nid00088: task 1: Exited with exit code 2
srun: error: nid00165: task 29: Exited with exit code 2
srun: error: nid00160: task 24: Exited with exit code 2
srun: error: nid00121: task 11: Exited with exit code 2
srun: error: nid00152: task 16: Exited with exit code 2
srun: error: nid00118: task 8: Exited with exit code 2
srun: error: nid00119: task 9: Exited with exit code 2
srun: error: nid00122: task 12: Exited with exit code 2
srun: error: nid00157: task 21: Exited with exit code 2
srun: error: nid00116: task 6: Exited with exit code 2
srun: error: nid00117: task 7: Exited with exit code 2
srun: error: nid00163: task 27: Exited with exit code 2
srun: error: nid00124: task 14: Exited with exit code 2
srun: error: nid00089: task 2: Exited with exit code 2
srun: error: nid00162: task 26: Exited with exit code 2
srun: error: nid00123: task 13: Exited with exit code 2
srun: error: nid00090: task 3: Exited with exit code 2
srun: error: nid00155: task 19: Exited with exit code 2
srun: error: nid00156: task 20: Exited with exit code 2
srun: error: nid00159: task 23: Exited with exit code 2
srun: error: nid00164: task 28: Exited with exit code 2
srun: error: nid00158: task 22: Exited with exit code 2
srun: error: nid00083: task 0: Exited with exit code 2
srun: error: nid00161: task 25: Exited with exit code 2
srun: error: nid00091: task 4: Exited with exit code 2
slurmstepd: execve(): /global/homes/m/mbryson/mbryson_data/burstb/aligned_vpicio_hdf5: Permission denied
slurmstepd: execve(): /global/homes/m/mbryson/mbryson_data/burstb/aligned_vpicio_hdf5: Permission denied
slurmstepd: execve(): /global/homes/m/mbryson/mbryson_data/burstb/aligned_vpicio_hdf5: Permission denied
slurmstepd: execve(): /global/homes/m/mbryson/mbryson_data/burstb/aligned_vpicio_hdf5: Permission denied
srun: error: nid00083: tasks 8,16: Exited with exit code 13
srun: Terminating job step 1745776.1
slurmstepd: execve(): /global/homes/m/mbryson/mbryson_data/burstb/aligned_vpicio_hdf5: Permission denied
slurmstepd: *** STEP 1745776.1 ON nid00083 CANCELLED AT 2016-04-05T11:39:01 ***
srun: Job step aborted: Waiting up to 32 seconds for job step to finish.
srun: error: nid00166: tasks 960-991: Killed
srun: error: nid00118: tasks 256-287: Killed
srun: error: nid00121: tasks 352-383: Killed
srun: error: nid00123: tasks 416-447: Killed
srun: error: nid00119: tasks 288-319: Killed
srun: error: nid00156: tasks 640-671: Killed
srun: error: nid00164: tasks 896-927: Killed
srun: error: nid00125: tasks 480-511: Killed
srun: error: nid00153: tasks 544-575: Killed
srun: error: nid00160: tasks 768-790,792-799: Killed
srun: error: nid00160: task 791: Exited with exit code 13
srun: error: nid00088: tasks 32-63: Killed
srun: error: nid00163: tasks 864-895: Killed
srun: error: nid00159: tasks 736-767: Killed
srun: error: nid00157: tasks 672-703: Killed
srun: error: nid00117: tasks 224-255: Killed
srun: error: nid00089: tasks 64-95: Killed
srun: error: nid00165: tasks 928-959: Killed
srun: error: nid00161: tasks 800-831: Killed
srun: error: nid00120: tasks 320-351: Killed
srun: error: nid00162: tasks 832-863: Killed
srun: error: nid00116: tasks 192-223: Killed
srun: error: nid00092: tasks 160-180,182-191: Killed
srun: error: nid00092: task 181: Exited with exit code 13
srun: error: nid00158: tasks 704-735: Killed
srun: error: nid00154: tasks 576-607: Killed
srun: error: nid00083: tasks 0-7,9-15,17-31: Killed
srun: error: nid00167: tasks 992-1023: Killed
srun: error: nid00124: tasks 448-453,455-479: Killed
srun: error: nid00124: task 454: Exited with exit code 13
srun: error: nid00090: tasks 96-127: Killed
srun: error: nid00155: tasks 608-639: Killed
srun: error: nid00122: tasks 384-415: Killed
srun: error: nid00091: tasks 128-159: Killed
srun: error: nid00152: tasks 512-543: Killed
/var/spool/slurmd/job1745776/slurm_script: line 21: /vpicio_uni: No such file or directory
slurmstepd: execve(): /global/project/projectdirs/m1248/mbryson_data/burstb/profTests/aligned_coll/drop_bb_stats.sh: No such file or directory
slurmstepd: execve(): /global/project/projectdirs/m1248/mbryson_data/burstb/profTests/aligned_coll/drop_bb_stats.sh: No such file or directory
slurmstepd: execve(): /global/project/projectdirs/m1248/mbryson_data/burstb/profTests/aligned_coll/drop_bb_stats.sh: No such file or directory
slurmstepd: execve(): /global/project/projectdirs/m1248/mbryson_data/burstb/profTests/aligned_coll/drop_bb_stats.sh: No such file or directory
slurmstepd: execve(): /global/project/projectdirs/m1248/mbryson_data/burstb/profTests/aligned_coll/drop_bb_stats.sh: No such file or directory
slurmstepd: execve(): /global/project/projectdirs/m1248/mbryson_data/burstb/profTests/aligned_coll/drop_bb_stats.sh: No such file or directory
slurmstepd: execve(): /global/project/projectdirs/m1248/mbryson_data/burstb/profTests/aligned_coll/drop_bb_stats.sh: No such file or directory
slurmstepd: execve(): /global/project/projectdirs/m1248/mbryson_data/burstb/profTests/aligned_coll/drop_bb_stats.sh: No such file or directory
slurmstepd: execve(): /global/project/projectdirs/m1248/mbryson_data/burstb/profTests/aligned_coll/drop_bb_stats.sh: No such file or directory
slurmstepd: execve(): /global/project/projectdirs/m1248/mbryson_data/burstb/profTests/aligned_coll/drop_bb_stats.sh: No such file or directory
slurmstepd: execve(): /global/project/projectdirs/m1248/mbryson_data/burstb/profTests/aligned_coll/drop_bb_stats.sh: No such file or directory
slurmstepd: execve(): /global/project/projectdirs/m1248/mbryson_data/burstb/profTests/aligned_coll/drop_bb_stats.sh: No such file or directory
slurmstepd: execve(): /global/project/projectdirs/m1248/mbryson_data/burstb/profTests/aligned_coll/drop_bb_stats.sh: No such file or directory
slurmstepd: execve(): /global/project/projectdirs/m1248/mbryson_data/burstb/profTests/aligned_coll/drop_bb_stats.sh: No such file or directory
slurmstepd: execve(): /global/project/projectdirs/m1248/mbryson_data/burstb/profTests/aligned_coll/drop_bb_stats.sh: No such file or directory
slurmstepd: execve(): /global/project/projectdirs/m1248/mbryson_data/burstb/profTests/aligned_coll/drop_bb_stats.sh: No such file or directory
slurmstepd: execve(): /global/project/projectdirs/m1248/mbryson_data/burstb/profTests/aligned_coll/drop_bb_stats.sh: No such file or directory
slurmstepd: execve(): /global/project/projectdirs/m1248/mbryson_data/burstb/profTests/aligned_coll/drop_bb_stats.sh: No such file or directory
slurmstepd: execve(): /global/project/projectdirs/m1248/mbryson_data/burstb/profTests/aligned_coll/drop_bb_stats.sh: No such file or directory
slurmstepd: execve(): /global/project/projectdirs/m1248/mbryson_data/burstb/profTests/aligned_coll/drop_bb_stats.sh: No such file or directory
slurmstepd: execve(): /global/project/projectdirs/m1248/mbryson_data/burstb/profTests/aligned_coll/drop_bb_stats.sh: No such file or directory
slurmstepd: execve(): /global/project/projectdirs/m1248/mbryson_data/burstb/profTests/aligned_coll/drop_bb_stats.sh: No such file or directory
slurmstepd: execve(): /global/project/projectdirs/m1248/mbryson_data/burstb/profTests/aligned_coll/drop_bb_stats.sh: No such file or directory
slurmstepd: execve(): /global/project/projectdirs/m1248/mbryson_data/burstb/profTests/aligned_coll/drop_bb_stats.sh: No such file or directory
slurmstepd: execve(): /global/project/projectdirs/m1248/mbryson_data/burstb/profTests/aligned_coll/drop_bb_stats.sh: No such file or directory
slurmstepd: execve(): /global/project/projectdirs/m1248/mbryson_data/burstb/profTests/aligned_coll/drop_bb_stats.sh: No such file or directory
slurmstepd: execve(): /global/project/projectdirs/m1248/mbryson_data/burstb/profTests/aligned_coll/drop_bb_stats.sh: No such file or directory
slurmstepd: execve(): /global/project/projectdirs/m1248/mbryson_data/burstb/profTests/aligned_coll/drop_bb_stats.sh: No such file or directory
slurmstepd: execve(): /global/project/projectdirs/m1248/mbryson_data/burstb/profTests/aligned_coll/drop_bb_stats.sh: No such file or directory
slurmstepd: execve(): /global/project/projectdirs/m1248/mbryson_data/burstb/profTests/aligned_coll/drop_bb_stats.sh: No such file or directory
slurmstepd: execve(): /global/project/projectdirs/m1248/mbryson_data/burstb/profTests/aligned_coll/drop_bb_stats.sh: No such file or directory
slurmstepd: execve(): /global/project/projectdirs/m1248/mbryson_data/burstb/profTests/aligned_coll/drop_bb_stats.sh: No such file or directory
srun: error: nid00083: task 0: Exited with exit code 2
srun: Terminating job step 1745776.2
srun: Job step aborted: Waiting up to 32 seconds for job step to finish.
srun: error: nid00118: task 8: Exited with exit code 2
srun: error: nid00124: task 14: Exited with exit code 2
srun: error: nid00167: task 31: Exited with exit code 2
srun: error: nid00120: task 10: Exited with exit code 2
srun: error: nid00157: task 21: Exited with exit code 2
srun: error: nid00117: task 7: Exited with exit code 2
srun: error: nid00160: task 24: Exited with exit code 2
srun: error: nid00159: task 23: Exited with exit code 2
srun: error: nid00166: task 30: Exited with exit code 2
srun: error: nid00161: task 25: Exited with exit code 2
srun: error: nid00154: task 18: Exited with exit code 2
srun: error: nid00155: task 19: Exited with exit code 2
srun: error: nid00163: task 27: Exited with exit code 2
srun: error: nid00089: task 2: Exited with exit code 2
srun: error: nid00116: task 6: Exited with exit code 2
srun: error: nid00122: task 12: Exited with exit code 2
srun: error: nid00119: task 9: Exited with exit code 2
srun: error: nid00158: task 22: Exited with exit code 2
srun: error: nid00156: task 20: Exited with exit code 2
srun: error: nid00165: task 29: Exited with exit code 2
srun: error: nid00092: task 5: Exited with exit code 2
srun: error: nid00152: task 16: Exited with exit code 2
srun: error: nid00121: task 11: Exited with exit code 2
srun: error: nid00125: task 15: Exited with exit code 2
srun: error: nid00088: task 1: Exited with exit code 2
srun: error: nid00164: task 28: Exited with exit code 2
srun: error: nid00162: task 26: Exited with exit code 2
srun: error: nid00153: task 17: Exited with exit code 2
srun: error: nid00090: task 3: Exited with exit code 2
srun: error: nid00123: task 13: Exited with exit code 2
srun: error: nid00091: task 4: Exited with exit code 2
python: can't open file 'diff_concatenated_dvs_stats.py': [Errno 2] No such file or directory
ls: cannot access /var/opt/cray/dws/mounts/batch/1745776/ss//output_1K/sample.h5part: No such file or directory
ls: cannot access /var/opt/cray/dws/mounts/batch/1745776/ss//output_1K/sample.h5part: No such file or directory
Tue Apr  5 11:39:10 2016: [unset]:_pmi_alps_get_apid:alps response not OKAY
Tue Apr  5 11:39:10 2016: [unset]:_pmi_init:_pmi_alps_init returned -1
h5dump error: unable to open file "/var/opt/cray/dws/mounts/batch/1745776/ss//output_1K/sample.h5part"
