MPIIO WARNING: DVS stripe width of 2 was requested but DVS set it to 1
See MPICH_MPIIO_DVS_MAXNODES in the intro_mpi man page.
Failed to write attribQueue is empty - req
Failed to write attribQueue is empty - req
Failed to write attribQueue is empty - req
Failed to write attribQueue is empty - req
Failed to write attribQueue is empty - req
Failed to write attribQueue is empty - req
Failed to write attribQueue is empty - req
Failed to write attribQueue is empty - req
Failed to write attribQueue is empty - req
Failed to write attribQueue is empty - req
Failed to write attribQueue is empty - req
Failed to write attribQueue is empty - req
Failed to write attribQueue is empty - req
Failed to write attribQueue is empty - req
Failed to write attribQueue is empty - req
Failed to write attribQueue is empty - req
Failed to write attribQueue is empty - req
Failed to write attribQueue is empty - req
Failed to write attribQueue is empty - req
Failed to write attribQueue is empty - req
Failed to write attribQueue is empty - req
Failed to write attribQueue is empty - req
Failed to write attribQueue is empty - req
Failed to write attribQueue is empty - req
Number of particles: 8388608 
Finished initializing particles 
Opened BBPart file... 
Before writing particles 
Failed to write attribStep is set 
Num particles is set 
Written variable 1 
Written variable 2 
Written variable 3 
Written variable 4 
Written variable 5 
Written variable 6 
Written variable 7 
Written variable 8 
After writing particles 
After closing particles 
Queue is empty - req

Timing results
17.496937 seconds elapsed in just writing data
139.414810 seconds elapsed in opening, writing, closing file
39.423801 seconds elapsed in writing data to final location

Failed to write attribQueue is empty - req
Failed to write attribQueue is empty - req
Failed to write attribQueue is empty - req
Failed to write attribQueue is empty - req
Failed to write attribQueue is empty - req
Failed to write attribQueue is empty - req
Failed to write attribQueue is empty - req
Failed to write attribQueue is empty - req
Failed to write attribQueue is empty - req
Failed to write attribQueue is empty - req
Failed to write attribQueue is empty - req
Failed to write attribQueue is empty - req
Failed to write attribQueue is empty - req
Failed to write attribQueue is empty - req
Failed to write attribQueue is empty - req
Failed to write attribQueue is empty - req
Failed to write attribQueue is empty - req
Failed to write attribQueue is empty - req
Failed to write attribQueue is empty - req
Failed to write attribQueue is empty - req
Failed to write attribQueue is empty - req
Failed to write attribQueue is empty - req
Failed to write attribQueue is empty - req
