     pool units quantity      free      gran 
test_pool bytes  5.82TiB   5.82TiB     16MiB 
 wlm_pool bytes 832.5TiB 647.45TiB 212.91GiB 

sess state   token creator owner             created expiration nodes 
5764 CA--- 1949228   SLURM 69107 2016-04-19T23:45:26      never     0 
5765 CA--- 1949230   SLURM 69107 2016-04-19T23:46:27      never    32 

inst state sess     bytes nodes             created expiration intact        label public confs 
2232 CA--- 2515 425.81GiB     2 2016-02-19T12:09:21      never   true     XuanCami   true     1 
2234 CA--- 2520 212.91GiB     1 2016-02-19T13:45:33      never   true     myBBname   true     1 
2550 CA--- 3041   1.04TiB     5 2016-03-02T15:01:02      never   true gatkbrachy_2   true     1 
3648 C---- 4142  10.19TiB    49 2016-03-26T14:33:53      never   true     wahAtlas   true     1 
3826 C---- 4334  40.13TiB   135 2016-03-30T15:06:41      never   true   regan_40TB   true     1 
3861 C---- 4384  10.19TiB    49 2016-03-31T05:26:15      never   true   regan_10TB   true     1 
4905 CA--- 5456 212.91GiB     1 2016-04-11T11:42:33      never   true       bbdave   true     1 
5071 CA--- 5626   1.04TiB     5 2016-04-16T19:27:27      never   true       campbb   true     1 
5149 CA--- 5748 212.91GiB     1 2016-04-19T14:52:48      never   true     dpaulbb3   true     1 
5150 CA--- 5749 212.91GiB     1 2016-04-19T15:05:03      never   true     dpaulbb4   true     1 
5162 CA--- 5764  13.31TiB    64 2016-04-19T23:45:26      never   true      I5764-0  false     1 
5163 CA--- 5765  13.31TiB    64 2016-04-19T23:46:27      never   true      I5765-0  false     1 

conf state inst    type access_type activs 
2503 CA--- 2232 scratch      stripe      0 
2505 CA--- 2234 scratch      stripe      0 
2821 CA--- 2550 scratch      stripe      0 
3923 CA--- 3648 scratch      stripe      0 
4104 CA--- 3826 scratch      stripe      0 
4139 CA--- 3861 scratch      stripe      0 
5182 CA--- 4905 scratch      stripe      0 
5348 CA--- 5071 scratch      stripe      0 
5426 CA--- 5149 scratch      stripe      0 
5427 CA--- 5150 scratch      stripe      0 
5439 CA--- 5162 scratch      stripe      0 
5440 CA--- 5163 scratch      stripe      1 

 reg state sess conf wait 
5547 CA--- 5765 5440 true 

activ state sess conf nodes                                     mount 
 5343 CA--- 5765 5440    32 /var/opt/cray/dws/mounts/batch/1949230/ss 

  frag state inst  capacity gran     node 
 61379  CA-- 2232 212.91GiB 4MiB nid02006 
 61380  CA-- 2232 212.91GiB 4MiB nid01034 
 61382  CA-- 2234 212.91GiB 4MiB nid00457 
 73696  CA-- 2550 212.91GiB 4MiB nid02249 
 73697  CA-- 2550 212.91GiB 4MiB nid00205 
 73698  CA-- 2550 212.91GiB 4MiB nid01801 
 73699  CA-- 2550 212.91GiB 4MiB nid00014 
 73700  CA-- 2550 212.91GiB 4MiB nid01169 
129824  CA-- 3648 212.91GiB 4MiB nid02062 
129825  CA-- 3648 212.91GiB 4MiB nid01418 
129826  CA-- 3648 212.91GiB 4MiB nid00785 
129827  CA-- 3648 212.91GiB 4MiB nid00782 
129828  CA-- 3648 212.91GiB 4MiB nid00142 
129829  CA-- 3648 212.91GiB 4MiB nid02189 
129830  CA-- 3648 212.91GiB 4MiB nid00781 
129831  CA-- 3648 212.91GiB 4MiB nid00146 
129832  CA-- 3648 212.91GiB 4MiB nid01481 
129833  CA-- 3648 212.91GiB 4MiB nid01737 
129834  CA-- 3648 212.91GiB 4MiB nid00854 
129835  CA-- 3648 212.91GiB 4MiB nid00653 
129836  CA-- 3648 212.91GiB 4MiB nid01225 
129837  CA-- 3648 212.91GiB 4MiB nid00269 
129838  CA-- 3648 212.91GiB 4MiB nid01237 
129839  CA-- 3648 212.91GiB 4MiB nid01678 
129840  CA-- 3648 212.91GiB 4MiB nid01802 
129841  C--- 3648 212.91GiB 4MiB nid01033 
129842  CA-- 3648 212.91GiB 4MiB nid00853 
129843  CA-- 3648 212.91GiB 4MiB nid00586 
129844  CA-- 3648 212.91GiB 4MiB nid01806 
129845  CA-- 3648 212.91GiB 4MiB nid00526 
129846  CA-- 3648 212.91GiB 4MiB nid01298 
129847  CA-- 3648 212.91GiB 4MiB nid00718 
129848  CA-- 3648 212.91GiB 4MiB nid01485 
129849  CA-- 3648 212.91GiB 4MiB nid00713 
129850  CA-- 3648 212.91GiB 4MiB nid02186 
129851  CA-- 3648 212.91GiB 4MiB nid00141 
129852  CA-- 3648 212.91GiB 4MiB nid00530 
129853  CA-- 3648 212.91GiB 4MiB nid01741 
129854  CA-- 3648 212.91GiB 4MiB nid00073 
129855  CA-- 3648 212.91GiB 4MiB nid00974 
129856  CA-- 3648 212.91GiB 4MiB nid00086 
129857  CA-- 3648 212.91GiB 4MiB nid01738 
129858  CA-- 3648 212.91GiB 4MiB nid01353 
129859  CA-- 3648 212.91GiB 4MiB nid00401 
129860  CA-- 3648 212.91GiB 4MiB nid02066 
129861  CA-- 3648 212.91GiB 4MiB nid00469 
129862  CA-- 3648 212.91GiB 4MiB nid00585 
129863  CA-- 3648 212.91GiB 4MiB nid00265 
129864  CA-- 3648 212.91GiB 4MiB nid01610 
129865  CA-- 3648 212.91GiB 4MiB nid02125 
129866  CA-- 3648 212.91GiB 4MiB nid00201 
129867  CA-- 3648 212.91GiB 4MiB nid00145 
129868  CA-- 3648 212.91GiB 4MiB nid00717 
129869  CA-- 3648 212.91GiB 4MiB nid00470 
129870  CA-- 3648 212.91GiB 4MiB nid00842 
129871  CA-- 3648 212.91GiB 4MiB nid01621 
129872  CA-- 3648 212.91GiB 4MiB nid01549 
138143  CA-- 3826 425.81GiB 4MiB nid01937 
138144  CA-- 3826 425.81GiB 4MiB nid00206 
138145  CA-- 3826 425.81GiB 4MiB nid02005 
138146  CA-- 3826 425.81GiB 4MiB nid00458 
138147  CA-- 3826 425.81GiB 4MiB nid01037 
138148  CA-- 3826 425.81GiB 4MiB nid01294 
138149  CA-- 3826 425.81GiB 4MiB nid00329 
138150  CA-- 3826 425.81GiB 4MiB nid02250 
138151  CA-- 3826 425.81GiB 4MiB nid01486 
138152  CA-- 3826 425.81GiB 4MiB nid00402 
138153  CA-- 3826 425.81GiB 4MiB nid00969 
138154  CA-- 3826 425.81GiB 4MiB nid01358 
138155  CA-- 3826 425.81GiB 4MiB nid01681 
138156  CA-- 3826 425.81GiB 4MiB nid02190 
138157  CA-- 3826 425.81GiB 4MiB nid01805 
138158  CA-- 3826 425.81GiB 4MiB nid00085 
138159  CA-- 3826 425.81GiB 4MiB nid01170 
138160  CA-- 3826 425.81GiB 4MiB nid00013 
138161  CA-- 3826 425.81GiB 4MiB nid02065 
138162  CA-- 3826 425.81GiB 4MiB nid01869 
138163  CA-- 3826 425.81GiB 4MiB nid00397 
138164  CA-- 3826 425.81GiB 4MiB nid01421 
138165  CA-- 3826 425.81GiB 4MiB nid01102 
138166  CA-- 3826 425.81GiB 4MiB nid01870 
138167  CA-- 3826 425.81GiB 4MiB nid00270 
138168  CA-- 3826 425.81GiB 4MiB nid01166 
138169  CA-- 3826 425.81GiB 4MiB nid01550 
138170  CA-- 3826 425.81GiB 4MiB nid01553 
138171  CA-- 3826 425.81GiB 4MiB nid00910 
138172  CA-- 3826 425.81GiB 4MiB nid02061 
138173  CA-- 3826 425.81GiB 4MiB nid02185 
138174  CA-- 3826 425.81GiB 4MiB nid01933 
138175  CA-- 3826 425.81GiB 4MiB nid02121 
138176  CA-- 3826 425.81GiB 4MiB nid00970 
138177  CA-- 3826 425.81GiB 4MiB nid00914 
138178  CA-- 3826 425.81GiB 4MiB nid00017 
138179  CA-- 3826 425.81GiB 4MiB nid01165 
138180  CA-- 3826 425.81GiB 4MiB nid01622 
138181  CA-- 3826 425.81GiB 4MiB nid00786 
138182  CA-- 3826 425.81GiB 4MiB nid00074 
138183  CA-- 3826 425.81GiB 4MiB nid01866 
138184  CA-- 3826 425.81GiB 4MiB nid00525 
138185  CA-- 3826 425.81GiB 4MiB nid00714 
138186  CA-- 3826 425.81GiB 4MiB nid00330 
138187  CA-- 3826 425.81GiB 4MiB nid00334 
138188  CA-- 3826 425.81GiB 4MiB nid01742 
138189  CA-- 3826 425.81GiB 4MiB nid00649 
138190  CA-- 3826 425.81GiB 4MiB nid01238 
138191  CA-- 3826 425.81GiB 4MiB nid01297 
138192  CA-- 3826 425.81GiB 4MiB nid01293 
138193  CA-- 3826 425.81GiB 4MiB nid01677 
138194  CA-- 3826 425.81GiB 4MiB nid02122 
138195  CA-- 3826 425.81GiB 4MiB nid01554 
138196  CA-- 3826 425.81GiB 4MiB nid00909 
138197  CA-- 3826 425.81GiB 4MiB nid00529 
138198  CA-- 3826 425.81GiB 4MiB nid00590 
138199  CA-- 3826 425.81GiB 4MiB nid00398 
138200  CA-- 3826 425.81GiB 4MiB nid00654 
138201  CA-- 3826 212.91GiB 4MiB nid01226 
138202  CA-- 3826 212.91GiB 4MiB nid00018 
138203  CA-- 3826 212.91GiB 4MiB nid02126 
138204  CA-- 3826 212.91GiB 4MiB nid01482 
138205  CA-- 3826 212.91GiB 4MiB nid01934 
138206  CA-- 3826 212.91GiB 4MiB nid01682 
138207  CA-- 3826 212.91GiB 4MiB nid01357 
138208  CA-- 3826 212.91GiB 4MiB nid01417 
138209  CA-- 3826 212.91GiB 4MiB nid01354 
138210  CA-- 3826 212.91GiB 4MiB nid01938 
138211  CA-- 3826 212.91GiB 4MiB nid00266 
138212  CA-- 3826 212.91GiB 4MiB nid00333 
138213  CA-- 3826 212.91GiB 4MiB nid00841 
138214  CA-- 3826 212.91GiB 4MiB nid01609 
138215  CA-- 3826 212.91GiB 4MiB nid00589 
138216  CA-- 3826 212.91GiB 4MiB nid02062 
138217  CA-- 3826 212.91GiB 4MiB nid01418 
138218  CA-- 3826 212.91GiB 4MiB nid01994 
138219  CA-- 3826 212.91GiB 4MiB nid00785 
138220  CA-- 3826 212.91GiB 4MiB nid00782 
138221  CA-- 3826 212.91GiB 4MiB nid00142 
138222  CA-- 3826 212.91GiB 4MiB nid02189 
138223  CA-- 3826 212.91GiB 4MiB nid00781 
138224  CA-- 3826 212.91GiB 4MiB nid00457 
138225  CA-- 3826 212.91GiB 4MiB nid00146 
138226  CA-- 3826 212.91GiB 4MiB nid01481 
138227  CA-- 3826 212.91GiB 4MiB nid01737 
138228  CA-- 3826 212.91GiB 4MiB nid00854 
138229  CA-- 3826 212.91GiB 4MiB nid00653 
138230  CA-- 3826 212.91GiB 4MiB nid02253 
138231  CA-- 3826 212.91GiB 4MiB nid01225 
138232  CA-- 3826 212.91GiB 4MiB nid00269 
138233  CA-- 3826 212.91GiB 4MiB nid01237 
138234  CA-- 3826 212.91GiB 4MiB nid01678 
138235  CA-- 3826 212.91GiB 4MiB nid01802 
138236  C--- 3826 212.91GiB 4MiB nid01033 
138237  CA-- 3826 212.91GiB 4MiB nid00853 
138238  CA-- 3826 212.91GiB 4MiB nid00586 
138239  CA-- 3826 212.91GiB 4MiB nid01806 
138240  CA-- 3826 212.91GiB 4MiB nid00526 
138241  CA-- 3826 212.91GiB 4MiB nid01298 
138242  CA-- 3826 212.91GiB 4MiB nid00718 
138243  CA-- 3826 212.91GiB 4MiB nid01485 
138244  CA-- 3826 212.91GiB 4MiB nid00713 
138245  CA-- 3826 212.91GiB 4MiB nid02186 
138246  CA-- 3826 212.91GiB 4MiB nid00141 
138247  CA-- 3826 212.91GiB 4MiB nid00530 
138248  CA-- 3826 212.91GiB 4MiB nid01741 
138249  CA-- 3826 212.91GiB 4MiB nid00073 
138250  CA-- 3826 212.91GiB 4MiB nid00974 
138251  CA-- 3826 212.91GiB 4MiB nid00086 
138252  CA-- 3826 212.91GiB 4MiB nid01738 
138253  CA-- 3826 212.91GiB 4MiB nid01353 
138254  CA-- 3826 212.91GiB 4MiB nid00401 
138255  CA-- 3826 212.91GiB 4MiB nid02066 
138256  CA-- 3826 212.91GiB 4MiB nid00469 
138257  CA-- 3826 212.91GiB 4MiB nid00585 
138258  CA-- 3826 212.91GiB 4MiB nid00265 
138259  CA-- 3826 212.91GiB 4MiB nid01610 
138260  CA-- 3826 212.91GiB 4MiB nid02125 
138261  CA-- 3826 212.91GiB 4MiB nid00201 
138262  CA-- 3826 212.91GiB 4MiB nid00145 
138263  CA-- 3826 212.91GiB 4MiB nid00717 
138264  CA-- 3826 212.91GiB 4MiB nid00470 
138265  CA-- 3826 212.91GiB 4MiB nid00842 
138266  CA-- 3826 212.91GiB 4MiB nid01621 
138267  CA-- 3826 212.91GiB 4MiB nid01549 
138268  CA-- 3826 212.91GiB 4MiB nid00202 
138269  CA-- 3826 212.91GiB 4MiB nid00973 
138270  CA-- 3826 212.91GiB 4MiB nid00650 
138271  CA-- 3826 212.91GiB 4MiB nid02249 
138272  CA-- 3826 212.91GiB 4MiB nid00205 
138273  CA-- 3826 212.91GiB 4MiB nid01801 
138274  CA-- 3826 212.91GiB 4MiB nid00014 
138275  CA-- 3826 212.91GiB 4MiB nid01169 
138276  CA-- 3826 212.91GiB 4MiB nid02006 
138277  CA-- 3826 212.91GiB 4MiB nid01034 
139195  CA-- 3861 212.91GiB 4MiB nid00589 
139196  CA-- 3861 212.91GiB 4MiB nid02062 
139197  CA-- 3861 212.91GiB 4MiB nid01418 
139198  CA-- 3861 212.91GiB 4MiB nid01994 
139199  CA-- 3861 212.91GiB 4MiB nid00785 
139200  CA-- 3861 212.91GiB 4MiB nid00782 
139201  CA-- 3861 212.91GiB 4MiB nid00142 
139202  CA-- 3861 212.91GiB 4MiB nid02189 
139203  CA-- 3861 212.91GiB 4MiB nid00781 
139204  CA-- 3861 212.91GiB 4MiB nid00457 
139205  CA-- 3861 212.91GiB 4MiB nid00146 
139206  CA-- 3861 212.91GiB 4MiB nid01481 
139207  CA-- 3861 212.91GiB 4MiB nid01737 
139208  CA-- 3861 212.91GiB 4MiB nid00854 
139209  CA-- 3861 212.91GiB 4MiB nid00653 
139210  CA-- 3861 212.91GiB 4MiB nid02253 
139211  CA-- 3861 212.91GiB 4MiB nid01225 
139212  CA-- 3861 212.91GiB 4MiB nid00269 
139213  CA-- 3861 212.91GiB 4MiB nid01237 
139214  CA-- 3861 212.91GiB 4MiB nid01678 
139215  CA-- 3861 212.91GiB 4MiB nid01802 
139216  C--- 3861 212.91GiB 4MiB nid01033 
139217  CA-- 3861 212.91GiB 4MiB nid00853 
139218  CA-- 3861 212.91GiB 4MiB nid00586 
139219  CA-- 3861 212.91GiB 4MiB nid01806 
139220  CA-- 3861 212.91GiB 4MiB nid00526 
139221  CA-- 3861 212.91GiB 4MiB nid01298 
139222  CA-- 3861 212.91GiB 4MiB nid00718 
139223  CA-- 3861 212.91GiB 4MiB nid01485 
139224  CA-- 3861 212.91GiB 4MiB nid00713 
139225  CA-- 3861 212.91GiB 4MiB nid02186 
139226  CA-- 3861 212.91GiB 4MiB nid00141 
139227  CA-- 3861 212.91GiB 4MiB nid00530 
139228  CA-- 3861 212.91GiB 4MiB nid01741 
139229  CA-- 3861 212.91GiB 4MiB nid00073 
139230  CA-- 3861 212.91GiB 4MiB nid00974 
139231  CA-- 3861 212.91GiB 4MiB nid00086 
139232  CA-- 3861 212.91GiB 4MiB nid01738 
139233  CA-- 3861 212.91GiB 4MiB nid01353 
139234  CA-- 3861 212.91GiB 4MiB nid00401 
139235  CA-- 3861 212.91GiB 4MiB nid02066 
139236  CA-- 3861 212.91GiB 4MiB nid00469 
139237  CA-- 3861 212.91GiB 4MiB nid00585 
139238  CA-- 3861 212.91GiB 4MiB nid00265 
139239  CA-- 3861 212.91GiB 4MiB nid01610 
139240  CA-- 3861 212.91GiB 4MiB nid02125 
139241  CA-- 3861 212.91GiB 4MiB nid00201 
139242  CA-- 3861 212.91GiB 4MiB nid00145 
139243  CA-- 3861 212.91GiB 4MiB nid00717 
154993  CA-- 4905 212.91GiB 4MiB nid01357 
158558  CA-- 5071 212.91GiB 4MiB nid02186 
158559  CA-- 5071 212.91GiB 4MiB nid00141 
158560  CA-- 5071 212.91GiB 4MiB nid00530 
158561  CA-- 5071 212.91GiB 4MiB nid01741 
158562  CA-- 5071 212.91GiB 4MiB nid00073 
159215  CA-- 5149 212.91GiB 4MiB nid01169 
159216  CA-- 5150 212.91GiB 4MiB nid01294 
159405  CA-- 5162 212.91GiB 4MiB nid00973 
159406  CA-- 5162 212.91GiB 4MiB nid00650 
159407  CA-- 5162 212.91GiB 4MiB nid01742 
159408  CA-- 5162 212.91GiB 4MiB nid00649 
159409  CA-- 5162 212.91GiB 4MiB nid01238 
159410  CA-- 5162 212.91GiB 4MiB nid01297 
159411  CA-- 5162 212.91GiB 4MiB nid01293 
159412  CA-- 5162 212.91GiB 4MiB nid01677 
159413  CA-- 5162 212.91GiB 4MiB nid02122 
159414  CA-- 5162 212.91GiB 4MiB nid01554 
159415  CA-- 5162 212.91GiB 4MiB nid00909 
159416  CA-- 5162 212.91GiB 4MiB nid00529 
159417  CA-- 5162 212.91GiB 4MiB nid00590 
159418  CA-- 5162 212.91GiB 4MiB nid00398 
159419  CA-- 5162 212.91GiB 4MiB nid00654 
159420  CA-- 5162 212.91GiB 4MiB nid01226 
159421  CA-- 5162 212.91GiB 4MiB nid00018 
159422  CA-- 5162 212.91GiB 4MiB nid02126 
159423  CA-- 5162 212.91GiB 4MiB nid01482 
159424  CA-- 5162 212.91GiB 4MiB nid01934 
159425  CA-- 5162 212.91GiB 4MiB nid01682 
159426  CA-- 5162 212.91GiB 4MiB nid00205 
159427  CA-- 5162 212.91GiB 4MiB nid01801 
159428  CA-- 5162 212.91GiB 4MiB nid00014 
159429  CA-- 5162 212.91GiB 4MiB nid01357 
159430  CA-- 5162 212.91GiB 4MiB nid01417 
159431  CA-- 5162 212.91GiB 4MiB nid02006 
159432  CA-- 5162 212.91GiB 4MiB nid01354 
159433  CA-- 5162 212.91GiB 4MiB nid01938 
159434  CA-- 5162 212.91GiB 4MiB nid00266 
159435  CA-- 5162 212.91GiB 4MiB nid00333 
159436  CA-- 5162 212.91GiB 4MiB nid00841 
159437  CA-- 5162 212.91GiB 4MiB nid01609 
159438  CA-- 5162 212.91GiB 4MiB nid01418 
159439  CA-- 5162 212.91GiB 4MiB nid01994 
159440  CA-- 5162 212.91GiB 4MiB nid00785 
159441  CA-- 5162 212.91GiB 4MiB nid00782 
159442  CA-- 5162 212.91GiB 4MiB nid00142 
159443  CA-- 5162 212.91GiB 4MiB nid02189 
159444  CA-- 5162 212.91GiB 4MiB nid00781 
159445  CA-- 5162 212.91GiB 4MiB nid00457 
159446  CA-- 5162 212.91GiB 4MiB nid00146 
159447  CA-- 5162 212.91GiB 4MiB nid01481 
159448  CA-- 5162 212.91GiB 4MiB nid01737 
159449  CA-- 5162 212.91GiB 4MiB nid00854 
159450  CA-- 5162 212.91GiB 4MiB nid00653 
159451  CA-- 5162 212.91GiB 4MiB nid02253 
159452  CA-- 5162 212.91GiB 4MiB nid01225 
159453  CA-- 5162 212.91GiB 4MiB nid00269 
159454  CA-- 5162 212.91GiB 4MiB nid01237 
159455  CA-- 5162 212.91GiB 4MiB nid01678 
159456  CA-- 5162 212.91GiB 4MiB nid01802 
159457  CA-- 5162 212.91GiB 4MiB nid00586 
159458  CA-- 5162 212.91GiB 4MiB nid01806 
159459  CA-- 5162 212.91GiB 4MiB nid00526 
159460  CA-- 5162 212.91GiB 4MiB nid01298 
159461  CA-- 5162 212.91GiB 4MiB nid00718 
159462  CA-- 5162 212.91GiB 4MiB nid01485 
159463  CA-- 5162 212.91GiB 4MiB nid00713 
159464  CA-- 5162 212.91GiB 4MiB nid00974 
159465  CA-- 5162 212.91GiB 4MiB nid00086 
159466  CA-- 5162 212.91GiB 4MiB nid01738 
159467  CA-- 5162 212.91GiB 4MiB nid01353 
159468  CA-- 5162 212.91GiB 4MiB nid02066 
159469  CA-- 5163 212.91GiB 4MiB nid00470 
159470  CA-- 5163 212.91GiB 4MiB nid00842 
159471  CA-- 5163 212.91GiB 4MiB nid01621 
159472  CA-- 5163 212.91GiB 4MiB nid01549 
159473  CA-- 5163 212.91GiB 4MiB nid00973 
159474  CA-- 5163 212.91GiB 4MiB nid00650 
159475  CA-- 5163 212.91GiB 4MiB nid00206 
159476  CA-- 5163 212.91GiB 4MiB nid02005 
159477  CA-- 5163 212.91GiB 4MiB nid00458 
159478  CA-- 5163 212.91GiB 4MiB nid01037 
159479  CA-- 5163 212.91GiB 4MiB nid00329 
159480  CA-- 5163 212.91GiB 4MiB nid02250 
159481  CA-- 5163 212.91GiB 4MiB nid01486 
159482  CA-- 5163 212.91GiB 4MiB nid00402 
159483  CA-- 5163 212.91GiB 4MiB nid00969 
159484  CA-- 5163 212.91GiB 4MiB nid01358 
159485  CA-- 5163 212.91GiB 4MiB nid01681 
159486  CA-- 5163 212.91GiB 4MiB nid02190 
159487  CA-- 5163 212.91GiB 4MiB nid01805 
159488  CA-- 5163 212.91GiB 4MiB nid00085 
159489  CA-- 5163 212.91GiB 4MiB nid01170 
159490  CA-- 5163 212.91GiB 4MiB nid00013 
159491  CA-- 5163 212.91GiB 4MiB nid02065 
159492  CA-- 5163 212.91GiB 4MiB nid01869 
159493  CA-- 5163 212.91GiB 4MiB nid00397 
159494  CA-- 5163 212.91GiB 4MiB nid01421 
159495  CA-- 5163 212.91GiB 4MiB nid01102 
159496  CA-- 5163 212.91GiB 4MiB nid01870 
159497  CA-- 5163 212.91GiB 4MiB nid00270 
159498  CA-- 5163 212.91GiB 4MiB nid01166 
159499  CA-- 5163 212.91GiB 4MiB nid01550 
159500  CA-- 5163 212.91GiB 4MiB nid01553 
159501  CA-- 5163 212.91GiB 4MiB nid00910 
159502  CA-- 5163 212.91GiB 4MiB nid02061 
159503  CA-- 5163 212.91GiB 4MiB nid02185 
159504  CA-- 5163 212.91GiB 4MiB nid01933 
159505  CA-- 5163 212.91GiB 4MiB nid02121 
159506  CA-- 5163 212.91GiB 4MiB nid00970 
159507  CA-- 5163 212.91GiB 4MiB nid00914 
159508  CA-- 5163 212.91GiB 4MiB nid00017 
159509  CA-- 5163 212.91GiB 4MiB nid01165 
159510  CA-- 5163 212.91GiB 4MiB nid01622 
159511  CA-- 5163 212.91GiB 4MiB nid00786 
159512  CA-- 5163 212.91GiB 4MiB nid00074 
159513  CA-- 5163 212.91GiB 4MiB nid01866 
159514  CA-- 5163 212.91GiB 4MiB nid00525 
159515  CA-- 5163 212.91GiB 4MiB nid00714 
159516  CA-- 5163 212.91GiB 4MiB nid00330 
159517  CA-- 5163 212.91GiB 4MiB nid00334 
159518  CA-- 5163 212.91GiB 4MiB nid01226 
159519  CA-- 5163 212.91GiB 4MiB nid00018 
159520  CA-- 5163 212.91GiB 4MiB nid02126 
159521  CA-- 5163 212.91GiB 4MiB nid01482 
159522  CA-- 5163 212.91GiB 4MiB nid01934 
159523  CA-- 5163 212.91GiB 4MiB nid01682 
159524  CA-- 5163 212.91GiB 4MiB nid01417 
159525  CA-- 5163 212.91GiB 4MiB nid01354 
159526  CA-- 5163 212.91GiB 4MiB nid01938 
159527  CA-- 5163 212.91GiB 4MiB nid00266 
159528  CA-- 5163 212.91GiB 4MiB nid00333 
159529  CA-- 5163 212.91GiB 4MiB nid00841 
159530  CA-- 5163 212.91GiB 4MiB nid01609 
159531  CA-- 5163 212.91GiB 4MiB nid01994 
159532  CA-- 5163 212.91GiB 4MiB nid02253 

   ns state conf   frag span 
49198  CA-- 2503  61379    2 
49200  CA-- 2505  61382    1 
52607  CA-- 2821  73696    5 
56888  CA-- 3923 129824   49 
57145  CA-- 4104 138143  135 
57244  CA-- 4139 139195   49 
58903  CA-- 5182 154993    1 
59069  CA-- 5348 158558    5 
59147  CA-- 5426 159215    1 
59148  CA-- 5427 159216    1 
59160  CA-- 5439 159405   64 
59161  CA-- 5440 159469   64 

    node      pool online drain  gran capacity insts activs 
nid00013  wlm_pool   true false 16MiB  5.82TiB     2      0 
nid00014  wlm_pool   true false 16MiB  5.82TiB     3      0 
nid00017  wlm_pool   true false 16MiB  5.82TiB     2      0 
nid00018  wlm_pool   true false 16MiB  5.82TiB     3      0 
nid00073  wlm_pool   true false 16MiB  5.82TiB     4      0 
nid00074  wlm_pool   true false 16MiB  5.82TiB     2      0 
nid00085  wlm_pool   true false 16MiB  5.82TiB     2      0 
nid00086  wlm_pool   true false 16MiB  5.82TiB     4      0 
nid00141  wlm_pool   true false 16MiB  5.82TiB     4      0 
nid00142  wlm_pool   true false 16MiB  5.82TiB     4      0 
nid00145  wlm_pool   true false 16MiB  5.82TiB     3      0 
nid00146  wlm_pool   true false 16MiB  5.82TiB     4      0 
nid00201  wlm_pool   true false 16MiB  5.82TiB     3      0 
nid00202  wlm_pool   true  true 16MiB  5.82TiB     1      0 
nid00205  wlm_pool   true false 16MiB  5.82TiB     3      0 
nid00206  wlm_pool   true false 16MiB  5.82TiB     2      0 
nid00265  wlm_pool   true false 16MiB  5.82TiB     3      0 
nid00266  wlm_pool   true false 16MiB  5.82TiB     3      0 
nid00269  wlm_pool   true false 16MiB  5.82TiB     4      0 
nid00270  wlm_pool   true false 16MiB  5.82TiB     2      0 
nid00329  wlm_pool   true false 16MiB  5.82TiB     2      0 
nid00330  wlm_pool   true false 16MiB  5.82TiB     2      0 
nid00333  wlm_pool   true false 16MiB  5.82TiB     3      0 
nid00334  wlm_pool   true false 16MiB  5.82TiB     2      0 
nid00397  wlm_pool   true false 16MiB  5.82TiB     2      0 
nid00398  wlm_pool   true false 16MiB  5.82TiB     2      0 
nid00401  wlm_pool   true  true 16MiB  5.82TiB     3      0 
nid00402  wlm_pool   true false 16MiB  5.82TiB     2      0 
nid00457  wlm_pool   true false 16MiB  5.82TiB     4      0 
nid00458  wlm_pool   true false 16MiB  5.82TiB     2      0 
nid00469  wlm_pool   true false 16MiB  5.82TiB     3      0 
nid00470  wlm_pool   true false 16MiB  5.82TiB     3      0 
nid00525  wlm_pool   true false 16MiB  5.82TiB     2      0 
nid00526  wlm_pool   true false 16MiB  5.82TiB     4      0 
nid00529  wlm_pool   true false 16MiB  5.82TiB     2      0 
nid00530  wlm_pool   true false 16MiB  5.82TiB     4      0 
nid00585  wlm_pool   true false 16MiB  5.82TiB     3      0 
nid00586  wlm_pool   true false 16MiB  5.82TiB     4      0 
nid00589  wlm_pool   true  true 16MiB  5.82TiB     2      0 
nid00590  wlm_pool   true false 16MiB  5.82TiB     2      0 
nid00649  wlm_pool   true false 16MiB  5.82TiB     2      0 
nid00650  wlm_pool   true false 16MiB  5.82TiB     3      0 
nid00653  wlm_pool   true false 16MiB  5.82TiB     4      0 
nid00654  wlm_pool   true false 16MiB  5.82TiB     2      0 
nid00713  wlm_pool   true false 16MiB  5.82TiB     4      0 
nid00714  wlm_pool   true false 16MiB  5.82TiB     2      0 
nid00717  wlm_pool   true false 16MiB  5.82TiB     3      0 
nid00718  wlm_pool   true false 16MiB  5.82TiB     4      0 
nid00781  wlm_pool   true false 16MiB  5.82TiB     4      0 
nid00782  wlm_pool   true false 16MiB  5.82TiB     4      0 
nid00785  wlm_pool   true false 16MiB  5.82TiB     4      0 
nid00786  wlm_pool   true false 16MiB  5.82TiB     2      0 
nid00841  wlm_pool   true false 16MiB  5.82TiB     3      0 
nid00842  wlm_pool   true false 16MiB  5.82TiB     3      0 
nid00853  wlm_pool   true  true 16MiB  5.82TiB     3      0 
nid00854  wlm_pool   true false 16MiB  5.82TiB     4      0 
nid00909  wlm_pool   true false 16MiB  5.82TiB     2      0 
nid00910  wlm_pool   true false 16MiB  5.82TiB     2      0 
nid00913  wlm_pool   true  true 16MiB  5.82TiB     0      0 
nid00914  wlm_pool   true false 16MiB  5.82TiB     2      0 
nid00969  wlm_pool   true false 16MiB  5.82TiB     2      0 
nid00970  wlm_pool   true false 16MiB  5.82TiB     2      0 
nid00973  wlm_pool   true false 16MiB  5.82TiB     3      0 
nid00974  wlm_pool   true false 16MiB  5.82TiB     4      0 
nid01033  wlm_pool  false  true 16MiB  5.82TiB     3      0 
nid01034  wlm_pool   true  true 16MiB  5.82TiB     2      0 
nid01037  wlm_pool   true false 16MiB  5.82TiB     2      0 
nid01038  wlm_pool  false  true 16MiB  5.82TiB     0      0 
nid01097  wlm_pool   true  true 16MiB  5.82TiB     0      0 
nid01098  wlm_pool   true  true 16MiB  5.82TiB     0      0 
nid01101  wlm_pool   true  true 16MiB  5.82TiB     0      0 
nid01102  wlm_pool   true false 16MiB  5.82TiB     2      0 
nid01165  wlm_pool   true false 16MiB  5.82TiB     2      0 
nid01166  wlm_pool   true false 16MiB  5.82TiB     2      0 
nid01169  wlm_pool   true false 16MiB  5.82TiB     3      0 
nid01170  wlm_pool   true false 16MiB  5.82TiB     2      0 
nid01225  wlm_pool   true false 16MiB  5.82TiB     4      0 
nid01226  wlm_pool   true false 16MiB  5.82TiB     3      0 
nid01237  wlm_pool   true false 16MiB  5.82TiB     4      0 
nid01238  wlm_pool   true false 16MiB  5.82TiB     2      0 
nid01293  wlm_pool   true false 16MiB  5.82TiB     2      0 
nid01294  wlm_pool   true false 16MiB  5.82TiB     2      0 
nid01297  wlm_pool   true false 16MiB  5.82TiB     2      0 
nid01298  wlm_pool   true false 16MiB  5.82TiB     4      0 
nid01353  wlm_pool   true false 16MiB  5.82TiB     4      0 
nid01354  wlm_pool   true false 16MiB  5.82TiB     3      0 
nid01357  wlm_pool   true false 16MiB  5.82TiB     3      0 
nid01358  wlm_pool   true false 16MiB  5.82TiB     2      0 
nid01417  wlm_pool   true false 16MiB  5.82TiB     3      0 
nid01418  wlm_pool   true false 16MiB  5.82TiB     4      0 
nid01421  wlm_pool   true false 16MiB  5.82TiB     2      0 
nid01422  wlm_pool   true  true 16MiB  5.82TiB     0      0 
nid01481  wlm_pool   true false 16MiB  5.82TiB     4      0 
nid01482  wlm_pool   true false 16MiB  5.82TiB     3      0 
nid01485  wlm_pool   true false 16MiB  5.82TiB     4      0 
nid01486  wlm_pool   true false 16MiB  5.82TiB     2      0 
nid01549  wlm_pool   true false 16MiB  5.82TiB     3      0 
nid01550  wlm_pool   true false 16MiB  5.82TiB     2      0 
nid01553  wlm_pool   true false 16MiB  5.82TiB     2      0 
nid01554  wlm_pool   true false 16MiB  5.82TiB     2      0 
nid01609  wlm_pool   true false 16MiB  5.82TiB     3      0 
nid01610  wlm_pool   true false 16MiB  5.82TiB     3      0 
nid01621  wlm_pool   true false 16MiB  5.82TiB     3      0 
nid01622  wlm_pool   true false 16MiB  5.82TiB     2      0 
nid01677  wlm_pool   true false 16MiB  5.82TiB     2      0 
nid01678  wlm_pool   true false 16MiB  5.82TiB     4      0 
nid01681  wlm_pool   true false 16MiB  5.82TiB     2      0 
nid01682  wlm_pool   true false 16MiB  5.82TiB     3      0 
nid01737  wlm_pool   true false 16MiB  5.82TiB     4      0 
nid01738  wlm_pool   true false 16MiB  5.82TiB     4      0 
nid01741  wlm_pool   true false 16MiB  5.82TiB     4      0 
nid01742  wlm_pool   true false 16MiB  5.82TiB     2      0 
nid01801  wlm_pool   true false 16MiB  5.82TiB     3      0 
nid01802  wlm_pool   true false 16MiB  5.82TiB     4      0 
nid01805  wlm_pool   true false 16MiB  5.82TiB     2      0 
nid01806  wlm_pool   true false 16MiB  5.82TiB     4      0 
nid01865  wlm_pool   true  true 16MiB  5.82TiB     0      0 
nid01866  wlm_pool   true false 16MiB  5.82TiB     2      0 
nid01869  wlm_pool   true false 16MiB  5.82TiB     2      0 
nid01870  wlm_pool   true false 16MiB  5.82TiB     2      0 
nid01933  wlm_pool   true false 16MiB  5.82TiB     2      0 
nid01934  wlm_pool   true false 16MiB  5.82TiB     3      0 
nid01937  wlm_pool   true  true 16MiB  5.82TiB     1      0 
nid01938  wlm_pool   true false 16MiB  5.82TiB     3      0 
nid01993  wlm_pool   true  true 16MiB  5.82TiB     0      0 
nid01994  wlm_pool   true false 16MiB  5.82TiB     4      0 
nid02005  wlm_pool   true false 16MiB  5.82TiB     2      0 
nid02006  wlm_pool   true false 16MiB  5.82TiB     3      0 
nid02061  wlm_pool   true false 16MiB  5.82TiB     2      0 
nid02062  wlm_pool   true  true 16MiB  5.82TiB     3      0 
nid02065  wlm_pool   true false 16MiB  5.82TiB     2      0 
nid02066  wlm_pool   true false 16MiB  5.82TiB     4      0 
nid02121  wlm_pool   true false 16MiB  5.82TiB     2      0 
nid02122  wlm_pool   true false 16MiB  5.82TiB     2      0 
nid02125  wlm_pool   true false 16MiB  5.82TiB     3      0 
nid02126  wlm_pool   true false 16MiB  5.82TiB     3      0 
nid02185  wlm_pool   true false 16MiB  5.82TiB     2      0 
nid02186  wlm_pool   true false 16MiB  5.82TiB     4      0 
nid02189  wlm_pool   true false 16MiB  5.82TiB     4      0 
nid02190  wlm_pool   true false 16MiB  5.82TiB     2      0 
nid02249  wlm_pool   true  true 16MiB  5.82TiB     2      0 
nid02250  wlm_pool   true false 16MiB  5.82TiB     2      0 
nid02253  wlm_pool   true false 16MiB  5.82TiB     4      0 
nid02254 test_pool   true false 16MiB  5.82TiB     0      0 

Tue Apr 19 23:46:39 PDT 2016 - Found DataWarp/DVS fs stats file at /proc/fs/dvs/mounts/44/stats
Tue Apr 19 23:46:39 PDT 2016 - Found DataWarp/DVS fs stats file at /proc/fs/dvs/mounts/46/stats
Tue Apr 19 23:46:39 PDT 2016 - Found DataWarp/DVS fs stats file at /proc/fs/dvs/mounts/40/stats
Tue Apr 19 23:46:39 PDT 2016 - Found DataWarp/DVS fs stats file at /proc/fs/dvs/mounts/11/stats
Tue Apr 19 23:46:39 PDT 2016 - Found DataWarp/DVS fs stats file at /proc/fs/dvs/mounts/25/stats
Tue Apr 19 23:46:39 PDT 2016 - Found DataWarp/DVS fs stats file at /proc/fs/dvs/mounts/36/stats
Tue Apr 19 23:46:39 PDT 2016 - Found DataWarp/DVS fs stats file at /proc/fs/dvs/mounts/47/stats
Tue Apr 19 23:46:40 PDT 2016 - Found DataWarp/DVS fs stats file at /proc/fs/dvs/mounts/36/stats
Tue Apr 19 23:46:40 PDT 2016 - Found DataWarp/DVS fs stats file at /proc/fs/dvs/mounts/41/stats
Tue Apr 19 23:46:40 PDT 2016 - Found DataWarp/DVS fs stats file at /proc/fs/dvs/mounts/50/stats
Tue Apr 19 23:46:40 PDT 2016 - Found DataWarp/DVS fs stats file at /proc/fs/dvs/mounts/46/stats
Tue Apr 19 23:46:40 PDT 2016 - Found DataWarp/DVS fs stats file at /proc/fs/dvs/mounts/62/stats
Tue Apr 19 23:46:40 PDT 2016 - Found DataWarp/DVS fs stats file at /proc/fs/dvs/mounts/59/stats
Tue Apr 19 23:46:40 PDT 2016 - Found DataWarp/DVS fs stats file at /proc/fs/dvs/mounts/57/stats
Tue Apr 19 23:46:40 PDT 2016 - Found DataWarp/DVS fs stats file at /proc/fs/dvs/mounts/24/stats
Tue Apr 19 23:46:40 PDT 2016 - Found DataWarp/DVS fs stats file at /proc/fs/dvs/mounts/11/stats
Tue Apr 19 23:46:40 PDT 2016 - Found DataWarp/DVS fs stats file at /proc/fs/dvs/mounts/11/stats
Tue Apr 19 23:46:40 PDT 2016 - Found DataWarp/DVS fs stats file at /proc/fs/dvs/mounts/30/stats
Tue Apr 19 23:46:40 PDT 2016 - Found DataWarp/DVS fs stats file at /proc/fs/dvs/mounts/34/stats
Tue Apr 19 23:46:40 PDT 2016 - Found DataWarp/DVS fs stats file at /proc/fs/dvs/mounts/47/stats
Tue Apr 19 23:46:40 PDT 2016 - Found DataWarp/DVS fs stats file at /proc/fs/dvs/mounts/40/stats
Tue Apr 19 23:46:40 PDT 2016 - Found DataWarp/DVS fs stats file at /proc/fs/dvs/mounts/46/stats
Tue Apr 19 23:46:40 PDT 2016 - Found DataWarp/DVS fs stats file at /proc/fs/dvs/mounts/60/stats
Tue Apr 19 23:46:40 PDT 2016 - Found DataWarp/DVS fs stats file at /proc/fs/dvs/mounts/45/stats
Tue Apr 19 23:46:40 PDT 2016 - Found DataWarp/DVS fs stats file at /proc/fs/dvs/mounts/61/stats
Tue Apr 19 23:46:40 PDT 2016 - Found DataWarp/DVS fs stats file at /proc/fs/dvs/mounts/23/stats
Tue Apr 19 23:46:40 PDT 2016 - Found DataWarp/DVS fs stats file at /proc/fs/dvs/mounts/39/stats
Tue Apr 19 23:46:40 PDT 2016 - Found DataWarp/DVS fs stats file at /proc/fs/dvs/mounts/60/stats
Tue Apr 19 23:46:40 PDT 2016 - Found DataWarp/DVS fs stats file at /proc/fs/dvs/mounts/45/stats
Tue Apr 19 23:46:40 PDT 2016 - Found DataWarp/DVS fs stats file at /proc/fs/dvs/mounts/49/stats
Tue Apr 19 23:46:40 PDT 2016 - Found DataWarp/DVS fs stats file at /proc/fs/dvs/mounts/45/stats
Tue Apr 19 23:46:41 PDT 2016 - Found DataWarp/DVS fs stats file at /proc/fs/dvs/mounts/37/stats
MPIIO: unrecognized DVS real_fs_magic=0XBBFBBF10  ADIOI_CRAY_dvs_real_fstype:1246  using default optimizations
MPIIO WARNING: DVS stripe width of 32 was requested but DVS set it to 64
See MPICH_MPIIO_DVS_MAXNODES in the intro_mpi man page.
Number of paritcles: 33554432 
Finished initializing particles 
Opened H5Part file... 
Before writing particles 
Step is set 
Num particles is set 
Written variable 1 
Written variable 2 
Written variable 3 
Written variable 4 
Written variable 5 
Written variable 6 
Written variable 7 
Written variable 8 
After writing particles 
After closing particles 

Timing results
19.852720 seconds elapsed in just writing data
21.603037 seconds elapsed in opening, writing, closing file

Tue Apr 19 23:47:21 PDT 2016 - Found DataWarp/DVS fs stats file at /proc/fs/dvs/mounts/36/stats
Tue Apr 19 23:47:22 PDT 2016 - Found DataWarp/DVS fs stats file at /proc/fs/dvs/mounts/59/stats
Tue Apr 19 23:47:22 PDT 2016 - Found DataWarp/DVS fs stats file at /proc/fs/dvs/mounts/11/stats
Tue Apr 19 23:47:22 PDT 2016 - Found DataWarp/DVS fs stats file at /proc/fs/dvs/mounts/60/stats
Tue Apr 19 23:47:22 PDT 2016 - Found DataWarp/DVS fs stats file at /proc/fs/dvs/mounts/45/stats
Tue Apr 19 23:47:22 PDT 2016 - Found DataWarp/DVS fs stats file at /proc/fs/dvs/mounts/57/stats
Tue Apr 19 23:47:22 PDT 2016 - Found DataWarp/DVS fs stats file at /proc/fs/dvs/mounts/62/stats
Tue Apr 19 23:47:22 PDT 2016 - Found DataWarp/DVS fs stats file at /proc/fs/dvs/mounts/34/stats
Tue Apr 19 23:47:22 PDT 2016 - Found DataWarp/DVS fs stats file at /proc/fs/dvs/mounts/39/stats
Tue Apr 19 23:47:22 PDT 2016 - Found DataWarp/DVS fs stats file at /proc/fs/dvs/mounts/46/stats
Tue Apr 19 23:47:22 PDT 2016 - Found DataWarp/DVS fs stats file at /proc/fs/dvs/mounts/40/stats
Tue Apr 19 23:47:22 PDT 2016 - Found DataWarp/DVS fs stats file at /proc/fs/dvs/mounts/46/stats
Tue Apr 19 23:47:22 PDT 2016 - Found DataWarp/DVS fs stats file at /proc/fs/dvs/mounts/47/stats
Tue Apr 19 23:47:22 PDT 2016 - Found DataWarp/DVS fs stats file at /proc/fs/dvs/mounts/25/stats
Tue Apr 19 23:47:22 PDT 2016 - Found DataWarp/DVS fs stats file at /proc/fs/dvs/mounts/49/stats
Tue Apr 19 23:47:22 PDT 2016 - Found DataWarp/DVS fs stats file at /proc/fs/dvs/mounts/61/stats
Tue Apr 19 23:47:22 PDT 2016 - Found DataWarp/DVS fs stats file at /proc/fs/dvs/mounts/47/stats
Tue Apr 19 23:47:22 PDT 2016 - Found DataWarp/DVS fs stats file at /proc/fs/dvs/mounts/45/stats
Tue Apr 19 23:47:22 PDT 2016 - Found DataWarp/DVS fs stats file at /proc/fs/dvs/mounts/23/stats
Tue Apr 19 23:47:22 PDT 2016 - Found DataWarp/DVS fs stats file at /proc/fs/dvs/mounts/45/stats
Tue Apr 19 23:47:22 PDT 2016 - Found DataWarp/DVS fs stats file at /proc/fs/dvs/mounts/11/stats
Tue Apr 19 23:47:22 PDT 2016 - Found DataWarp/DVS fs stats file at /proc/fs/dvs/mounts/50/stats
Tue Apr 19 23:47:22 PDT 2016 - Found DataWarp/DVS fs stats file at /proc/fs/dvs/mounts/11/stats
Tue Apr 19 23:47:22 PDT 2016 - Found DataWarp/DVS fs stats file at /proc/fs/dvs/mounts/44/stats
Tue Apr 19 23:47:22 PDT 2016 - Found DataWarp/DVS fs stats file at /proc/fs/dvs/mounts/40/stats
Tue Apr 19 23:47:22 PDT 2016 - Found DataWarp/DVS fs stats file at /proc/fs/dvs/mounts/24/stats
Tue Apr 19 23:47:22 PDT 2016 - Found DataWarp/DVS fs stats file at /proc/fs/dvs/mounts/36/stats
Tue Apr 19 23:47:22 PDT 2016 - Found DataWarp/DVS fs stats file at /proc/fs/dvs/mounts/30/stats
Tue Apr 19 23:47:22 PDT 2016 - Found DataWarp/DVS fs stats file at /proc/fs/dvs/mounts/41/stats
Tue Apr 19 23:47:22 PDT 2016 - Found DataWarp/DVS fs stats file at /proc/fs/dvs/mounts/46/stats
Tue Apr 19 23:47:22 PDT 2016 - Found DataWarp/DVS fs stats file at /proc/fs/dvs/mounts/60/stats
Tue Apr 19 23:47:23 PDT 2016 - Found DataWarp/DVS fs stats file at /proc/fs/dvs/mounts/37/stats
python: can't open file 'diff_concatenated_dvs_stats.py': [Errno 2] No such file or directory
-rw-r----- 1 mbryson mbryson 1099528404992 Apr 19 23:47 /var/opt/cray/dws/mounts/batch/1949230/ss//output_1K/sample.h5part
-rw-r----- 1 mbryson mbryson 1.1T Apr 19 23:47 /var/opt/cray/dws/mounts/batch/1949230/ss//output_1K/sample.h5part
Tue Apr 19 23:47:26 2016: [unset]:_pmi_alps_get_apid:alps response not OKAY
Tue Apr 19 23:47:26 2016: [unset]:_pmi_init:_pmi_alps_init returned -1
HDF5 "/var/opt/cray/dws/mounts/batch/1949230/ss//output_1K/sample.h5part" {
GROUP "/" {
   ATTRIBUTE "Origin" {
      DATATYPE  H5T_STRING {
         STRSIZE 16;
         STRPAD H5T_STR_NULLTERM;
         CSET H5T_CSET_ASCII;
         CTYPE H5T_C_S1;
      }
      DATASPACE  SCALAR
   }
   GROUP "Step#0" {
      DATASET "id1" {
         DATATYPE  H5T_STD_I32LE
         DATASPACE  SIMPLE { ( 34359738368 ) / ( 34359738368 ) }
      }
      DATASET "id2" {
         DATATYPE  H5T_STD_I32LE
         DATASPACE  SIMPLE { ( 34359738368 ) / ( 34359738368 ) }
      }
      DATASET "px" {
         DATATYPE  H5T_IEEE_F32LE
         DATASPACE  SIMPLE { ( 34359738368 ) / ( 34359738368 ) }
      }
      DATASET "py" {
         DATATYPE  H5T_IEEE_F32LE
         DATASPACE  SIMPLE { ( 34359738368 ) / ( 34359738368 ) }
      }
      DATASET "pz" {
         DATATYPE  H5T_IEEE_F32LE
         DATASPACE  SIMPLE { ( 34359738368 ) / ( 34359738368 ) }
      }
      DATASET "x" {
         DATATYPE  H5T_IEEE_F32LE
         DATASPACE  SIMPLE { ( 34359738368 ) / ( 34359738368 ) }
      }
      DATASET "y" {
         DATATYPE  H5T_IEEE_F32LE
         DATASPACE  SIMPLE { ( 34359738368 ) / ( 34359738368 ) }
      }
      DATASET "z" {
         DATATYPE  H5T_IEEE_F32LE
         DATASPACE  SIMPLE { ( 34359738368 ) / ( 34359738368 ) }
      }
   }
}
}
