2K PFS collective, full darshan
Number of paritcles: 33554432 
Finished initializing particles 
Opened H5Part file... 
Before writing particles 
Step is set 
Num particles is set 
Rank: 0, wrote 128.00 MB, time: 11.278639 sec; rate: 11.348887
Written variable 1 
Written variable 2 
Rank: 0, wrote 128.00 MB, time: 12.610248 sec; rate: 10.150475
Written variable 3 
Rank: 0, wrote 128.00 MB, time: 12.771051 sec; rate: 10.022667
Written variable 4 
Rank: 0, wrote 128.00 MB, time: 11.640668 sec; rate: 10.995933
Written variable 5 
Rank: 0, wrote 128.00 MB, time: 14.004645 sec; rate: 9.139825
Written variable 6 
Rank: 0, wrote 128.00 MB, time: 13.998370 sec; rate: 9.143922
Written variable 7 
Rank: 0, wrote 128.00 MB, time: 11.480285 sec; rate: 11.149549
Written variable 8 
Rank: 0, wrote 128.00 MB, time: 12.406749 sec; rate: 10.316965
After writing particles 
After closing particles 

Timing results
100.193108 seconds elapsed in just writing data
121.237335 seconds elapsed in opening, writing, closing file

/global/cscratch1/sd/mbryson/vpicBench/output_2K/sample.h5part
lmm_stripe_count:   96
lmm_stripe_size:    8388608
lmm_pattern:        1
lmm_layout_gen:     0
lmm_stripe_offset:  105
	obdidx		 objid		 objid		 group
	   105	      30475157	    0x1d10395	             0
	   241	      30456965	    0x1d0bc85	             0
	    83	      30469561	    0x1d0edb9	             0
	   159	      30452635	    0x1d0ab9b	             0
	    73	      30481723	    0x1d11d3b	             0
	   197	      30456127	    0x1d0b93f	             0
	     2	      30787857	    0x1d5c911	             0
	   216	      30467419	    0x1d0e55b	             0
	   234	      30466435	    0x1d0e183	             0
	   218	      30458952	    0x1d0c448	             0
	   222	      30456750	    0x1d0bbae	             0
	   246	      30463067	    0x1d0d45b	             0
	   220	      30459949	    0x1d0c82d	             0
	   226	      30466772	    0x1d0e2d4	             0
	   232	      30460301	    0x1d0c98d	             0
	   244	      30463464	    0x1d0d5e8	             0
	   206	      30457357	    0x1d0be0d	             0
	   212	      30461777	    0x1d0cf51	             0
	   236	      30460641	    0x1d0cae1	             0
	   228	      30463824	    0x1d0d750	             0
	   240	      30463552	    0x1d0d640	             0
	   242	      30462770	    0x1d0d332	             0
	    60	      30497454	    0x1d15aae	             0
	   204	      30465851	    0x1d0df3b	             0
	   230	      30456889	    0x1d0bc39	             0
	    66	      30476620	    0x1d1094c	             0
	   132	      30464581	    0x1d0da45	             0
	    52	      30503202	    0x1d17122	             0
	   146	      30461973	    0x1d0d015	             0
	   214	      30455365	    0x1d0b645	             0
	    86	      30472492	    0x1d0f92c	             0
	   200	      30467446	    0x1d0e576	             0
	   176	      30465789	    0x1d0defd	             0
	    24	      30549045	    0x1d22435	             0
	    16	      30526457	    0x1d1cbf9	             0
	     6	      30784721	    0x1d5bcd1	             0
	   224	      30462947	    0x1d0d3e3	             0
	    76	      30474400	    0x1d100a0	             0
	    90	      30473296	    0x1d0fc50	             0
	   198	      30461783	    0x1d0cf57	             0
	   190	      30459008	    0x1d0c480	             0
	   112	      30475823	    0x1d1062f	             0
	   114	      30474313	    0x1d10049	             0
	    58	      30498096	    0x1d15d30	             0
	    78	      30471720	    0x1d0f628	             0
	   102	      30454505	    0x1d0b2e9	             0
	    74	      30474771	    0x1d10213	             0
	    32	      30500874	    0x1d1680a	             0
	    68	      30484860	    0x1d1297c	             0
	    36	      30497374	    0x1d15a5e	             0
	    48	      30502737	    0x1d16f51	             0
	   208	      30464246	    0x1d0d8f6	             0
	    30	      30542331	    0x1d209fb	             0
	   194	      30459419	    0x1d0c61b	             0
	   238	      30460590	    0x1d0caae	             0
	   182	      30455942	    0x1d0b886	             0
	   126	      30469469	    0x1d0ed5d	             0
	    96	      30481647	    0x1d11cef	             0
	    28	      30542282	    0x1d209ca	             0
	   142	      30461892	    0x1d0cfc4	             0
	   188	      30458705	    0x1d0c351	             0
	    34	      30497641	    0x1d15b69	             0
	    44	      30495879	    0x1d15487	             0
	    22	      30537461	    0x1d1f6f5	             0
	   164	      30463229	    0x1d0d4fd	             0
	    54	      30497109	    0x1d15955	             0
	   140	      30466703	    0x1d0e28f	             0
	    92	      30471362	    0x1d0f4c2	             0
	   110	      30472722	    0x1d0fa12	             0
	    20	      30544704	    0x1d21340	             0
	   156	      30460272	    0x1d0c970	             0
	    62	      30491353	    0x1d142d9	             0
	    72	      30486937	    0x1d13199	             0
	   150	      30461331	    0x1d0cd93	             0
	    84	      30477571	    0x1d10d03	             0
	   144	      30463047	    0x1d0d447	             0
	    94	      30480345	    0x1d117d9	             0
	   128	      30463209	    0x1d0d4e9	             0
	    38	      30494017	    0x1d14d41	             0
	   202	      30460662	    0x1d0caf6	             0
	     8	      30628376	    0x1d35a18	             0
	   148	      30460660	    0x1d0caf4	             0
	   134	      30463718	    0x1d0d6e6	             0
	   158	      30457929	    0x1d0c049	             0
	   186	      30461198	    0x1d0cd0e	             0
	    98	      30472776	    0x1d0fa48	             0
	    46	      30500840	    0x1d167e8	             0
	   138	      30465650	    0x1d0de72	             0
	   154	      30461835	    0x1d0cf8b	             0
	   168	      30463465	    0x1d0d5e9	             0
	   108	      30476703	    0x1d1099f	             0
	    82	      30475841	    0x1d10641	             0
	   106	      30479950	    0x1d1164e	             0
	    80	      30476314	    0x1d1081a	             0
	     0	      30808824	    0x1d61af8	             0
	   136	      30466255	    0x1d0e0cf	             0

-rw-r----- 1 mbryson mbryson 2199023261832 Apr 29 13:06 /global/cscratch1/sd/mbryson/vpicBench/output_2K/sample.h5part
-rw-r----- 1 mbryson mbryson 2.1T Apr 29 13:06 /global/cscratch1/sd/mbryson/vpicBench/output_2K/sample.h5part
Fri Apr 29 13:07:06 2016: [unset]:_pmi_alps_get_apid:alps response not OKAY
Fri Apr 29 13:07:06 2016: [unset]:_pmi_init:_pmi_alps_init returned -1
HDF5 "/global/cscratch1/sd/mbryson/vpicBench/output_2K/sample.h5part" {
GROUP "/" {
   ATTRIBUTE "Origin" {
      DATATYPE  H5T_STRING {
         STRSIZE 15;
         STRPAD H5T_STR_NULLTERM;
         CSET H5T_CSET_ASCII;
         CTYPE H5T_C_S1;
      }
      DATASPACE  SCALAR
   }
   GROUP "Step#0" {
      DATASET "id1" {
         DATATYPE  H5T_STD_I32LE
         DATASPACE  SIMPLE { ( 68719476736 ) / ( 68719476736 ) }
      }
      DATASET "id2" {
         DATATYPE  H5T_STD_I32LE
         DATASPACE  SIMPLE { ( 68719476736 ) / ( 68719476736 ) }
      }
      DATASET "px" {
         DATATYPE  H5T_IEEE_F32LE
         DATASPACE  SIMPLE { ( 68719476736 ) / ( 68719476736 ) }
      }
      DATASET "py" {
         DATATYPE  H5T_IEEE_F32LE
         DATASPACE  SIMPLE { ( 68719476736 ) / ( 68719476736 ) }
      }
      DATASET "pz" {
         DATATYPE  H5T_IEEE_F32LE
         DATASPACE  SIMPLE { ( 68719476736 ) / ( 68719476736 ) }
      }
      DATASET "x" {
         DATATYPE  H5T_IEEE_F32LE
         DATASPACE  SIMPLE { ( 68719476736 ) / ( 68719476736 ) }
      }
      DATASET "y" {
         DATATYPE  H5T_IEEE_F32LE
         DATASPACE  SIMPLE { ( 68719476736 ) / ( 68719476736 ) }
      }
      DATASET "z" {
         DATATYPE  H5T_IEEE_F32LE
         DATASPACE  SIMPLE { ( 68719476736 ) / ( 68719476736 ) }
      }
   }
}
}
