Hi BBtest from process 35 of 48 on nid00037
PID=35  time= 0.000399 
Hi BBtest from process 6 of 48 on nid00036
PID=6  time= 0.000448 
Hi BBtest from process 10 of 48 on nid00036
PID=10  time= 0.000404 
Hi BBtest from process 16 of 48 on nid00036
PID=16  time= 0.000441 
Hi BBtest from process 18 of 48 on nid00036
PID=18  time= 0.000426 
Hi BBtest from process 19 of 48 on nid00036
PID=19  time= 0.000394 
Hi BBtest from process 22 of 48 on nid00036
PID=22  time= 0.000400 
**********************************************************
Matt BBtest: process 0 of 48 on nid00036
**********************************************************
Hi BBtest from process 0 of 48 on nid00036
PID=0  time= 0.000399 
Hi BBtest from process 1 of 48 on nid00036
PID=1  time= 0.000393 
Hi BBtest from process 2 of 48 on nid00036
PID=2  time= 0.000392 
Hi BBtest from process 3 of 48 on nid00036
PID=3  time= 0.000398 
Hi BBtest from process 4 of 48 on nid00036
PID=4  time= 0.000395 
Hi BBtest from process 5 of 48 on nid00036
PID=5  time= 0.000450 
Hi BBtest from process 7 of 48 on nid00036
PID=7  time= 0.000397 
Hi BBtest from process 8 of 48 on nid00036
PID=8  time= 0.000430 
Hi BBtest from process 9 of 48 on nid00036
PID=9  time= 0.000416 
Hi BBtest from process 11 of 48 on nid00036
PID=11  time= 0.000401 
Hi BBtest from process 12 of 48 on nid00036
PID=12  time= 0.000427 
Hi BBtest from process 13 of 48 on nid00036
PID=13  time= 0.000423 
Hi BBtest from process 14 of 48 on nid00036
PID=14  time= 0.000424 
Hi BBtest from process 15 of 48 on nid00036
PID=15  time= 0.000406 
Hi BBtest from process 17 of 48 on nid00036
PID=17  time= 0.000425 
Hi BBtest from process 20 of 48 on nid00036
PID=20  time= 0.000402 
Hi BBtest from process 21 of 48 on nid00036
PID=21  time= 0.000403 
Hi BBtest from process 23 of 48 on nid00036
PID=23  time= 0.000394 
Hi BBtest from process 36 of 48 on nid00037
PID=36  time= 0.000404 
Hi BBtest from process 42 of 48 on nid00037
PID=42  time= 0.000414 
Hi BBtest from process 43 of 48 on nid00037
PID=43  time= 0.000417 
Hi BBtest from process 24 of 48 on nid00037
PID=24  time= 0.000392 
Hi BBtest from process 25 of 48 on nid00037
PID=25  time= 0.000384 
Hi BBtest from process 26 of 48 on nid00037
PID=26  time= 0.000402 
Hi BBtest from process 27 of 48 on nid00037
PID=27  time= 0.000413 
Hi BBtest from process 28 of 48 on nid00037
PID=28  time= 0.000388 
Hi BBtest from process 29 of 48 on nid00037
PID=29  time= 0.000434 
Hi BBtest from process 30 of 48 on nid00037
PID=30  time= 0.000400 
Hi BBtest from process 31 of 48 on nid00037
PID=31  time= 0.000383 
Hi BBtest from process 32 of 48 on nid00037
PID=32  time= 0.000403 
Hi BBtest from process 33 of 48 on nid00037
PID=33  time= 0.000414 
Hi BBtest from process 34 of 48 on nid00037
PID=34  time= 0.000395 
Hi BBtest from process 37 of 48 on nid00037
PID=37  time= 0.000433 
Hi BBtest from process 38 of 48 on nid00037
PID=38  time= 0.000384 
Hi BBtest from process 39 of 48 on nid00037
PID=39  time= 0.000399 
Hi BBtest from process 40 of 48 on nid00037
PID=40  time= 0.000386 
Hi BBtest from process 41 of 48 on nid00037
PID=41  time= 0.000407 
Hi BBtest from process 44 of 48 on nid00037
PID=44  time= 0.000396 
Hi BBtest from process 45 of 48 on nid00037
PID=45  time= 0.000419 
Hi BBtest from process 46 of 48 on nid00037
PID=46  time= 0.000425 
Hi BBtest from process 47 of 48 on nid00037
PID=47  time= 0.000423 
