Running VPIC-IO with 8K processes, 64BB nodes, matched
MPIIO: unrecognized DVS real_fs_magic=0XBBFBBF10  ADIOI_CRAY_dvs_real_fstype:1249  using default optimizations
MPIIO WARNING: DVS stripe width of 32 was requested but DVS set it to 64
See MPICH_MPIIO_DVS_MAXNODES in the intro_mpi man page.
Number of paritcles: 33554432 
Finished initializing particles 
Opened H5Part file... 
Before writing particles 
Step is set 
Num particles is set 
Written variable 1 
Written variable 2 
Written variable 3 
Written variable 4 
Written variable 5 
Written variable 6 
Written variable 7 
Written variable 8 
After writing particles 
After closing particles 

Timing results
162.237869 seconds elapsed in just writing data
163.429214 seconds elapsed in opening, writing, closing file

-rw-r----- 1 mbryson mbryson 8796093028488 Feb 26 16:38 /var/opt/cray/dws/mounts/batch/1227361/ss//output_8K/sample.h5part
-rw-r----- 1 mbryson mbryson 8.1T Feb 26 16:38 /var/opt/cray/dws/mounts/batch/1227361/ss//output_8K/sample.h5part
Fri Feb 26 16:38:58 2016: [unset]:_pmi_alps_get_apid:alps response not OKAY
Fri Feb 26 16:38:58 2016: [unset]:_pmi_init:_pmi_alps_init returned -1
HDF5 "/var/opt/cray/dws/mounts/batch/1227361/ss//output_8K/sample.h5part" {
GROUP "/" {
   ATTRIBUTE "Origin" {
      DATATYPE  H5T_STRING {
         STRSIZE 15;
         STRPAD H5T_STR_NULLTERM;
         CSET H5T_CSET_ASCII;
         CTYPE H5T_C_S1;
      }
      DATASPACE  SCALAR
   }
   GROUP "Step#0" {
      DATASET "id1" {
         DATATYPE  H5T_STD_I32LE
         DATASPACE  SIMPLE { ( 274877906944 ) / ( 274877906944 ) }
      }
      DATASET "id2" {
         DATATYPE  H5T_STD_I32LE
         DATASPACE  SIMPLE { ( 274877906944 ) / ( 274877906944 ) }
      }
      DATASET "px" {
         DATATYPE  H5T_IEEE_F32LE
         DATASPACE  SIMPLE { ( 274877906944 ) / ( 274877906944 ) }
      }
      DATASET "py" {
         DATATYPE  H5T_IEEE_F32LE
         DATASPACE  SIMPLE { ( 274877906944 ) / ( 274877906944 ) }
      }
      DATASET "pz" {
         DATATYPE  H5T_IEEE_F32LE
         DATASPACE  SIMPLE { ( 274877906944 ) / ( 274877906944 ) }
      }
      DATASET "x" {
         DATATYPE  H5T_IEEE_F32LE
         DATASPACE  SIMPLE { ( 274877906944 ) / ( 274877906944 ) }
      }
      DATASET "y" {
         DATATYPE  H5T_IEEE_F32LE
         DATASPACE  SIMPLE { ( 274877906944 ) / ( 274877906944 ) }
      }
      DATASET "z" {
         DATATYPE  H5T_IEEE_F32LE
         DATASPACE  SIMPLE { ( 274877906944 ) / ( 274877906944 ) }
      }
   }
}
}
