IOR-2.10.3: MPI Coordinated Test of Parallel I/O

Run began: Tue Feb  2 03:02:30 2016
Command line used: /global/homes/m/mbryson/software/ior/IOR_MPIIO -f pfs_mpiio
Machine: Linux nid00238
Start time skew across all tasks: 0.00 sec
Path: /global/cscratch1/sd/mbryson/benchmarks
FS: 27719.5 TiB   Used FS: 13.1%   Inodes: 5955.2 Mi   Used Inodes: 3.4%
Participating tasks: 2048

Summary:
	api                = MPIIO (version=3, subversion=0)
	test filename      = /global/cscratch1/sd/mbryson/benchmarks/testfile3
	access             = file-per-process, independent
	pattern            = segmented (1 segment)
	ordering in a file = sequential offsets
	ordering inter file= no tasks offsets
	clients            = 2048 (8 per node)
	repetitions        = 2
	xfersize           = 262144 bytes
	blocksize          = 1 MiB
	aggregate filesize = 2 GiB

Commencing write performance test.
Tue Feb  2 03:02:31 2016

Commencing read performance test.
Tue Feb  2 03:02:50 2016

Commencing write performance test.
Tue Feb  2 03:03:03 2016

Commencing read performance test.
Tue Feb  2 03:03:10 2016

Operation  Max (MiB)  Min (MiB)  Mean (MiB)   Std Dev  Max (OPs)  Min (OPs)  Mean (OPs)   Std Dev  Mean (s)  Op grep #Tasks tPN reps  fPP reord reordoff reordrand seed segcnt blksiz xsize aggsize

---------  ---------  ---------  ----------   -------  ---------  ---------  ----------   -------  --------
write         158.64     107.90      133.27     25.37     634.57     431.59      533.08    101.49  15.94525   2048 8 2 1 0 1 0 -113 1 1048576 262144 2147483648 -1 MPIIO EXCEL
read         3728.85    3719.74     3724.29      4.56   14915.40   14878.96    14897.18     18.22   0.54990   2048 8 2 1 0 1 0 -113 1 1048576 262144 2147483648 -1 MPIIO EXCEL

Max Write: 158.64 MiB/sec (166.35 MB/sec)
Max Read:  3728.85 MiB/sec (3909.98 MB/sec)

IOR-2.10.3: MPI Coordinated Test of Parallel I/O

Run began: Tue Feb  2 03:03:16 2016
Command line used: /global/homes/m/mbryson/software/ior/IOR_MPIIO -f pfs_mpiio
Machine: Linux nid00238 3.0.101-0.46.1_1.0502.8871-cray_ari_c #1 SMP Tue Aug 25 21:41:26 UTC 2015 x86_64
Using synchronized MPI timer
Start time skew across all tasks: 0.00 sec
Path: /global/cscratch1/sd/mbryson/benchmarks
FS: 27719.5 TiB   Used FS: 13.1%   Inodes: 5955.2 Mi   Used Inodes: 3.4%
Participating tasks: 2048
Using reorderTasks '-C' (expecting block, not cyclic, task assignment)
task 0 on nid00238
task 1 on nid00238
task 10 on nid00351
task 100 on nid00438
task 1000 on nid01177
task 1001 on nid01177
task 1002 on nid01177
task 1003 on nid01177
task 1004 on nid01177
task 1005 on nid01177
task 1006 on nid01177
task 1007 on nid01177
task 1008 on nid01178
task 1009 on nid01178
task 101 on nid00438
task 1010 on nid01178
task 1011 on nid01178
task 1012 on nid01178
task 1013 on nid01178
task 1014 on nid01178
task 1015 on nid01178
task 1016 on nid01179
task 1017 on nid01179
task 1018 on nid01179
task 1019 on nid01179
task 102 on nid00438
task 1020 on nid01179
task 1021 on nid01179
task 1022 on nid01179
task 1023 on nid01179
task 1024 on nid01316
task 1025 on nid01316
task 1026 on nid01316
task 1027 on nid01316
task 1028 on nid01316
task 1029 on nid01316
task 103 on nid00438
task 1030 on nid01316
task 1031 on nid01316
task 1032 on nid01317
task 1033 on nid01317
task 1034 on nid01317
task 1035 on nid01317
task 1036 on nid01317
task 1037 on nid01317
task 1038 on nid01317
task 1039 on nid01317
task 104 on nid00439
task 1040 on nid01318
task 1041 on nid01318
task 1042 on nid01318
task 1043 on nid01318
task 1044 on nid01318
task 1045 on nid01318
task 1046 on nid01318
task 1047 on nid01318
task 1048 on nid01319
task 1049 on nid01319
task 105 on nid00439
task 1050 on nid01319
task 1051 on nid01319
task 1052 on nid01319
task 1053 on nid01319
task 1054 on nid01319
task 1055 on nid01319
task 1056 on nid01364
task 1057 on nid01364
task 1058 on nid01364
task 1059 on nid01364
task 106 on nid00439
task 1060 on nid01364
task 1061 on nid01364
task 1062 on nid01364
task 1063 on nid01364
task 1064 on nid01365
task 1065 on nid01365
task 1066 on nid01365
task 1067 on nid01365
task 1068 on nid01365
task 1069 on nid01365
task 107 on nid00439
task 1070 on nid01365
task 1071 on nid01365
task 1072 on nid01366
task 1073 on nid01366
task 1074 on nid01366
task 1075 on nid01366
task 1076 on nid01366
task 1077 on nid01366
task 1078 on nid01366
task 1079 on nid01366
task 108 on nid00439
task 1080 on nid01367
task 1081 on nid01367
task 1082 on nid01367
task 1083 on nid01367
task 1084 on nid01367
task 1085 on nid01367
task 1086 on nid01367
task 1087 on nid01367
task 1088 on nid01368
task 1089 on nid01368
task 109 on nid00439
task 1090 on nid01368
task 1091 on nid01368
task 1092 on nid01368
task 1093 on nid01368
task 1094 on nid01368
task 1095 on nid01368
task 1096 on nid01369
task 1097 on nid01369
task 1098 on nid01369
task 1099 on nid01369
task 11 on nid00351
task 110 on nid00439
task 1100 on nid01369
task 1101 on nid01369
task 1102 on nid01369
task 1103 on nid01369
task 1104 on nid01373
task 1105 on nid01373
task 1106 on nid01373
task 1107 on nid01373
task 1108 on nid01373
task 1109 on nid01373
task 111 on nid00439
task 1110 on nid01373
task 1111 on nid01373
task 1112 on nid01374
task 1113 on nid01374
task 1114 on nid01374
task 1115 on nid01374
task 1116 on nid01374
task 1117 on nid01374
task 1118 on nid01374
task 1119 on nid01374
task 112 on nid00444
task 1120 on nid01375
task 1121 on nid01375
task 1122 on nid01375
task 1123 on nid01375
task 1124 on nid01375
task 1125 on nid01375
task 1126 on nid01375
task 1127 on nid01375
task 1128 on nid01385
task 1129 on nid01385
task 113 on nid00444
task 1130 on nid01385
task 1131 on nid01385
task 1132 on nid01385
task 1133 on nid01385
task 1134 on nid01385
task 1135 on nid01385
task 1136 on nid01386
task 1137 on nid01386
task 1138 on nid01386
task 1139 on nid01386
task 114 on nid00444
task 1140 on nid01386
task 1141 on nid01386
task 1142 on nid01386
task 1143 on nid01386
task 1144 on nid01387
task 1145 on nid01387
task 1146 on nid01387
task 1147 on nid01387
task 1148 on nid01387
task 1149 on nid01387
task 115 on nid00444
task 1150 on nid01387
task 1151 on nid01387
task 1152 on nid01388
task 1153 on nid01388
task 1154 on nid01388
task 1155 on nid01388
task 1156 on nid01388
task 1157 on nid01388
task 1158 on nid01388
task 1159 on nid01388
task 116 on nid00444
task 1160 on nid01389
task 1161 on nid01389
task 1162 on nid01389
task 1163 on nid01389
task 1164 on nid01389
task 1165 on nid01389
task 1166 on nid01389
task 1167 on nid01389
task 1168 on nid01390
task 1169 on nid01390
task 117 on nid00444
task 1170 on nid01390
task 1171 on nid01390
task 1172 on nid01390
task 1173 on nid01390
task 1174 on nid01390
task 1175 on nid01390
task 1176 on nid01391
task 1177 on nid01391
task 1178 on nid01391
task 1179 on nid01391
task 118 on nid00444
task 1180 on nid01391
task 1181 on nid01391
task 1182 on nid01391
task 1183 on nid01391
task 1184 on nid01392
task 1185 on nid01392
task 1186 on nid01392
task 1187 on nid01392
task 1188 on nid01392
task 1189 on nid01392
task 119 on nid00444
task 1190 on nid01392
task 1191 on nid01392
task 1192 on nid01393
task 1193 on nid01393
task 1194 on nid01393
task 1195 on nid01393
task 1196 on nid01393
task 1197 on nid01393
task 1198 on nid01393
task 1199 on nid01393
task 12 on nid00351
task 120 on nid00445
task 1200 on nid01394
task 1201 on nid01394
task 1202 on nid01394
task 1203 on nid01394
task 1204 on nid01394
task 1205 on nid01394
task 1206 on nid01394
task 1207 on nid01394
task 1208 on nid01395
task 1209 on nid01395
task 121 on nid00445
task 1210 on nid01395
task 1211 on nid01395
task 1212 on nid01395
task 1213 on nid01395
task 1214 on nid01395
task 1215 on nid01395
task 1216 on nid01397
task 1217 on nid01397
task 1218 on nid01397
task 1219 on nid01397
task 122 on nid00445
task 1220 on nid01397
task 1221 on nid01397
task 1222 on nid01397
task 1223 on nid01397
task 1224 on nid01400
task 1225 on nid01400
task 1226 on nid01400
task 1227 on nid01400
task 1228 on nid01400
task 1229 on nid01400
task 123 on nid00445
task 1230 on nid01400
task 1231 on nid01400
task 1232 on nid01403
task 1233 on nid01403
task 1234 on nid01403
task 1235 on nid01403
task 1236 on nid01403
task 1237 on nid01403
task 1238 on nid01403
task 1239 on nid01403
task 124 on nid00445
task 1240 on nid01404
task 1241 on nid01404
task 1242 on nid01404
task 1243 on nid01404
task 1244 on nid01404
task 1245 on nid01404
task 1246 on nid01404
task 1247 on nid01404
task 1248 on nid01405
task 1249 on nid01405
task 125 on nid00445
task 1250 on nid01405
task 1251 on nid01405
task 1252 on nid01405
task 1253 on nid01405
task 1254 on nid01405
task 1255 on nid01405
task 1256 on nid01406
task 1257 on nid01406
task 1258 on nid01406
task 1259 on nid01406
task 126 on nid00445
task 1260 on nid01406
task 1261 on nid01406
task 1262 on nid01406
task 1263 on nid01406
task 1264 on nid01407
task 1265 on nid01407
task 1266 on nid01407
task 1267 on nid01407
task 1268 on nid01407
task 1269 on nid01407
task 127 on nid00445
task 1270 on nid01407
task 1271 on nid01407
task 1272 on nid01425
task 1273 on nid01425
task 1274 on nid01425
task 1275 on nid01425
task 1276 on nid01425
task 1277 on nid01425
task 1278 on nid01425
task 1279 on nid01425
task 128 on nid00446
task 1280 on nid01426
task 1281 on nid01426
task 1282 on nid01426
task 1283 on nid01426
task 1284 on nid01426
task 1285 on nid01426
task 1286 on nid01426
task 1287 on nid01426
task 1288 on nid01427
task 1289 on nid01427
task 129 on nid00446
task 1290 on nid01427
task 1291 on nid01427
task 1292 on nid01427
task 1293 on nid01427
task 1294 on nid01427
task 1295 on nid01427
task 1296 on nid01428
task 1297 on nid01428
task 1298 on nid01428
task 1299 on nid01428
task 13 on nid00351
task 130 on nid00446
task 1300 on nid01428
task 1301 on nid01428
task 1302 on nid01428
task 1303 on nid01428
task 1304 on nid01429
task 1305 on nid01429
task 1306 on nid01429
task 1307 on nid01429
task 1308 on nid01429
task 1309 on nid01429
task 131 on nid00446
task 1310 on nid01429
task 1311 on nid01429
task 1312 on nid01430
task 1313 on nid01430
task 1314 on nid01430
task 1315 on nid01430
task 1316 on nid01430
task 1317 on nid01430
task 1318 on nid01430
task 1319 on nid01430
task 132 on nid00446
task 1320 on nid01431
task 1321 on nid01431
task 1322 on nid01431
task 1323 on nid01431
task 1324 on nid01431
task 1325 on nid01431
task 1326 on nid01431
task 1327 on nid01431
task 1328 on nid01500
task 1329 on nid01500
task 133 on nid00446
task 1330 on nid01500
task 1331 on nid01500
task 1332 on nid01500
task 1333 on nid01500
task 1334 on nid01500
task 1335 on nid01500
task 1336 on nid01501
task 1337 on nid01501
task 1338 on nid01501
task 1339 on nid01501
task 134 on nid00446
task 1340 on nid01501
task 1341 on nid01501
task 1342 on nid01501
task 1343 on nid01501
task 1344 on nid01502
task 1345 on nid01502
task 1346 on nid01502
task 1347 on nid01502
task 1348 on nid01502
task 1349 on nid01502
task 135 on nid00446
task 1350 on nid01502
task 1351 on nid01502
task 1352 on nid01503
task 1353 on nid01503
task 1354 on nid01503
task 1355 on nid01503
task 1356 on nid01503
task 1357 on nid01503
task 1358 on nid01503
task 1359 on nid01503
task 136 on nid00447
task 1360 on nid01532
task 1361 on nid01532
task 1362 on nid01532
task 1363 on nid01532
task 1364 on nid01532
task 1365 on nid01532
task 1366 on nid01532
task 1367 on nid01532
task 1368 on nid01533
task 1369 on nid01533
task 137 on nid00447
task 1370 on nid01533
task 1371 on nid01533
task 1372 on nid01533
task 1373 on nid01533
task 1374 on nid01533
task 1375 on nid01533
task 1376 on nid01534
task 1377 on nid01534
task 1378 on nid01534
task 1379 on nid01534
task 138 on nid00447
task 1380 on nid01534
task 1381 on nid01534
task 1382 on nid01534
task 1383 on nid01534
task 1384 on nid01535
task 1385 on nid01535
task 1386 on nid01535
task 1387 on nid01535
task 1388 on nid01535
task 1389 on nid01535
task 139 on nid00447
task 1390 on nid01535
task 1391 on nid01535
task 1392 on nid01588
task 1393 on nid01588
task 1394 on nid01588
task 1395 on nid01588
task 1396 on nid01588
task 1397 on nid01588
task 1398 on nid01588
task 1399 on nid01588
task 14 on nid00351
task 140 on nid00447
task 1400 on nid01589
task 1401 on nid01589
task 1402 on nid01589
task 1403 on nid01589
task 1404 on nid01589
task 1405 on nid01589
task 1406 on nid01589
task 1407 on nid01589
task 1408 on nid01590
task 1409 on nid01590
task 141 on nid00447
task 1410 on nid01590
task 1411 on nid01590
task 1412 on nid01590
task 1413 on nid01590
task 1414 on nid01590
task 1415 on nid01590
task 1416 on nid01591
task 1417 on nid01591
task 1418 on nid01591
task 1419 on nid01591
task 142 on nid00447
task 1420 on nid01591
task 1421 on nid01591
task 1422 on nid01591
task 1423 on nid01591
task 1424 on nid01688
task 1425 on nid01688
task 1426 on nid01688
task 1427 on nid01688
task 1428 on nid01688
task 1429 on nid01688
task 143 on nid00447
task 1430 on nid01688
task 1431 on nid01688
task 1432 on nid01689
task 1433 on nid01689
task 1434 on nid01689
task 1435 on nid01689
task 1436 on nid01689
task 1437 on nid01689
task 1438 on nid01689
task 1439 on nid01689
task 144 on nid00540
task 1440 on nid01690
task 1441 on nid01690
task 1442 on nid01690
task 1443 on nid01690
task 1444 on nid01690
task 1445 on nid01690
task 1446 on nid01690
task 1447 on nid01690
task 1448 on nid01691
task 1449 on nid01691
task 145 on nid00540
task 1450 on nid01691
task 1451 on nid01691
task 1452 on nid01691
task 1453 on nid01691
task 1454 on nid01691
task 1455 on nid01691
task 1456 on nid01692
task 1457 on nid01692
task 1458 on nid01692
task 1459 on nid01692
task 146 on nid00540
task 1460 on nid01692
task 1461 on nid01692
task 1462 on nid01692
task 1463 on nid01692
task 1464 on nid01693
task 1465 on nid01693
task 1466 on nid01693
task 1467 on nid01693
task 1468 on nid01693
task 1469 on nid01693
task 147 on nid00540
task 1470 on nid01693
task 1471 on nid01693
task 1472 on nid01700
task 1473 on nid01700
task 1474 on nid01700
task 1475 on nid01700
task 1476 on nid01700
task 1477 on nid01700
task 1478 on nid01700
task 1479 on nid01700
task 148 on nid00540
task 1480 on nid01701
task 1481 on nid01701
task 1482 on nid01701
task 1483 on nid01701
task 1484 on nid01701
task 1485 on nid01701
task 1486 on nid01701
task 1487 on nid01701
task 1488 on nid01702
task 1489 on nid01702
task 149 on nid00540
task 1490 on nid01702
task 1491 on nid01702
task 1492 on nid01702
task 1493 on nid01702
task 1494 on nid01702
task 1495 on nid01702
task 1496 on nid01703
task 1497 on nid01703
task 1498 on nid01703
task 1499 on nid01703
task 15 on nid00351
task 150 on nid00540
task 1500 on nid01703
task 1501 on nid01703
task 1502 on nid01703
task 1503 on nid01703
task 1504 on nid01708
task 1505 on nid01708
task 1506 on nid01708
task 1507 on nid01708
task 1508 on nid01708
task 1509 on nid01708
task 151 on nid00540
task 1510 on nid01708
task 1511 on nid01708
task 1512 on nid01709
task 1513 on nid01709
task 1514 on nid01709
task 1515 on nid01709
task 1516 on nid01709
task 1517 on nid01709
task 1518 on nid01709
task 1519 on nid01709
task 152 on nid00543
task 1520 on nid01716
task 1521 on nid01716
task 1522 on nid01716
task 1523 on nid01716
task 1524 on nid01716
task 1525 on nid01716
task 1526 on nid01716
task 1527 on nid01716
task 1528 on nid01717
task 1529 on nid01717
task 153 on nid00543
task 1530 on nid01717
task 1531 on nid01717
task 1532 on nid01717
task 1533 on nid01717
task 1534 on nid01717
task 1535 on nid01717
task 1536 on nid01718
task 1537 on nid01718
task 1538 on nid01718
task 1539 on nid01718
task 154 on nid00543
task 1540 on nid01718
task 1541 on nid01718
task 1542 on nid01718
task 1543 on nid01718
task 1544 on nid01719
task 1545 on nid01719
task 1546 on nid01719
task 1547 on nid01719
task 1548 on nid01719
task 1549 on nid01719
task 155 on nid00543
task 1550 on nid01719
task 1551 on nid01719
task 1552 on nid01756
task 1553 on nid01756
task 1554 on nid01756
task 1555 on nid01756
task 1556 on nid01756
task 1557 on nid01756
task 1558 on nid01756
task 1559 on nid01756
task 156 on nid00543
task 1560 on nid01757
task 1561 on nid01757
task 1562 on nid01757
task 1563 on nid01757
task 1564 on nid01757
task 1565 on nid01757
task 1566 on nid01757
task 1567 on nid01757
task 1568 on nid01758
task 1569 on nid01758
task 157 on nid00543
task 1570 on nid01758
task 1571 on nid01758
task 1572 on nid01758
task 1573 on nid01758
task 1574 on nid01758
task 1575 on nid01758
task 1576 on nid01759
task 1577 on nid01759
task 1578 on nid01759
task 1579 on nid01759
task 158 on nid00543
task 1580 on nid01759
task 1581 on nid01759
task 1582 on nid01759
task 1583 on nid01759
task 1584 on nid01780
task 1585 on nid01780
task 1586 on nid01780
task 1587 on nid01780
task 1588 on nid01780
task 1589 on nid01780
task 159 on nid00543
task 1590 on nid01780
task 1591 on nid01780
task 1592 on nid01781
task 1593 on nid01781
task 1594 on nid01781
task 1595 on nid01781
task 1596 on nid01781
task 1597 on nid01781
task 1598 on nid01781
task 1599 on nid01781
task 16 on nid00380
task 160 on nid00560
task 1600 on nid01782
task 1601 on nid01782
task 1602 on nid01782
task 1603 on nid01782
task 1604 on nid01782
task 1605 on nid01782
task 1606 on nid01782
task 1607 on nid01782
task 1608 on nid01783
task 1609 on nid01783
task 161 on nid00560
task 1610 on nid01783
task 1611 on nid01783
task 1612 on nid01783
task 1613 on nid01783
task 1614 on nid01783
task 1615 on nid01783
task 1616 on nid01808
task 1617 on nid01808
task 1618 on nid01808
task 1619 on nid01808
task 162 on nid00560
task 1620 on nid01808
task 1621 on nid01808
task 1622 on nid01808
task 1623 on nid01808
task 1624 on nid01809
task 1625 on nid01809
task 1626 on nid01809
task 1627 on nid01809
task 1628 on nid01809
task 1629 on nid01809
task 163 on nid00560
task 1630 on nid01809
task 1631 on nid01809
task 1632 on nid01810
task 1633 on nid01810
task 1634 on nid01810
task 1635 on nid01810
task 1636 on nid01810
task 1637 on nid01810
task 1638 on nid01810
task 1639 on nid01810
task 164 on nid00560
task 1640 on nid01811
task 1641 on nid01811
task 1642 on nid01811
task 1643 on nid01811
task 1644 on nid01811
task 1645 on nid01811
task 1646 on nid01811
task 1647 on nid01811
task 1648 on nid01812
task 1649 on nid01812
task 165 on nid00560
task 1650 on nid01812
task 1651 on nid01812
task 1652 on nid01812
task 1653 on nid01812
task 1654 on nid01812
task 1655 on nid01812
task 1656 on nid01813
task 1657 on nid01813
task 1658 on nid01813
task 1659 on nid01813
task 166 on nid00560
task 1660 on nid01813
task 1661 on nid01813
task 1662 on nid01813
task 1663 on nid01813
task 1664 on nid01814
task 1665 on nid01814
task 1666 on nid01814
task 1667 on nid01814
task 1668 on nid01814
task 1669 on nid01814
task 167 on nid00560
task 1670 on nid01814
task 1671 on nid01814
task 1672 on nid01815
task 1673 on nid01815
task 1674 on nid01815
task 1675 on nid01815
task 1676 on nid01815
task 1677 on nid01815
task 1678 on nid01815
task 1679 on nid01815
task 168 on nid00561
task 1680 on nid01816
task 1681 on nid01816
task 1682 on nid01816
task 1683 on nid01816
task 1684 on nid01816
task 1685 on nid01816
task 1686 on nid01816
task 1687 on nid01816
task 1688 on nid01817
task 1689 on nid01817
task 169 on nid00561
task 1690 on nid01817
task 1691 on nid01817
task 1692 on nid01817
task 1693 on nid01817
task 1694 on nid01817
task 1695 on nid01817
task 1696 on nid01818
task 1697 on nid01818
task 1698 on nid01818
task 1699 on nid01818
task 17 on nid00380
task 170 on nid00561
task 1700 on nid01818
task 1701 on nid01818
task 1702 on nid01818
task 1703 on nid01818
task 1704 on nid01824
task 1705 on nid01824
task 1706 on nid01824
task 1707 on nid01824
task 1708 on nid01824
task 1709 on nid01824
task 171 on nid00561
task 1710 on nid01824
task 1711 on nid01824
task 1712 on nid01826
task 1713 on nid01826
task 1714 on nid01826
task 1715 on nid01826
task 1716 on nid01826
task 1717 on nid01826
task 1718 on nid01826
task 1719 on nid01826
task 172 on nid00561
task 1720 on nid01827
task 1721 on nid01827
task 1722 on nid01827
task 1723 on nid01827
task 1724 on nid01827
task 1725 on nid01827
task 1726 on nid01827
task 1727 on nid01827
task 1728 on nid01876
task 1729 on nid01876
task 173 on nid00561
task 1730 on nid01876
task 1731 on nid01876
task 1732 on nid01876
task 1733 on nid01876
task 1734 on nid01876
task 1735 on nid01876
task 1736 on nid01877
task 1737 on nid01877
task 1738 on nid01877
task 1739 on nid01877
task 174 on nid00561
task 1740 on nid01877
task 1741 on nid01877
task 1742 on nid01877
task 1743 on nid01877
task 1744 on nid01878
task 1745 on nid01878
task 1746 on nid01878
task 1747 on nid01878
task 1748 on nid01878
task 1749 on nid01878
task 175 on nid00561
task 1750 on nid01878
task 1751 on nid01878
task 1752 on nid01879
task 1753 on nid01879
task 1754 on nid01879
task 1755 on nid01879
task 1756 on nid01879
task 1757 on nid01879
task 1758 on nid01879
task 1759 on nid01879
task 176 on nid00562
task 1760 on nid01892
task 1761 on nid01892
task 1762 on nid01892
task 1763 on nid01892
task 1764 on nid01892
task 1765 on nid01892
task 1766 on nid01892
task 1767 on nid01892
task 1768 on nid01893
task 1769 on nid01893
task 177 on nid00562
task 1770 on nid01893
task 1771 on nid01893
task 1772 on nid01893
task 1773 on nid01893
task 1774 on nid01893
task 1775 on nid01893
task 1776 on nid01895
task 1777 on nid01895
task 1778 on nid01895
task 1779 on nid01895
task 178 on nid00562
task 1780 on nid01895
task 1781 on nid01895
task 1782 on nid01895
task 1783 on nid01895
task 1784 on nid01909
task 1785 on nid01909
task 1786 on nid01909
task 1787 on nid01909
task 1788 on nid01909
task 1789 on nid01909
task 179 on nid00562
task 1790 on nid01909
task 1791 on nid01909
task 1792 on nid01910
task 1793 on nid01910
task 1794 on nid01910
task 1795 on nid01910
task 1796 on nid01910
task 1797 on nid01910
task 1798 on nid01910
task 1799 on nid01910
task 18 on nid00380
task 180 on nid00562
task 1800 on nid01911
task 1801 on nid01911
task 1802 on nid01911
task 1803 on nid01911
task 1804 on nid01911
task 1805 on nid01911
task 1806 on nid01911
task 1807 on nid01911
task 1808 on nid01916
task 1809 on nid01916
task 181 on nid00562
task 1810 on nid01916
task 1811 on nid01916
task 1812 on nid01916
task 1813 on nid01916
task 1814 on nid01916
task 1815 on nid01916
task 1816 on nid01917
task 1817 on nid01917
task 1818 on nid01917
task 1819 on nid01917
task 182 on nid00562
task 1820 on nid01917
task 1821 on nid01917
task 1822 on nid01917
task 1823 on nid01917
task 1824 on nid01918
task 1825 on nid01918
task 1826 on nid01918
task 1827 on nid01918
task 1828 on nid01918
task 1829 on nid01918
task 183 on nid00562
task 1830 on nid01918
task 1831 on nid01918
task 1832 on nid01919
task 1833 on nid01919
task 1834 on nid01919
task 1835 on nid01919
task 1836 on nid01919
task 1837 on nid01919
task 1838 on nid01919
task 1839 on nid01919
task 184 on nid00566
task 1840 on nid01973
task 1841 on nid01973
task 1842 on nid01973
task 1843 on nid01973
task 1844 on nid01973
task 1845 on nid01973
task 1846 on nid01973
task 1847 on nid01973
task 1848 on nid01975
task 1849 on nid01975
task 185 on nid00566
task 1850 on nid01975
task 1851 on nid01975
task 1852 on nid01975
task 1853 on nid01975
task 1854 on nid01975
task 1855 on nid01975
task 1856 on nid02002
task 1857 on nid02002
task 1858 on nid02002
task 1859 on nid02002
task 186 on nid00566
task 1860 on nid02002
task 1861 on nid02002
task 1862 on nid02002
task 1863 on nid02002
task 1864 on nid02003
task 1865 on nid02003
task 1866 on nid02003
task 1867 on nid02003
task 1868 on nid02003
task 1869 on nid02003
task 187 on nid00566
task 1870 on nid02003
task 1871 on nid02003
task 1872 on nid02013
task 1873 on nid02013
task 1874 on nid02013
task 1875 on nid02013
task 1876 on nid02013
task 1877 on nid02013
task 1878 on nid02013
task 1879 on nid02013
task 188 on nid00566
task 1880 on nid02014
task 1881 on nid02014
task 1882 on nid02014
task 1883 on nid02014
task 1884 on nid02014
task 1885 on nid02014
task 1886 on nid02014
task 1887 on nid02014
task 1888 on nid02096
task 1889 on nid02096
task 189 on nid00566
task 1890 on nid02096
task 1891 on nid02096
task 1892 on nid02096
task 1893 on nid02096
task 1894 on nid02096
task 1895 on nid02096
task 1896 on nid02097
task 1897 on nid02097
task 1898 on nid02097
task 1899 on nid02097
task 19 on nid00380
task 190 on nid00566
task 1900 on nid02097
task 1901 on nid02097
task 1902 on nid02097
task 1903 on nid02097
task 1904 on nid02148
task 1905 on nid02148
task 1906 on nid02148
task 1907 on nid02148
task 1908 on nid02148
task 1909 on nid02148
task 191 on nid00566
task 1910 on nid02148
task 1911 on nid02148
task 1912 on nid02149
task 1913 on nid02149
task 1914 on nid02149
task 1915 on nid02149
task 1916 on nid02149
task 1917 on nid02149
task 1918 on nid02149
task 1919 on nid02149
task 192 on nid00567
task 1920 on nid02192
task 1921 on nid02192
task 1922 on nid02192
task 1923 on nid02192
task 1924 on nid02192
task 1925 on nid02192
task 1926 on nid02192
task 1927 on nid02192
task 1928 on nid02193
task 1929 on nid02193
task 193 on nid00567
task 1930 on nid02193
task 1931 on nid02193
task 1932 on nid02193
task 1933 on nid02193
task 1934 on nid02193
task 1935 on nid02193
task 1936 on nid02194
task 1937 on nid02194
task 1938 on nid02194
task 1939 on nid02194
task 194 on nid00567
task 1940 on nid02194
task 1941 on nid02194
task 1942 on nid02194
task 1943 on nid02194
task 1944 on nid02195
task 1945 on nid02195
task 1946 on nid02195
task 1947 on nid02195
task 1948 on nid02195
task 1949 on nid02195
task 195 on nid00567
task 1950 on nid02195
task 1951 on nid02195
task 1952 on nid02196
task 1953 on nid02196
task 1954 on nid02196
task 1955 on nid02196
task 1956 on nid02196
task 1957 on nid02196
task 1958 on nid02196
task 1959 on nid02196
task 196 on nid00567
task 1960 on nid02197
task 1961 on nid02197
task 1962 on nid02197
task 1963 on nid02197
task 1964 on nid02197
task 1965 on nid02197
task 1966 on nid02197
task 1967 on nid02197
task 1968 on nid02198
task 1969 on nid02198
task 197 on nid00567
task 1970 on nid02198
task 1971 on nid02198
task 1972 on nid02198
task 1973 on nid02198
task 1974 on nid02198
task 1975 on nid02198
task 1976 on nid02199
task 1977 on nid02199
task 1978 on nid02199
task 1979 on nid02199
task 198 on nid00567
task 1980 on nid02199
task 1981 on nid02199
task 1982 on nid02199
task 1983 on nid02199
task 1984 on nid02232
task 1985 on nid02232
task 1986 on nid02232
task 1987 on nid02232
task 1988 on nid02232
task 1989 on nid02232
task 199 on nid00567
task 1990 on nid02232
task 1991 on nid02232
task 1992 on nid02233
task 1993 on nid02233
task 1994 on nid02233
task 1995 on nid02233
task 1996 on nid02233
task 1997 on nid02233
task 1998 on nid02233
task 1999 on nid02233
task 2 on nid00238
task 20 on nid00380
task 200 on nid00620
task 2000 on nid02234
task 2001 on nid02234
task 2002 on nid02234
task 2003 on nid02234
task 2004 on nid02234
task 2005 on nid02234
task 2006 on nid02234
task 2007 on nid02234
task 2008 on nid02235
task 2009 on nid02235
task 201 on nid00620
task 2010 on nid02235
task 2011 on nid02235
task 2012 on nid02235
task 2013 on nid02235
task 2014 on nid02235
task 2015 on nid02235
task 2016 on nid02236
task 2017 on nid02236
task 2018 on nid02236
task 2019 on nid02236
task 202 on nid00620
task 2020 on nid02236
task 2021 on nid02236
task 2022 on nid02236
task 2023 on nid02236
task 2024 on nid02237
task 2025 on nid02237
task 2026 on nid02237
task 2027 on nid02237
task 2028 on nid02237
task 2029 on nid02237
task 203 on nid00620
task 2030 on nid02237
task 2031 on nid02237
task 2032 on nid02238
task 2033 on nid02238
task 2034 on nid02238
task 2035 on nid02238
task 2036 on nid02238
task 2037 on nid02238
task 2038 on nid02238
task 2039 on nid02238
task 204 on nid00620
task 2040 on nid02239
task 2041 on nid02239
task 2042 on nid02239
task 2043 on nid02239
task 2044 on nid02239
task 2045 on nid02239
task 2046 on nid02239
task 2047 on nid02239
task 205 on nid00620
task 206 on nid00620
task 207 on nid00620
task 208 on nid00621
task 209 on nid00621
task 21 on nid00380
task 210 on nid00621
task 211 on nid00621
task 212 on nid00621
task 213 on nid00621
task 214 on nid00621
task 215 on nid00621
task 216 on nid00631
task 217 on nid00631
task 218 on nid00631
task 219 on nid00631
task 22 on nid00380
task 220 on nid00631
task 221 on nid00631
task 222 on nid00631
task 223 on nid00631
task 224 on nid00636
task 225 on nid00636
task 226 on nid00636
task 227 on nid00636
task 228 on nid00636
task 229 on nid00636
task 23 on nid00380
task 230 on nid00636
task 231 on nid00636
task 232 on nid00662
task 233 on nid00662
task 234 on nid00662
task 235 on nid00662
task 236 on nid00662
task 237 on nid00662
task 238 on nid00662
task 239 on nid00662
task 24 on nid00381
task 240 on nid00663
task 241 on nid00663
task 242 on nid00663
task 243 on nid00663
task 244 on nid00663
task 245 on nid00663
task 246 on nid00663
task 247 on nid00663
task 248 on nid00668
task 249 on nid00668
task 25 on nid00381
task 250 on nid00668
task 251 on nid00668
task 252 on nid00668
task 253 on nid00668
task 254 on nid00668
task 255 on nid00668
task 256 on nid00669
task 257 on nid00669
task 258 on nid00669
task 259 on nid00669
task 26 on nid00381
task 260 on nid00669
task 261 on nid00669
task 262 on nid00669
task 263 on nid00669
task 264 on nid00670
task 265 on nid00670
task 266 on nid00670
task 267 on nid00670
task 268 on nid00670
task 269 on nid00670
task 27 on nid00381
task 270 on nid00670
task 271 on nid00670
task 272 on nid00671
task 273 on nid00671
task 274 on nid00671
task 275 on nid00671
task 276 on nid00671
task 277 on nid00671
task 278 on nid00671
task 279 on nid00671
task 28 on nid00381
task 280 on nid00672
task 281 on nid00672
task 282 on nid00672
task 283 on nid00672
task 284 on nid00672
task 285 on nid00672
task 286 on nid00672
task 287 on nid00672
task 288 on nid00673
task 289 on nid00673
task 29 on nid00381
task 290 on nid00673
task 291 on nid00673
task 292 on nid00673
task 293 on nid00673
task 294 on nid00673
task 295 on nid00673
task 296 on nid00674
task 297 on nid00674
task 298 on nid00674
task 299 on nid00674
task 3 on nid00238
task 30 on nid00381
task 300 on nid00674
task 301 on nid00674
task 302 on nid00674
task 303 on nid00674
task 304 on nid00675
task 305 on nid00675
task 306 on nid00675
task 307 on nid00675
task 308 on nid00675
task 309 on nid00675
task 31 on nid00381
task 310 on nid00675
task 311 on nid00675
task 312 on nid00676
task 313 on nid00676
task 314 on nid00676
task 315 on nid00676
task 316 on nid00676
task 317 on nid00676
task 318 on nid00676
task 319 on nid00676
task 32 on nid00426
task 320 on nid00677
task 321 on nid00677
task 322 on nid00677
task 323 on nid00677
task 324 on nid00677
task 325 on nid00677
task 326 on nid00677
task 327 on nid00677
task 328 on nid00678
task 329 on nid00678
task 33 on nid00426
task 330 on nid00678
task 331 on nid00678
task 332 on nid00678
task 333 on nid00678
task 334 on nid00678
task 335 on nid00678
task 336 on nid00679
task 337 on nid00679
task 338 on nid00679
task 339 on nid00679
task 34 on nid00426
task 340 on nid00679
task 341 on nid00679
task 342 on nid00679
task 343 on nid00679
task 344 on nid00680
task 345 on nid00680
task 346 on nid00680
task 347 on nid00680
task 348 on nid00680
task 349 on nid00680
task 35 on nid00426
task 350 on nid00680
task 351 on nid00680
task 352 on nid00682
task 353 on nid00682
task 354 on nid00682
task 355 on nid00682
task 356 on nid00682
task 357 on nid00682
task 358 on nid00682
task 359 on nid00682
task 36 on nid00426
task 360 on nid00683
task 361 on nid00683
task 362 on nid00683
task 363 on nid00683
task 364 on nid00683
task 365 on nid00683
task 366 on nid00683
task 367 on nid00683
task 368 on nid00692
task 369 on nid00692
task 37 on nid00426
task 370 on nid00692
task 371 on nid00692
task 372 on nid00692
task 373 on nid00692
task 374 on nid00692
task 375 on nid00692
task 376 on nid00693
task 377 on nid00693
task 378 on nid00693
task 379 on nid00693
task 38 on nid00426
task 380 on nid00693
task 381 on nid00693
task 382 on nid00693
task 383 on nid00693
task 384 on nid00694
task 385 on nid00694
task 386 on nid00694
task 387 on nid00694
task 388 on nid00694
task 389 on nid00694
task 39 on nid00426
task 390 on nid00694
task 391 on nid00694
task 392 on nid00695
task 393 on nid00695
task 394 on nid00695
task 395 on nid00695
task 396 on nid00695
task 397 on nid00695
task 398 on nid00695
task 399 on nid00695
task 4 on nid00238
task 40 on nid00427
task 400 on nid00721
task 401 on nid00721
task 402 on nid00721
task 403 on nid00721
task 404 on nid00721
task 405 on nid00721
task 406 on nid00721
task 407 on nid00721
task 408 on nid00722
task 409 on nid00722
task 41 on nid00427
task 410 on nid00722
task 411 on nid00722
task 412 on nid00722
task 413 on nid00722
task 414 on nid00722
task 415 on nid00722
task 416 on nid00728
task 417 on nid00728
task 418 on nid00728
task 419 on nid00728
task 42 on nid00427
task 420 on nid00728
task 421 on nid00728
task 422 on nid00728
task 423 on nid00728
task 424 on nid00729
task 425 on nid00729
task 426 on nid00729
task 427 on nid00729
task 428 on nid00729
task 429 on nid00729
task 43 on nid00427
task 430 on nid00729
task 431 on nid00729
task 432 on nid00730
task 433 on nid00730
task 434 on nid00730
task 435 on nid00730
task 436 on nid00730
task 437 on nid00730
task 438 on nid00730
task 439 on nid00730
task 44 on nid00427
task 440 on nid00731
task 441 on nid00731
task 442 on nid00731
task 443 on nid00731
task 444 on nid00731
task 445 on nid00731
task 446 on nid00731
task 447 on nid00731
task 448 on nid00736
task 449 on nid00736
task 45 on nid00427
task 450 on nid00736
task 451 on nid00736
task 452 on nid00736
task 453 on nid00736
task 454 on nid00736
task 455 on nid00736
task 456 on nid00737
task 457 on nid00737
task 458 on nid00737
task 459 on nid00737
task 46 on nid00427
task 460 on nid00737
task 461 on nid00737
task 462 on nid00737
task 463 on nid00737
task 464 on nid00741
task 465 on nid00741
task 466 on nid00741
task 467 on nid00741
task 468 on nid00741
task 469 on nid00741
task 47 on nid00427
task 470 on nid00741
task 471 on nid00741
task 472 on nid00743
task 473 on nid00743
task 474 on nid00743
task 475 on nid00743
task 476 on nid00743
task 477 on nid00743
task 478 on nid00743
task 479 on nid00743
task 48 on nid00428
task 480 on nid00746
task 481 on nid00746
task 482 on nid00746
task 483 on nid00746
task 484 on nid00746
task 485 on nid00746
task 486 on nid00746
task 487 on nid00746
task 488 on nid00756
task 489 on nid00756
task 49 on nid00428
task 490 on nid00756
task 491 on nid00756
task 492 on nid00756
task 493 on nid00756
task 494 on nid00756
task 495 on nid00756
task 496 on nid00757
task 497 on nid00757
task 498 on nid00757
task 499 on nid00757
task 5 on nid00238
task 50 on nid00428
task 500 on nid00757
task 501 on nid00757
task 502 on nid00757
task 503 on nid00757
task 504 on nid00758
task 505 on nid00758
task 506 on nid00758
task 507 on nid00758
task 508 on nid00758
task 509 on nid00758
task 51 on nid00428
task 510 on nid00758
task 511 on nid00758
task 512 on nid00759
task 513 on nid00759
task 514 on nid00759
task 515 on nid00759
task 516 on nid00759
task 517 on nid00759
task 518 on nid00759
task 519 on nid00759
task 52 on nid00428
task 520 on nid00761
task 521 on nid00761
task 522 on nid00761
task 523 on nid00761
task 524 on nid00761
task 525 on nid00761
task 526 on nid00761
task 527 on nid00761
task 528 on nid00763
task 529 on nid00763
task 53 on nid00428
task 530 on nid00763
task 531 on nid00763
task 532 on nid00763
task 533 on nid00763
task 534 on nid00763
task 535 on nid00763
task 536 on nid00789
task 537 on nid00789
task 538 on nid00789
task 539 on nid00789
task 54 on nid00428
task 540 on nid00789
task 541 on nid00789
task 542 on nid00789
task 543 on nid00789
task 544 on nid00790
task 545 on nid00790
task 546 on nid00790
task 547 on nid00790
task 548 on nid00790
task 549 on nid00790
task 55 on nid00428
task 550 on nid00790
task 551 on nid00790
task 552 on nid00791
task 553 on nid00791
task 554 on nid00791
task 555 on nid00791
task 556 on nid00791
task 557 on nid00791
task 558 on nid00791
task 559 on nid00791
task 56 on nid00429
task 560 on nid00810
task 561 on nid00810
task 562 on nid00810
task 563 on nid00810
task 564 on nid00810
task 565 on nid00810
task 566 on nid00810
task 567 on nid00810
task 568 on nid00811
task 569 on nid00811
task 57 on nid00429
task 570 on nid00811
task 571 on nid00811
task 572 on nid00811
task 573 on nid00811
task 574 on nid00811
task 575 on nid00811
task 576 on nid00814
task 577 on nid00814
task 578 on nid00814
task 579 on nid00814
task 58 on nid00429
task 580 on nid00814
task 581 on nid00814
task 582 on nid00814
task 583 on nid00814
task 584 on nid00815
task 585 on nid00815
task 586 on nid00815
task 587 on nid00815
task 588 on nid00815
task 589 on nid00815
task 59 on nid00429
task 590 on nid00815
task 591 on nid00815
task 592 on nid00821
task 593 on nid00821
task 594 on nid00821
task 595 on nid00821
task 596 on nid00821
task 597 on nid00821
task 598 on nid00821
task 599 on nid00821
task 6 on nid00238
task 60 on nid00429
task 600 on nid00824
task 601 on nid00824
task 602 on nid00824
task 603 on nid00824
task 604 on nid00824
task 605 on nid00824
task 606 on nid00824
task 607 on nid00824
task 608 on nid00825
task 609 on nid00825
task 61 on nid00429
task 610 on nid00825
task 611 on nid00825
task 612 on nid00825
task 613 on nid00825
task 614 on nid00825
task 615 on nid00825
task 616 on nid00828
task 617 on nid00828
task 618 on nid00828
task 619 on nid00828
task 62 on nid00429
task 620 on nid00828
task 621 on nid00828
task 622 on nid00828
task 623 on nid00828
task 624 on nid00829
task 625 on nid00829
task 626 on nid00829
task 627 on nid00829
task 628 on nid00829
task 629 on nid00829
task 63 on nid00429
task 630 on nid00829
task 631 on nid00829
task 632 on nid00830
task 633 on nid00830
task 634 on nid00830
task 635 on nid00830
task 636 on nid00830
task 637 on nid00830
task 638 on nid00830
task 639 on nid00830
task 64 on nid00430
task 640 on nid00831
task 641 on nid00831
task 642 on nid00831
task 643 on nid00831
task 644 on nid00831
task 645 on nid00831
task 646 on nid00831
task 647 on nid00831
task 648 on nid00856
task 649 on nid00856
task 65 on nid00430
task 650 on nid00856
task 651 on nid00856
task 652 on nid00856
task 653 on nid00856
task 654 on nid00856
task 655 on nid00856
task 656 on nid00857
task 657 on nid00857
task 658 on nid00857
task 659 on nid00857
task 66 on nid00430
task 660 on nid00857
task 661 on nid00857
task 662 on nid00857
task 663 on nid00857
task 664 on nid00858
task 665 on nid00858
task 666 on nid00858
task 667 on nid00858
task 668 on nid00858
task 669 on nid00858
task 67 on nid00430
task 670 on nid00858
task 671 on nid00858
task 672 on nid00859
task 673 on nid00859
task 674 on nid00859
task 675 on nid00859
task 676 on nid00859
task 677 on nid00859
task 678 on nid00859
task 679 on nid00859
task 68 on nid00430
task 680 on nid00920
task 681 on nid00920
task 682 on nid00920
task 683 on nid00920
task 684 on nid00920
task 685 on nid00920
task 686 on nid00920
task 687 on nid00920
task 688 on nid00921
task 689 on nid00921
task 69 on nid00430
task 690 on nid00921
task 691 on nid00921
task 692 on nid00921
task 693 on nid00921
task 694 on nid00921
task 695 on nid00921
task 696 on nid00932
task 697 on nid00932
task 698 on nid00932
task 699 on nid00932
task 7 on nid00238
task 70 on nid00430
task 700 on nid00932
task 701 on nid00932
task 702 on nid00932
task 703 on nid00932
task 704 on nid00934
task 705 on nid00934
task 706 on nid00934
task 707 on nid00934
task 708 on nid00934
task 709 on nid00934
task 71 on nid00430
task 710 on nid00934
task 711 on nid00934
task 712 on nid00935
task 713 on nid00935
task 714 on nid00935
task 715 on nid00935
task 716 on nid00935
task 717 on nid00935
task 718 on nid00935
task 719 on nid00935
task 72 on nid00431
task 720 on nid00980
task 721 on nid00980
task 722 on nid00980
task 723 on nid00980
task 724 on nid00980
task 725 on nid00980
task 726 on nid00980
task 727 on nid00980
task 728 on nid00981
task 729 on nid00981
task 73 on nid00431
task 730 on nid00981
task 731 on nid00981
task 732 on nid00981
task 733 on nid00981
task 734 on nid00981
task 735 on nid00981
task 736 on nid00982
task 737 on nid00982
task 738 on nid00982
task 739 on nid00982
task 74 on nid00431
task 740 on nid00982
task 741 on nid00982
task 742 on nid00982
task 743 on nid00982
task 744 on nid00983
task 745 on nid00983
task 746 on nid00983
task 747 on nid00983
task 748 on nid00983
task 749 on nid00983
task 75 on nid00431
task 750 on nid00983
task 751 on nid00983
task 752 on nid00988
task 753 on nid00988
task 754 on nid00988
task 755 on nid00988
task 756 on nid00988
task 757 on nid00988
task 758 on nid00988
task 759 on nid00988
task 76 on nid00431
task 760 on nid00989
task 761 on nid00989
task 762 on nid00989
task 763 on nid00989
task 764 on nid00989
task 765 on nid00989
task 766 on nid00989
task 767 on nid00989
task 768 on nid00990
task 769 on nid00990
task 77 on nid00431
task 770 on nid00990
task 771 on nid00990
task 772 on nid00990
task 773 on nid00990
task 774 on nid00990
task 775 on nid00990
task 776 on nid00991
task 777 on nid00991
task 778 on nid00991
task 779 on nid00991
task 78 on nid00431
task 780 on nid00991
task 781 on nid00991
task 782 on nid00991
task 783 on nid00991
task 784 on nid00992
task 785 on nid00992
task 786 on nid00992
task 787 on nid00992
task 788 on nid00992
task 789 on nid00992
task 79 on nid00431
task 790 on nid00992
task 791 on nid00992
task 792 on nid00994
task 793 on nid00994
task 794 on nid00994
task 795 on nid00994
task 796 on nid00994
task 797 on nid00994
task 798 on nid00994
task 799 on nid00994
task 8 on nid00351
task 80 on nid00436
task 800 on nid00995
task 801 on nid00995
task 802 on nid00995
task 803 on nid00995
task 804 on nid00995
task 805 on nid00995
task 806 on nid00995
task 807 on nid00995
task 808 on nid01004
task 809 on nid01004
task 81 on nid00436
task 810 on nid01004
task 811 on nid01004
task 812 on nid01004
task 813 on nid01004
task 814 on nid01004
task 815 on nid01004
task 816 on nid01005
task 817 on nid01005
task 818 on nid01005
task 819 on nid01005
task 82 on nid00436
task 820 on nid01005
task 821 on nid01005
task 822 on nid01005
task 823 on nid01005
task 824 on nid01006
task 825 on nid01006
task 826 on nid01006
task 827 on nid01006
task 828 on nid01006
task 829 on nid01006
task 83 on nid00436
task 830 on nid01006
task 831 on nid01006
task 832 on nid01007
task 833 on nid01007
task 834 on nid01007
task 835 on nid01007
task 836 on nid01007
task 837 on nid01007
task 838 on nid01007
task 839 on nid01007
task 84 on nid00436
task 840 on nid01012
task 841 on nid01012
task 842 on nid01012
task 843 on nid01012
task 844 on nid01012
task 845 on nid01012
task 846 on nid01012
task 847 on nid01012
task 848 on nid01013
task 849 on nid01013
task 85 on nid00436
task 850 on nid01013
task 851 on nid01013
task 852 on nid01013
task 853 on nid01013
task 854 on nid01013
task 855 on nid01013
task 856 on nid01014
task 857 on nid01014
task 858 on nid01014
task 859 on nid01014
task 86 on nid00436
task 860 on nid01014
task 861 on nid01014
task 862 on nid01014
task 863 on nid01014
task 864 on nid01015
task 865 on nid01015
task 866 on nid01015
task 867 on nid01015
task 868 on nid01015
task 869 on nid01015
task 87 on nid00436
task 870 on nid01015
task 871 on nid01015
task 872 on nid01017
task 873 on nid01017
task 874 on nid01017
task 875 on nid01017
task 876 on nid01017
task 877 on nid01017
task 878 on nid01017
task 879 on nid01017
task 88 on nid00437
task 880 on nid01020
task 881 on nid01020
task 882 on nid01020
task 883 on nid01020
task 884 on nid01020
task 885 on nid01020
task 886 on nid01020
task 887 on nid01020
task 888 on nid01021
task 889 on nid01021
task 89 on nid00437
task 890 on nid01021
task 891 on nid01021
task 892 on nid01021
task 893 on nid01021
task 894 on nid01021
task 895 on nid01021
task 896 on nid01022
task 897 on nid01022
task 898 on nid01022
task 899 on nid01022
task 9 on nid00351
task 90 on nid00437
task 900 on nid01022
task 901 on nid01022
task 902 on nid01022
task 903 on nid01022
task 904 on nid01023
task 905 on nid01023
task 906 on nid01023
task 907 on nid01023
task 908 on nid01023
task 909 on nid01023
task 91 on nid00437
task 910 on nid01023
task 911 on nid01023
task 912 on nid01064
task 913 on nid01064
task 914 on nid01064
task 915 on nid01064
task 916 on nid01064
task 917 on nid01064
task 918 on nid01064
task 919 on nid01064
task 92 on nid00437
task 920 on nid01076
task 921 on nid01076
task 922 on nid01076
task 923 on nid01076
task 924 on nid01076
task 925 on nid01076
task 926 on nid01076
task 927 on nid01076
task 928 on nid01077
task 929 on nid01077
task 93 on nid00437
task 930 on nid01077
task 931 on nid01077
task 932 on nid01077
task 933 on nid01077
task 934 on nid01077
task 935 on nid01077
task 936 on nid01078
task 937 on nid01078
task 938 on nid01078
task 939 on nid01078
task 94 on nid00437
task 940 on nid01078
task 941 on nid01078
task 942 on nid01078
task 943 on nid01078
task 944 on nid01079
task 945 on nid01079
task 946 on nid01079
task 947 on nid01079
task 948 on nid01079
task 949 on nid01079
task 95 on nid00437
task 950 on nid01079
task 951 on nid01079
task 952 on nid01108
task 953 on nid01108
task 954 on nid01108
task 955 on nid01108
task 956 on nid01108
task 957 on nid01108
task 958 on nid01108
task 959 on nid01108
task 96 on nid00438
task 960 on nid01109
task 961 on nid01109
task 962 on nid01109
task 963 on nid01109
task 964 on nid01109
task 965 on nid01109
task 966 on nid01109
task 967 on nid01109
task 968 on nid01110
task 969 on nid01110
task 97 on nid00438
task 970 on nid01110
task 971 on nid01110
task 972 on nid01110
task 973 on nid01110
task 974 on nid01110
task 975 on nid01110
task 976 on nid01111
task 977 on nid01111
task 978 on nid01111
task 979 on nid01111
task 98 on nid00438
task 980 on nid01111
task 981 on nid01111
task 982 on nid01111
task 983 on nid01111
task 984 on nid01150
task 985 on nid01150
task 986 on nid01150
task 987 on nid01150
task 988 on nid01150
task 989 on nid01150
task 99 on nid00438
task 990 on nid01150
task 991 on nid01150
task 992 on nid01176
task 993 on nid01176
task 994 on nid01176
task 995 on nid01176
task 996 on nid01176
task 997 on nid01176
task 998 on nid01176
task 999 on nid01176

Summary:
	api                = MPIIO (version=3, subversion=0)
	test filename      = /global/cscratch1/sd/mbryson/benchmarks/testfile3
	access             = file-per-process, independent
	pattern            = segmented (1 segment)
	ordering in a file = sequential offsets
	ordering inter file=constant task offsets = 1
	clients            = 2048 (8 per node)
	repetitions        = 1
	xfersize           = 1 MiB
	blocksize          = 8 GiB
	aggregate filesize = 16384 GiB

Using Time Stamp 1454410996 (0x56b08cf4) for Data Signature
Commencing write performance test.
Tue Feb  2 03:03:23 2016

write     345636     8388608    1024.00    9.92       48.36      24.39      48.54      0    XXCEL
[RANK 000] open for reading file /global/cscratch1/sd/mbryson/benchmarks/testfile3.00000008 XXCEL
Commencing read performance test.
Tue Feb  2 03:04:06 2016

read      167090     8388608    1024.00    0.917018   100.23     25.35      100.41     0    XXCEL
Operation  Max (MiB)  Min (MiB)  Mean (MiB)   Std Dev  Max (OPs)  Min (OPs)  Mean (OPs)   Std Dev  Mean (s)  Op grep #Tasks tPN reps  fPP reord reordoff reordrand seed segcnt blksiz xsize aggsize

---------  ---------  ---------  ----------   -------  ---------  ---------  ----------   -------  --------
write      345636.07  345636.07   345636.07      0.00  345636.07  345636.07   345636.07      0.00  48.54012   2048 8 1 1 1 1 0 -113 1 8589934592 1048576 17592186044416 -1 MPIIO EXCEL
read       167090.48  167090.48   167090.48      0.00  167090.48  167090.48   167090.48      0.00 100.40797   2048 8 1 1 1 1 0 -113 1 8589934592 1048576 17592186044416 -1 MPIIO EXCEL

Max Write: 345636.07 MiB/sec (362425.69 MB/sec)
Max Read:  167090.48 MiB/sec (175207.07 MB/sec)

Run finished: Tue Feb  2 03:05:53 2016
