DVS IPC Transport Statistics Version 2273 LNet 2.5
            RMA Puts                0
            RMA Gets                0
           Transmits         84378453
            Receives         84381641
             Replies                0
       RMA Put Bytes                0
       RMA Get Bytes                0
            Tx Bytes     119309743827
            Rx Bytes      70503154651
         Reply Bytes                0
           User Maps          1215835
         User Unmaps          1215816
   User Pages Mapped        591835373
 User Pages Unmapped        591828584
              Errors               12
                NAKs                0
   Rx Buffer Refills           519064
             Rx Dups                0
Refill Stats:
  301046     334       1       1       1       1       1       1       1   25414
     153       2       1       1       1       1       1       1       1       1
       1       1       1       1       1  178141   12137    1442     310      75
      17       4       2       1

Instance 0:
        Total Threads              12
      Created Threads              12
       Active Threads               0
         Idle Threads              12
      Blocked Threads               0
         Thread Limit            1000
         Total Queues               5
        Active Queues               4
          Free Queues               1
      Queued Messages               0
  Queue Lengths:
      all/ 0

Instance 1:
        Total Threads              32
      Created Threads              32
       Active Threads               0
         Idle Threads              32
      Blocked Threads               0
         Thread Limit            1024
         Total Queues               2
        Active Queues               1
          Free Queues               1
      Queued Messages               0
  Queue Lengths:
      all/ 0

  Cached Buffer Space               0
      Requests Killed               0

Size Distributions
 Type    <=512B    <=1KB    <=2KB    <=4KB   <=16KB   <=64KB    <=1MB     >1MB
  Put         0        0        0        0        0        0        0        0
  Get         0        0        0        0        0        0        0        0
   Tx         0        0 83622155    21966   733019     1627        0        0
   Rx         0 81975340   752630    38560  1605526     9585        0        0
 Rply         0        0        0        0        0        0        0        0
