DVS IPC Transport Statistics Version 2273 LNet 2.5
            RMA Puts                0
            RMA Gets                0
           Transmits        528628840
            Receives        528773288
             Replies                0
       RMA Put Bytes                0
       RMA Get Bytes                0
            Tx Bytes     711813479688
            Rx Bytes     364005007875
         Reply Bytes                0
           User Maps           374273
         User Unmaps           374264
   User Pages Mapped        191997175
 User Pages Unmapped        191996973
              Errors               13
                NAKs                0
   Rx Buffer Refills          2086160
             Rx Dups                0
Refill Stats:
 1926755    2693      12       2       1       1       1       1       1  103002
    1059      33       1       1       1       1       1       1       1       1
       1       1       1       1       1   49923    2377     270      38       7
       2       1       1       1

Instance 0:
        Total Threads               9
      Created Threads               9
       Active Threads               0
         Idle Threads               9
      Blocked Threads               0
         Thread Limit            1000
         Total Queues               5
        Active Queues               4
          Free Queues               1
      Queued Messages               0
  Queue Lengths:
      all/ 0

Instance 1:
        Total Threads              32
      Created Threads              32
       Active Threads               0
         Idle Threads              32
      Blocked Threads               0
         Thread Limit            1024
         Total Queues               2
        Active Queues               1
          Free Queues               1
      Queued Messages               0
  Queue Lengths:
      all/ 0

  Cached Buffer Space               0
      Requests Killed               0

Size Distributions
 Type    <=512B    <=1KB    <=2KB    <=4KB   <=16KB   <=64KB    <=1MB     >1MB
  Put         0        0        0        0        0        0        0        0
  Get         0        0        0        0        0        0        0        0
   Tx         0        0528598348     1972    44023      107        0        0
   Rx         0524813218   249286     7704  3701846     1234        0        0
 Rply         0        0        0        0        0        0        0        0
