DVS IPC Transport Statistics Version 2273 LNet 2.5
            RMA Puts                0
            RMA Gets                0
           Transmits        116326567
            Receives        116338779
             Replies                0
       RMA Put Bytes                0
       RMA Get Bytes                0
            Tx Bytes     166799066354
            Rx Bytes     114596814607
         Reply Bytes                0
           User Maps          4130308
         User Unmaps          4130241
   User Pages Mapped       1515375871
 User Pages Unmapped       1515364021
              Errors               88
                NAKs               62
   Rx Buffer Refills           903341
             Rx Dups                0
Refill Stats:
  384378     394       3       1       1       1       1       1       1  285392
    4226      69       1       1       1       1       1       1       1       1
       1       1       1       1       1  200619   20365    5969    1493     311
      80      30      17      10

Instance 0:
        Total Threads              11
      Created Threads              11
       Active Threads               0
         Idle Threads              11
      Blocked Threads               0
         Thread Limit            1000
         Total Queues               5
        Active Queues               4
          Free Queues               1
      Queued Messages               0
  Queue Lengths:
      all/ 0

Instance 1:
        Total Threads              32
      Created Threads              32
       Active Threads               0
         Idle Threads              32
      Blocked Threads               0
         Thread Limit            1024
         Total Queues               2
        Active Queues               1
          Free Queues               1
      Queued Messages               0
  Queue Lengths:
      all/ 0

  Cached Buffer Space               0
      Requests Killed               0

Size Distributions
 Type    <=512B    <=1KB    <=2KB    <=4KB   <=16KB   <=64KB    <=1MB     >1MB
  Put         0        0        0        0        0        0        0        0
  Get         0        0        0        0        0        0        0        0
   Tx         0        0115705230    17092   321416   281404        0        0
   Rx         0104658353  1548942  8160209  1758965   212310        0        0
 Rply         0        0        0        0        0        0        0        0
