DVS IPC Transport Statistics Version 2273 LNet 2.5
            RMA Puts                0
            RMA Gets                0
           Transmits        167496323
            Receives        167519032
             Replies                0
       RMA Put Bytes                0
       RMA Get Bytes                0
            Tx Bytes     230636485506
            Rx Bytes     142501864663
         Reply Bytes                0
           User Maps          2154833
         User Unmaps          2154790
   User Pages Mapped        992059906
 User Pages Unmapped        992046119
              Errors               15
                NAKs                0
   Rx Buffer Refills          1000065
             Rx Dups                0
Refill Stats:
  572628     834       2       1       1       1       1       1       1  308309
    4098      70       1       1       1       1       1       1       1       1
       1       1       1       1       1   98346   12440    2712     516     100
      20       3       1       1

Instance 0:
        Total Threads               9
      Created Threads               9
       Active Threads               0
         Idle Threads               9
      Blocked Threads               0
         Thread Limit            1000
         Total Queues               5
        Active Queues               4
          Free Queues               1
      Queued Messages               0
  Queue Lengths:
      all/ 0

Instance 1:
        Total Threads              32
      Created Threads              32
       Active Threads               0
         Idle Threads              32
      Blocked Threads               0
         Thread Limit            1024
         Total Queues               2
        Active Queues               1
          Free Queues               1
      Queued Messages               0
  Queue Lengths:
      all/ 0

  Cached Buffer Space               0
      Requests Killed               0

Size Distributions
 Type    <=512B    <=1KB    <=2KB    <=4KB   <=16KB   <=64KB    <=1MB     >1MB
  Put         0        0        0        0        0        0        0        0
  Get         0        0        0        0        0        0        0        0
   Tx         0        0166868667    44897   568496    11795        0        0
   Rx         0155981781   729683  8172009  2622792    12767        0        0
 Rply         0        0        0        0        0        0        0        0
