DVS IPC Transport Statistics Version 2273 LNet 2.5
            RMA Puts                0
            RMA Gets                0
           Transmits         11114160
            Receives         11114511
             Replies                0
       RMA Put Bytes                0
       RMA Get Bytes                0
            Tx Bytes      14971172998
            Rx Bytes      24994484728
         Reply Bytes                0
           User Maps            85855
         User Unmaps            85855
   User Pages Mapped        201397071
 User Pages Unmapped        201397071
              Errors                0
                NAKs                0
   Rx Buffer Refills           304301
             Rx Dups                0
Refill Stats:
   32623      21       1       1       1       1       1       1       1    2389
       1       1       1       1       1       1       1       1       1       1
       1       1       1       1       1  242596   24362    2136     168      13
       2       1       1       1

Instance 0:
        Total Threads               7
      Created Threads               7
       Active Threads               0
         Idle Threads               7
      Blocked Threads               0
         Thread Limit            1000
         Total Queues               5
        Active Queues               4
          Free Queues               1
      Queued Messages               0
  Queue Lengths:
      all/ 0

Instance 1:
        Total Threads              32
      Created Threads              32
       Active Threads               0
         Idle Threads              32
      Blocked Threads               0
         Thread Limit            1024
         Total Queues               2
        Active Queues               1
          Free Queues               1
      Queued Messages               0
  Queue Lengths:
      all/ 0

  Cached Buffer Space               0
      Requests Killed               0

Size Distributions
 Type    <=512B    <=1KB    <=2KB    <=4KB   <=16KB   <=64KB    <=1MB     >1MB
  Put         0        0        0        0        0        0        0        0
  Get         0        0        0        0        0        0        0        0
   Tx         0        0 11114098        9       19        2        0        0
   Rx         0  8879102    80366      181  2154715      147        0        0
 Rply         0        0        0        0        0        0        0        0
