DVS IPC Transport Statistics Version 2273 LNet 2.5
            RMA Puts                0
            RMA Gets                0
           Transmits        192613290
            Receives        192673109
             Replies                0
       RMA Put Bytes                0
       RMA Get Bytes                0
            Tx Bytes     269001372267
            Rx Bytes     166407606285
         Reply Bytes                0
           User Maps          3211224
         User Unmaps          3211166
   User Pages Mapped        817273201
 User Pages Unmapped        817260259
              Errors               27
                NAKs               13
   Rx Buffer Refills          1202273
             Rx Dups                0
Refill Stats:
  665730     891       3       1       1       1       1       1       1  265709
    5921     142       3       1       1       1       1       1       1       1
       1       1       1       1       1  226051   27943    7494    1829     411
      96      39      18       9

Instance 0:
        Total Threads              13
      Created Threads              13
       Active Threads               0
         Idle Threads              13
      Blocked Threads               0
         Thread Limit            1000
         Total Queues               4
        Active Queues               3
          Free Queues               1
      Queued Messages               0
  Queue Lengths:
      all/ 0

Instance 1:
        Total Threads              32
      Created Threads              32
       Active Threads               0
         Idle Threads              32
      Blocked Threads               0
         Thread Limit            1024
         Total Queues               2
        Active Queues               1
          Free Queues               1
      Queued Messages               0
  Queue Lengths:
      all/ 0

  Cached Buffer Space               0
      Requests Killed               0

Size Distributions
 Type    <=512B    <=1KB    <=2KB    <=4KB   <=16KB   <=64KB    <=1MB     >1MB
  Put         0        0        0        0        0        0        0        0
  Get         0        0        0        0        0        0        0        0
   Tx         0        0192158293    24641   139266   291891        0        0
   Rx         0181321762   845932  8291223  2020000   194192        0        0
 Rply         0        0        0        0        0        0        0        0
