DVS IPC Transport Statistics Version 2273 LNet 2.5
            RMA Puts                0
            RMA Gets                0
           Transmits        597856145
            Receives        597883711
             Replies                0
       RMA Put Bytes                0
       RMA Get Bytes                0
            Tx Bytes     808479533329
            Rx Bytes     406731282388
         Reply Bytes                0
           User Maps           983656
         User Unmaps           983647
   User Pages Mapped        475794272
 User Pages Unmapped        475792436
              Errors               14
                NAKs                0
   Rx Buffer Refills          2391256
             Rx Dups                0
Refill Stats:
 2186705    3269       7       1       1       1       1       1       1   22962
      66       1       1       1       1       1       1       1       1       1
       1       1       1       1       1  163938   10556    2457    1097     177
      27       6       2       1

Instance 0:
        Total Threads              11
      Created Threads              11
       Active Threads               0
         Idle Threads              11
      Blocked Threads               0
         Thread Limit            1000
         Total Queues               4
        Active Queues               3
          Free Queues               1
      Queued Messages               0
  Queue Lengths:
      all/ 0

Instance 1:
        Total Threads              32
      Created Threads              32
       Active Threads               0
         Idle Threads              32
      Blocked Threads               0
         Thread Limit            1024
         Total Queues               2
        Active Queues               1
          Free Queues               1
      Queued Messages               0
  Queue Lengths:
      all/ 0

  Cached Buffer Space               0
      Requests Killed               0

Size Distributions
 Type    <=512B    <=1KB    <=2KB    <=4KB   <=16KB   <=64KB    <=1MB     >1MB
  Put         0        0        0        0        0        0        0        0
  Get         0        0        0        0        0        0        0        0
   Tx         0        0597365840    18076   470227     1109        0        0
   Rx         0595674757   664291    40931  1479885    23847        0        0
 Rply         0        0        0        0        0        0        0        0
