DVS IPC Transport Statistics Version 2273 LNet 2.5
            RMA Puts                0
            RMA Gets                0
           Transmits        541383386
            Receives        541510686
             Replies                0
       RMA Put Bytes                0
       RMA Get Bytes                0
            Tx Bytes     729278384168
            Rx Bytes     382906335388
         Reply Bytes                0
           User Maps          1795420
         User Unmaps          1795424
   User Pages Mapped        733663854
 User Pages Unmapped        733657645
              Errors               11
                NAKs                0
   Rx Buffer Refills          2250763
             Rx Dups                0
Refill Stats:
 1967770    2985      14       6       2       1       1       1       1  123278
     573       7       1       1       1       1       1       1       1       1
       1       1       1       1       1  143426    9823    2163     581     124
      23       3       1       1

Instance 0:
        Total Threads              10
      Created Threads              10
       Active Threads               0
         Idle Threads              10
      Blocked Threads               0
         Thread Limit            1000
         Total Queues               5
        Active Queues               4
          Free Queues               1
      Queued Messages               0
  Queue Lengths:
      all/ 0

Instance 1:
        Total Threads              32
      Created Threads              32
       Active Threads               0
         Idle Threads              32
      Blocked Threads               0
         Thread Limit            1024
         Total Queues               2
        Active Queues               1
          Free Queues               1
      Queued Messages               0
  Queue Lengths:
      all/ 0

  Cached Buffer Space               0
      Requests Killed               0

Size Distributions
 Type    <=512B    <=1KB    <=2KB    <=4KB   <=16KB   <=64KB    <=1MB     >1MB
  Put         0        0        0        0        0        0        0        0
  Get         0        0        0        0        0        0        0        0
   Tx         0        0541267030    20972    87239     4123        0        0
   Rx         0536050470   466626     4949  4977215    11426        0        0
 Rply         0        0        0        0        0        0        0        0
