DVS IPC Transport Statistics Version 2273 LNet 2.5
            RMA Puts                0
            RMA Gets                0
           Transmits        150674774
            Receives        150696771
             Replies                0
       RMA Put Bytes                0
       RMA Get Bytes                0
            Tx Bytes     216238848050
            Rx Bytes     130781391454
         Reply Bytes                0
           User Maps         21395517
         User Unmaps         21393645
   User Pages Mapped       5501828366
 User Pages Unmapped       5501648450
              Errors               53
                NAKs                0
   Rx Buffer Refills           826415
             Rx Dups                0
Refill Stats:
  527701     861       2       1       1       1       1       1       1  174452
     356       2       1       1       1       1       1       1       1       1
       1       1       1       1       1  121752    1185      93      17       5
       1       1       1       1

Instance 0:
        Total Threads              13
      Created Threads              13
       Active Threads               0
         Idle Threads              13
      Blocked Threads               0
         Thread Limit            1000
         Total Queues               5
        Active Queues               4
          Free Queues               1
      Queued Messages               0
  Queue Lengths:
      all/ 0

Instance 1:
        Total Threads              32
      Created Threads              32
       Active Threads               0
         Idle Threads              32
      Blocked Threads               0
         Thread Limit            1024
         Total Queues               2
        Active Queues               1
          Free Queues               1
      Queued Messages               0
  Queue Lengths:
      all/ 0

  Cached Buffer Space               0
      Requests Killed               0

Size Distributions
 Type    <=512B    <=1KB    <=2KB    <=4KB   <=16KB   <=64KB    <=1MB     >1MB
  Put         0        0        0        0        0        0        0        0
  Get         0        0        0        0        0        0        0        0
   Tx         0        0148659122    18872  1902132    94797        0        0
   Rx         0143768921   632275    11909  6272960    10706        0        0
 Rply         0        0        0        0        0        0        0        0
