DVS IPC Transport Statistics Version 2273 LNet 2.5
            RMA Puts                0
            RMA Gets                0
           Transmits         98892602
            Receives         98910307
             Replies                0
       RMA Put Bytes                0
       RMA Get Bytes                0
            Tx Bytes     146186251790
            Rx Bytes     104236595792
         Reply Bytes                0
           User Maps          3963699
         User Unmaps          3963599
   User Pages Mapped       1044598511
 User Pages Unmapped       1044566349
              Errors               53
                NAKs               29
   Rx Buffer Refills           799514
             Rx Dups                0
Refill Stats:
  318423     453       1       1       1       1       1       1       1  316259
    4088      66       2       1       1       1       1       1       1       1
       1       1       1       1       1  139613   14690    4442    1123     249
      59      29      18      15

Instance 0:
        Total Threads              11
      Created Threads              11
       Active Threads               0
         Idle Threads              11
      Blocked Threads               0
         Thread Limit            1000
         Total Queues               4
        Active Queues               3
          Free Queues               1
      Queued Messages               0
  Queue Lengths:
      all/ 0

Instance 1:
        Total Threads              32
      Created Threads              32
       Active Threads               0
         Idle Threads              32
      Blocked Threads               0
         Thread Limit            1024
         Total Queues               2
        Active Queues               1
          Free Queues               1
      Queued Messages               0
  Queue Lengths:
      all/ 0

  Cached Buffer Space               0
      Requests Killed               0

Size Distributions
 Type    <=512B    <=1KB    <=2KB    <=4KB   <=16KB   <=64KB    <=1MB     >1MB
  Put         0        0        0        0        0        0        0        0
  Get         0        0        0        0        0        0        0        0
   Tx         0        0 98079165    26776   429735   354513        0        0
   Rx         0 86734383  1019339  8169138  2799498   187949        0        0
 Rply         0        0        0        0        0        0        0        0
