DVS IPC Transport Statistics Version 2273 LNet 2.5
            RMA Puts                0
            RMA Gets                0
           Transmits         11888769
            Receives         11889309
             Replies                0
       RMA Put Bytes                0
       RMA Get Bytes                0
            Tx Bytes      15994011980
            Rx Bytes      25500489857
         Reply Bytes                0
           User Maps           675928
         User Unmaps           675968
   User Pages Mapped        210932336
 User Pages Unmapped        210932897
              Errors                0
                NAKs                0
   Rx Buffer Refills           307067
             Rx Dups                0
Refill Stats:
   35462      42       1       1       1       1       1       1       1    2297
       1       1       1       1       1       1       1       1       1       1
       1       1       1       1       1  244175   22957    1984     145      12
       2       1       1       1

Instance 0:
        Total Threads               8
      Created Threads               8
       Active Threads               0
         Idle Threads               8
      Blocked Threads               0
         Thread Limit            1000
         Total Queues               5
        Active Queues               4
          Free Queues               1
      Queued Messages               0
  Queue Lengths:
      all/ 0

Instance 1:
        Total Threads              32
      Created Threads              32
       Active Threads               0
         Idle Threads              32
      Blocked Threads               0
         Thread Limit            1024
         Total Queues               2
        Active Queues               1
          Free Queues               1
      Queued Messages               0
  Queue Lengths:
      all/ 0

  Cached Buffer Space               0
      Requests Killed               0

Size Distributions
 Type    <=512B    <=1KB    <=2KB    <=4KB   <=16KB   <=64KB    <=1MB     >1MB
  Put         0        0        0        0        0        0        0        0
  Get         0        0        0        0        0        0        0        0
   Tx         0        0 11888730        2        2        0        0        0
   Rx         0  9657039    77238      189  2154696      147        0        0
 Rply         0        0        0        0        0        0        0        0
