DVS IPC Transport Statistics Version 2273 LNet 2.5
            RMA Puts                0
            RMA Gets                0
           Transmits        616838512
            Receives        616930833
             Replies                0
       RMA Put Bytes                0
       RMA Get Bytes                0
            Tx Bytes     834934968637
            Rx Bytes     452889653499
         Reply Bytes                0
           User Maps           832025
         User Unmaps           832019
   User Pages Mapped        402098605
 User Pages Unmapped        402091130
              Errors               13
                NAKs            36127
   Rx Buffer Refills          2985656
             Rx Dups                0
Refill Stats:
 2239617    3287      11       4       2       1       1       1       1   35142
      52       1       1       1       1       1       1       1       1       1
       1       1       1       1       1  332073  105443   77297   61885   50021
   41050   23626   11502    4660

Instance 0:
        Total Threads               9
      Created Threads               9
       Active Threads               0
         Idle Threads               9
      Blocked Threads               0
         Thread Limit            1000
         Total Queues               5
        Active Queues               4
          Free Queues               1
      Queued Messages               0
  Queue Lengths:
      all/ 0

Instance 1:
        Total Threads              32
      Created Threads              32
       Active Threads               0
         Idle Threads              32
      Blocked Threads               0
         Thread Limit            1024
         Total Queues               2
        Active Queues               1
          Free Queues               1
      Queued Messages               0
  Queue Lengths:
      all/ 0

  Cached Buffer Space               0
      Requests Killed               0

Size Distributions
 Type    <=512B    <=1KB    <=2KB    <=4KB   <=16KB   <=64KB    <=1MB     >1MB
  Put         0        0        0        0        0        0        0        0
  Get         0        0        0        0        0        0        0        0
   Tx         0        0616260078    15057   579178     1206        0        0
   Rx         0610073841  1083124   100025  5667818     6025        0        0
 Rply         0        0        0        0        0        0        0        0
