DVS IPC Transport Statistics Version 2273 LNet 2.5
            RMA Puts                0
            RMA Gets                0
           Transmits        120821036
            Receives        120837488
             Replies                0
       RMA Put Bytes                0
       RMA Get Bytes                0
            Tx Bytes     173915027298
            Rx Bytes     159220679374
         Reply Bytes                0
           User Maps          1309282
         User Unmaps          1309274
   User Pages Mapped        690407391
 User Pages Unmapped        690402236
              Errors               11
                NAKs          1524685
   Rx Buffer Refills          1636946
             Rx Dups                0
Refill Stats:
  403694     769       1       1       1       1       1       1       1   36988
      73       1       1       1       1       1       1       1       1       1
       1       1       1       1       1  630857  165594  131162  113695   76399
   47746   18568    7164    4250

Instance 0:
        Total Threads              11
      Created Threads              11
       Active Threads               0
         Idle Threads              11
      Blocked Threads               0
         Thread Limit            1000
         Total Queues               5
        Active Queues               4
          Free Queues               1
      Queued Messages               0
  Queue Lengths:
      all/ 0

Instance 1:
        Total Threads              32
      Created Threads              32
       Active Threads               0
         Idle Threads              32
      Blocked Threads               0
         Thread Limit            1024
         Total Queues               2
        Active Queues               1
          Free Queues               1
      Queued Messages               0
  Queue Lengths:
      all/ 0

  Cached Buffer Space               0
      Requests Killed               0

Size Distributions
 Type    <=512B    <=1KB    <=2KB    <=4KB   <=16KB   <=64KB    <=1MB     >1MB
  Put         0        0        0        0        0        0        0        0
  Get         0        0        0        0        0        0        0        0
   Tx         0        0119450807     9010  1357666     3253        0        0
   Rx         0110013993   972513   217914  9631325     1743        0        0
 Rply         0        0        0        0        0        0        0        0
