DVS IPC Transport Statistics Version 2273 LNet 2.5
            RMA Puts                0
            RMA Gets                0
           Transmits         92274649
            Receives         92282675
             Replies                0
       RMA Put Bytes                0
       RMA Get Bytes                0
            Tx Bytes     126279433759
            Rx Bytes      73655073852
         Reply Bytes                0
           User Maps           942312
         User Unmaps           942312
   User Pages Mapped        659993979
 User Pages Unmapped        659993991
              Errors               13
                NAKs                0
   Rx Buffer Refills           520087
             Rx Dups                0
Refill Stats:
  331553     432       1       1       1       1       1       1       1   18367
      21       1       1       1       1       1       1       1       1       1
       1       1       1       1       1  150200   16965    2166     330      50
      10       4       1       1

Instance 0:
        Total Threads              16
      Created Threads              18
       Active Threads               0
         Idle Threads              16
      Blocked Threads               0
         Thread Limit            1000
         Total Queues               5
        Active Queues               4
          Free Queues               1
      Queued Messages               0
  Queue Lengths:
      all/ 0

Instance 1:
        Total Threads              32
      Created Threads              32
       Active Threads               0
         Idle Threads              32
      Blocked Threads               0
         Thread Limit            1024
         Total Queues               2
        Active Queues               1
          Free Queues               1
      Queued Messages               0
  Queue Lengths:
      all/ 0

  Cached Buffer Space               0
      Requests Killed               0

Size Distributions
 Type    <=512B    <=1KB    <=2KB    <=4KB   <=16KB   <=64KB    <=1MB     >1MB
  Put         0        0        0        0        0        0        0        0
  Get         0        0        0        0        0        0        0        0
   Tx         0        0 92041254    20990   208731     3101        0        0
   Rx         0 90299763   514862     8125  1448817    11108        0        0
 Rply         0        0        0        0        0        0        0        0
