DVS IPC Transport Statistics Version 2273 LNet 2.5
            RMA Puts                0
            RMA Gets                0
           Transmits        172161636
            Receives        172189633
             Replies                0
       RMA Put Bytes                0
       RMA Get Bytes                0
            Tx Bytes     233882527258
            Rx Bytes     122313501700
         Reply Bytes                0
           User Maps          1435540
         User Unmaps          1435531
   User Pages Mapped        663304122
 User Pages Unmapped        663298042
              Errors               11
                NAKs                2
   Rx Buffer Refills           771916
             Rx Dups                0
Refill Stats:
  624921    1354       2       1       1       1       1       1       1   26013
      45       1       1       1       1       1       1       1       1       1
       1       1       1       1       1  110920    5649    1572     833     400
     152      51      15       3

Instance 0:
        Total Threads              10
      Created Threads              10
       Active Threads               0
         Idle Threads              10
      Blocked Threads               0
         Thread Limit            1000
         Total Queues               5
        Active Queues               4
          Free Queues               1
      Queued Messages               0
  Queue Lengths:
      all/ 0

Instance 1:
        Total Threads              32
      Created Threads              32
       Active Threads               0
         Idle Threads              32
      Blocked Threads               0
         Thread Limit            1024
         Total Queues               2
        Active Queues               1
          Free Queues               1
      Queued Messages               0
  Queue Lengths:
      all/ 0

  Cached Buffer Space               0
      Requests Killed               0

Size Distributions
 Type    <=512B    <=1KB    <=2KB    <=4KB   <=16KB   <=64KB    <=1MB     >1MB
  Put         0        0        0        0        0        0        0        0
  Get         0        0        0        0        0        0        0        0
   Tx         0        0171969221     8958   179379     1192        0        0
   Rx         0170346970   861449    17540   958661     5013        0        0
 Rply         0        0        0        0        0        0        0        0
