DVS IPC Transport Statistics Version 2273 LNet 2.5
            RMA Puts                0
            RMA Gets                0
           Transmits         20309868
            Receives         20330976
             Replies                0
       RMA Put Bytes                0
       RMA Get Bytes                0
            Tx Bytes      27322412626
            Rx Bytes      14604400806
         Reply Bytes                0
           User Maps          3392576
         User Unmaps          3392515
   User Pages Mapped        287328034
 User Pages Unmapped        287323883
              Errors                0
                NAKs                0
   Rx Buffer Refills           107666
             Rx Dups                0
Refill Stats:
   70076      78       1       1       1       1       1       1       1   36279
     218       2       1       1       1       1       1       1       1       1
       1       1       1       1       1     382     313     210      88      24
       6       2       1       1

Instance 0:
        Total Threads              10
      Created Threads              10
       Active Threads               0
         Idle Threads              10
      Blocked Threads               0
         Thread Limit            1000
         Total Queues               4
        Active Queues               3
          Free Queues               1
      Queued Messages               0
  Queue Lengths:
      all/ 0

Instance 1:
        Total Threads              32
      Created Threads              32
       Active Threads               0
         Idle Threads              32
      Blocked Threads               0
         Thread Limit            1024
         Total Queues               2
        Active Queues               1
          Free Queues               1
      Queued Messages               0
  Queue Lengths:
      all/ 0

  Cached Buffer Space               0
      Requests Killed               0

Size Distributions
 Type    <=512B    <=1KB    <=2KB    <=4KB   <=16KB   <=64KB    <=1MB     >1MB
  Put         0        0        0        0        0        0        0        0
  Get         0        0        0        0        0        0        0        0
   Tx         0        0 20308211        0        1        0        0        0
   Rx         0 19081898  1111362    26973   110741        2        0        0
 Rply         0        0        0        0        0        0        0        0
