DVS IPC Transport Statistics Version 2273 LNet 2.5
            RMA Puts                0
            RMA Gets                0
           Transmits         21419764
            Receives         21420236
             Replies                0
       RMA Put Bytes                0
       RMA Get Bytes                0
            Tx Bytes      29015935378
            Rx Bytes      17747263606
         Reply Bytes                0
           User Maps           220196
         User Unmaps           220195
   User Pages Mapped        109023689
 User Pages Unmapped        109022655
              Errors                0
                NAKs                0
   Rx Buffer Refills           125685
             Rx Dups                0
Refill Stats:
   76950      23       1       1       1       1       1       1       1    3611
       8       1       1       1       1       1       1       1       1       1
       1       1       1       1       1   44927     160      11       3       1
       1       1       1       1

Instance 0:
        Total Threads              10
      Created Threads              10
       Active Threads               0
         Idle Threads              10
      Blocked Threads               0
         Thread Limit            1000
         Total Queues               5
        Active Queues               4
          Free Queues               1
      Queued Messages               0
  Queue Lengths:
      all/ 0

Instance 1:
        Total Threads              32
      Created Threads              32
       Active Threads               0
         Idle Threads              32
      Blocked Threads               0
         Thread Limit            1024
         Total Queues               2
        Active Queues               1
          Free Queues               1
      Queued Messages               0
  Queue Lengths:
      all/ 0

  Cached Buffer Space               0
      Requests Killed               0

Size Distributions
 Type    <=512B    <=1KB    <=2KB    <=4KB   <=16KB   <=64KB    <=1MB     >1MB
  Put         0        0        0        0        0        0        0        0
  Get         0        0        0        0        0        0        0        0
   Tx         0        0 21417880      257     1623        3        0        0
   Rx         0 20936415   121780      311   361110      620        0        0
 Rply         0        0        0        0        0        0        0        0
