DVS IPC Transport Statistics Version 2273 LNet 2.5
            RMA Puts                0
            RMA Gets                0
           Transmits        130759920
            Receives        130776979
             Replies                0
       RMA Put Bytes                0
       RMA Get Bytes                0
            Tx Bytes     179965364707
            Rx Bytes      98706296112
         Reply Bytes                0
           User Maps          1865630
         User Unmaps          1865608
   User Pages Mapped        572252105
 User Pages Unmapped        572231981
              Errors               11
                NAKs                0
   Rx Buffer Refills           652495
             Rx Dups                0
Refill Stats:
  472222     767       8       3       3       1       1       1       1   26266
      79       1       1       1       1       1       1       1       1       1
       1       1       1       1       1  118125   23764    8243    2386     521
     103      18       2       1

Instance 0:
        Total Threads              12
      Created Threads              12
       Active Threads               0
         Idle Threads              12
      Blocked Threads               0
         Thread Limit            1000
         Total Queues               4
        Active Queues               3
          Free Queues               1
      Queued Messages               0
  Queue Lengths:
      all/ 0

Instance 1:
        Total Threads              32
      Created Threads              32
       Active Threads               0
         Idle Threads              32
      Blocked Threads               0
         Thread Limit            1024
         Total Queues               2
        Active Queues               1
          Free Queues               1
      Queued Messages               0
  Queue Lengths:
      all/ 0

  Cached Buffer Space               0
      Requests Killed               0

Size Distributions
 Type    <=512B    <=1KB    <=2KB    <=4KB   <=16KB   <=64KB    <=1MB     >1MB
  Put         0        0        0        0        0        0        0        0
  Get         0        0        0        0        0        0        0        0
   Tx         0        0130514684     6661    57663   179149        0        0
   Rx         0128655985   550173    24154  1529683    16984        0        0
 Rply         0        0        0        0        0        0        0        0
