DVS IPC Transport Statistics Version 2273 LNet 2.5
            RMA Puts                0
            RMA Gets                0
           Transmits         68970454
            Receives         68976406
             Replies                0
       RMA Put Bytes                0
       RMA Get Bytes                0
            Tx Bytes      93780384244
            Rx Bytes      53931321436
         Reply Bytes                0
           User Maps           594069
         User Unmaps           594073
   User Pages Mapped        246698353
 User Pages Unmapped        246698450
              Errors               12
                NAKs                0
   Rx Buffer Refills           341636
             Rx Dups                0
Refill Stats:
  244077     569       1       1       1       1       1       1       1   63272
     444       8       1       1       1       1       1       1       1       1
       1       1       1       1       1   31786    1177     230      66      15
       3       1       1       1

Instance 0:
        Total Threads              11
      Created Threads              11
       Active Threads               0
         Idle Threads              11
      Blocked Threads               0
         Thread Limit            1000
         Total Queues               4
        Active Queues               3
          Free Queues               1
      Queued Messages               0
  Queue Lengths:
      all/ 0

Instance 1:
        Total Threads              32
      Created Threads              32
       Active Threads               0
         Idle Threads              32
      Blocked Threads               0
         Thread Limit            1024
         Total Queues               2
        Active Queues               1
          Free Queues               1
      Queued Messages               0
  Queue Lengths:
      all/ 0

  Cached Buffer Space               0
      Requests Killed               0

Size Distributions
 Type    <=512B    <=1KB    <=2KB    <=4KB   <=16KB   <=64KB    <=1MB     >1MB
  Put         0        0        0        0        0        0        0        0
  Get         0        0        0        0        0        0        0        0
   Tx         0        0 68888932    14671    53422    12804        0        0
   Rx         0 66543664   285092   723497  1416566     7587        0        0
 Rply         0        0        0        0        0        0        0        0
