DVS IPC Transport Statistics Version 2273 LNet 2.5
            RMA Puts                0
            RMA Gets                0
           Transmits        174448471
            Receives        174508458
             Replies                0
       RMA Put Bytes                0
       RMA Get Bytes                0
            Tx Bytes     235974326104
            Rx Bytes     137737509484
         Reply Bytes                0
           User Maps          1049773
         User Unmaps          1049778
   User Pages Mapped        512845270
 User Pages Unmapped        512841872
              Errors               11
                NAKs                0
   Rx Buffer Refills           838994
             Rx Dups                0
Refill Stats:
  619912    1076       2       1       1       1       1       1       1  147231
    1045      14       1       1       1       1       1       1       1       1
       1       1       1       1       1   60804    7470    1164     212      54
      16       6       2       1

Instance 0:
        Total Threads              10
      Created Threads              10
       Active Threads               0
         Idle Threads              10
      Blocked Threads               0
         Thread Limit            1000
         Total Queues               5
        Active Queues               4
          Free Queues               1
      Queued Messages               0
  Queue Lengths:
      all/ 0

Instance 1:
        Total Threads              32
      Created Threads              32
       Active Threads               0
         Idle Threads              32
      Blocked Threads               0
         Thread Limit            1024
         Total Queues               2
        Active Queues               1
          Free Queues               1
      Queued Messages               0
  Queue Lengths:
      all/ 0

  Cached Buffer Space               0
      Requests Killed               0

Size Distributions
 Type    <=512B    <=1KB    <=2KB    <=4KB   <=16KB   <=64KB    <=1MB     >1MB
  Put         0        0        0        0        0        0        0        0
  Get         0        0        0        0        0        0        0        0
   Tx         0        0174352413    19473    63929     3640        0        0
   Rx         0168908870   711284    14636  4859630    14038        0        0
 Rply         0        0        0        0        0        0        0        0
