DVS IPC Transport Statistics Version 2273 LNet 2.5
            RMA Puts                0
            RMA Gets                0
           Transmits        317662877
            Receives        317690431
             Replies                0
       RMA Put Bytes                0
       RMA Get Bytes                0
            Tx Bytes     435154187547
            Rx Bytes     216873277816
         Reply Bytes                0
           User Maps           736017
         User Unmaps           736019
   User Pages Mapped        183971358
 User Pages Unmapped        183971424
              Errors               11
                NAKs                0
   Rx Buffer Refills          1240313
             Rx Dups                0
Refill Stats:
 1159610    1683       4       1       1       1       1       1       1   45526
      79       1       1       1       1       1       1       1       1       1
       1       1       1       1       1   31900    1228     200      70      20
       4       1       1       1

Instance 0:
        Total Threads              10
      Created Threads              10
       Active Threads               0
         Idle Threads              10
      Blocked Threads               0
         Thread Limit            1000
         Total Queues               4
        Active Queues               3
          Free Queues               1
      Queued Messages               0
  Queue Lengths:
      all/ 0

Instance 1:
        Total Threads              32
      Created Threads              32
       Active Threads               0
         Idle Threads              32
      Blocked Threads               0
         Thread Limit            1024
         Total Queues               2
        Active Queues               1
          Free Queues               1
      Queued Messages               0
  Queue Lengths:
      all/ 0

  Cached Buffer Space               0
      Requests Killed               0

Size Distributions
 Type    <=512B    <=1KB    <=2KB    <=4KB   <=16KB   <=64KB    <=1MB     >1MB
  Put         0        0        0        0        0        0        0        0
  Get         0        0        0        0        0        0        0        0
   Tx         0        0316201202   309414  1143567     1753        0        0
   Rx         0315872491   188273     5592  1616106     7969        0        0
 Rply         0        0        0        0        0        0        0        0
