DVS IPC Transport Statistics Version 2273 LNet 2.5
            RMA Puts                0
            RMA Gets                0
           Transmits        122650698
            Receives        122657143
             Replies                0
       RMA Put Bytes                0
       RMA Get Bytes                0
            Tx Bytes     186438382297
            Rx Bytes     106519920560
         Reply Bytes                0
           User Maps          3002723
         User Unmaps          3002675
   User Pages Mapped       1303127737
 User Pages Unmapped       1303122569
              Errors               90
                NAKs               34
   Rx Buffer Refills           774284
             Rx Dups                0
Refill Stats:
  435820     439       2       1       1       1       1       1       1   49441
     186       2       1       1       1       1       1       1       1       1
       1       1       1       1       1  261924   17524    6512    1837     438
     102      39      22      11

Instance 0:
        Total Threads              10
      Created Threads              10
       Active Threads               0
         Idle Threads              10
      Blocked Threads               0
         Thread Limit            1000
         Total Queues               5
        Active Queues               4
          Free Queues               1
      Queued Messages               0
  Queue Lengths:
      all/ 0

Instance 1:
        Total Threads              32
      Created Threads              32
       Active Threads               0
         Idle Threads              32
      Blocked Threads               0
         Thread Limit            1024
         Total Queues               2
        Active Queues               1
          Free Queues               1
      Queued Messages               0
  Queue Lengths:
      all/ 0

  Cached Buffer Space               0
      Requests Killed               0

Size Distributions
 Type    <=512B    <=1KB    <=2KB    <=4KB   <=16KB   <=64KB    <=1MB     >1MB
  Put         0        0        0        0        0        0        0        0
  Get         0        0        0        0        0        0        0        0
   Tx         0        0120706199    15368  1640184   288441        0        0
   Rx         0118662574   994980   676658  2140619   182312        0        0
 Rply         0        0        0        0        0        0        0        0
