DVS IPC Transport Statistics Version 2273 LNet 2.5
            RMA Puts                0
            RMA Gets                0
           Transmits          6775001
            Receives          6775606
             Replies                0
       RMA Put Bytes                0
       RMA Get Bytes                0
            Tx Bytes       9141591405
            Rx Bytes       4650590216
         Reply Bytes                0
           User Maps           111411
         User Unmaps           111410
   User Pages Mapped        263357472
 User Pages Unmapped        263357365
              Errors                0
                NAKs                0
   Rx Buffer Refills            28907
             Rx Dups                0
Refill Stats:
   24414      36       1       1       1       1       1       1       1    3428
      18       1       1       1       1       1       1       1       1       1
       1       1       1       1       1     356     303     223     101      32
       6       1       1       1

Instance 0:
        Total Threads               6
      Created Threads               6
       Active Threads               0
         Idle Threads               6
      Blocked Threads               0
         Thread Limit            1000
         Total Queues               5
        Active Queues               4
          Free Queues               1
      Queued Messages               0
  Queue Lengths:
      all/ 0

Instance 1:
        Total Threads              32
      Created Threads              32
       Active Threads               0
         Idle Threads              32
      Blocked Threads               0
         Thread Limit            1024
         Total Queues               2
        Active Queues               1
          Free Queues               1
      Queued Messages               0
  Queue Lengths:
      all/ 0

  Cached Buffer Space               0
      Requests Killed               0

Size Distributions
 Type    <=512B    <=1KB    <=2KB    <=4KB   <=16KB   <=64KB    <=1MB     >1MB
  Put         0        0        0        0        0        0        0        0
  Get         0        0        0        0        0        0        0        0
   Tx         0        0  6775010        0        1        0        0        0
   Rx         0  6650295    89825    27165     8318        3        0        0
 Rply         0        0        0        0        0        0        0        0
