DVS IPC Transport Statistics Version 2273 LNet 2.5
            RMA Puts                0
            RMA Gets                0
           Transmits        173902678
            Receives        173980602
             Replies                0
       RMA Put Bytes                0
       RMA Get Bytes                0
            Tx Bytes     235108487543
            Rx Bytes     136353456740
         Reply Bytes                0
           User Maps           811688
         User Unmaps           811683
   User Pages Mapped        495524253
 User Pages Unmapped        495521884
              Errors               18
                NAKs                0
   Rx Buffer Refills           839149
             Rx Dups                0
Refill Stats:
  619569    1259       3       1       1       1       1       1       1  128951
     601       7       1       1       1       1       1       1       1       1
       1       1       1       1       1   72326   13859    2245     294      40
       6       2       1       1

Instance 0:
        Total Threads               9
      Created Threads               9
       Active Threads               0
         Idle Threads               9
      Blocked Threads               0
         Thread Limit            1000
         Total Queues               5
        Active Queues               4
          Free Queues               1
      Queued Messages               0
  Queue Lengths:
      all/ 0

Instance 1:
        Total Threads              32
      Created Threads              32
       Active Threads               0
         Idle Threads              32
      Blocked Threads               0
         Thread Limit            1024
         Total Queues               2
        Active Queues               1
          Free Queues               1
      Queued Messages               0
  Queue Lengths:
      all/ 0

  Cached Buffer Space               0
      Requests Killed               0

Size Distributions
 Type    <=512B    <=1KB    <=2KB    <=4KB   <=16KB   <=64KB    <=1MB     >1MB
  Put         0        0        0        0        0        0        0        0
  Get         0        0        0        0        0        0        0        0
   Tx         0        0173822821    15466    53808     3645        0        0
   Rx         0168865487   583850     9471  4515384     6410        0        0
 Rply         0        0        0        0        0        0        0        0
