DVS IPC Transport Statistics Version 2273 LNet 2.5
            RMA Puts                0
            RMA Gets                0
           Transmits         71685303
            Receives         71700772
             Replies                0
       RMA Put Bytes                0
       RMA Get Bytes                0
            Tx Bytes      97656993874
            Rx Bytes      74135532597
         Reply Bytes                0
           User Maps          1636329
         User Unmaps          1636313
   User Pages Mapped        730586317
 User Pages Unmapped        730573574
              Errors               11
                NAKs                4
   Rx Buffer Refills           523033
             Rx Dups                0
Refill Stats:
  243259     363       2       1       1       1       1       1       1  122619
     448       5       1       1       1       1       1       1       1       1
       1       1       1       1       1  135301   14610    4827    1276     271
      53       9       3       2

Instance 0:
        Total Threads               9
      Created Threads               9
       Active Threads               0
         Idle Threads               9
      Blocked Threads               0
         Thread Limit            1000
         Total Queues               5
        Active Queues               4
          Free Queues               1
      Queued Messages               0
  Queue Lengths:
      all/ 0

Instance 1:
        Total Threads              32
      Created Threads              32
       Active Threads               0
         Idle Threads              32
      Blocked Threads               0
         Thread Limit            1024
         Total Queues               2
        Active Queues               1
          Free Queues               1
      Queued Messages               0
  Queue Lengths:
      all/ 0

  Cached Buffer Space               0
      Requests Killed               0

Size Distributions
 Type    <=512B    <=1KB    <=2KB    <=4KB   <=16KB   <=64KB    <=1MB     >1MB
  Put         0        0        0        0        0        0        0        0
  Get         0        0        0        0        0        0        0        0
   Tx         0        0 71550738    23397   106140     4014        0        0
   Rx         0 66265605   466665    28238  4929207    11057        0        0
 Rply         0        0        0        0        0        0        0        0
