DVS IPC Transport Statistics Version 2273 LNet 2.5
            RMA Puts                0
            RMA Gets                0
           Transmits        325154346
            Receives        325182711
             Replies                0
       RMA Put Bytes                0
       RMA Get Bytes                0
            Tx Bytes     437954442807
            Rx Bytes     222342788342
         Reply Bytes                0
           User Maps           493601
         User Unmaps           493608
   User Pages Mapped        154239134
 User Pages Unmapped        154239269
              Errors               11
                NAKs                0
   Rx Buffer Refills          1283351
             Rx Dups                0
Refill Stats:
 1186952    1887       6       2       2       1       1       1       1   40498
     289       9       1       1       1       1       1       1       1       1
       1       1       1       1       1   51783    1695     180      45      13
       3       2       1       1

Instance 0:
        Total Threads               8
      Created Threads               8
       Active Threads               0
         Idle Threads               8
      Blocked Threads               0
         Thread Limit            1000
         Total Queues               4
        Active Queues               3
          Free Queues               1
      Queued Messages               0
  Queue Lengths:
      all/ 0

Instance 1:
        Total Threads              32
      Created Threads              32
       Active Threads               0
         Idle Threads              32
      Blocked Threads               0
         Thread Limit            1024
         Total Queues               2
        Active Queues               1
          Free Queues               1
      Queued Messages               0
  Queue Lengths:
      all/ 0

  Cached Buffer Space               0
      Requests Killed               0

Size Distributions
 Type    <=512B    <=1KB    <=2KB    <=4KB   <=16KB   <=64KB    <=1MB     >1MB
  Put         0        0        0        0        0        0        0        0
  Get         0        0        0        0        0        0        0        0
   Tx         0        0325084486    16942    34927     1383        0        0
   Rx         0323365951   186243    46800  1575829     7888        0        0
 Rply         0        0        0        0        0        0        0        0
