DVS IPC Transport Statistics Version 2273 LNet 2.5
            RMA Puts                0
            RMA Gets                0
           Transmits        611527176
            Receives        611658905
             Replies                0
       RMA Put Bytes                0
       RMA Get Bytes                0
            Tx Bytes     826440672794
            Rx Bytes     423124503199
         Reply Bytes                0
           User Maps           839655
         User Unmaps           839650
   User Pages Mapped        410243256
 User Pages Unmapped        410243144
              Errors               13
                NAKs                4
   Rx Buffer Refills          2577555
             Rx Dups                0
Refill Stats:
 2232147    3293      12       2       1       1       1       1       1   33759
      61       1       1       1       1       1       1       1       1       1
       1       1       1       1       1  248135   38577   15849    4454    1040
     195      38       6       2

Instance 0:
        Total Threads               9
      Created Threads               9
       Active Threads               0
         Idle Threads               9
      Blocked Threads               0
         Thread Limit            1000
         Total Queues               5
        Active Queues               4
          Free Queues               1
      Queued Messages               0
  Queue Lengths:
      all/ 0

Instance 1:
        Total Threads              32
      Created Threads              32
       Active Threads               0
         Idle Threads              32
      Blocked Threads               0
         Thread Limit            1024
         Total Queues               2
        Active Queues               1
          Free Queues               1
      Queued Messages               0
  Queue Lengths:
      all/ 0

  Cached Buffer Space               0
      Requests Killed               0

Size Distributions
 Type    <=512B    <=1KB    <=2KB    <=4KB   <=16KB   <=64KB    <=1MB     >1MB
  Put         0        0        0        0        0        0        0        0
  Get         0        0        0        0        0        0        0        0
   Tx         0        0611143756    16608   388841     1256        0        0
   Rx         0608042735  1102783    34342  2472798     6247        0        0
 Rply         0        0        0        0        0        0        0        0
