DVS IPC Transport Statistics Version 2273 LNet 2.5
            RMA Puts                0
            RMA Gets                0
           Transmits         94864760
            Receives         94885662
             Replies                0
       RMA Put Bytes                0
       RMA Get Bytes                0
            Tx Bytes     139794899783
            Rx Bytes      91751073472
         Reply Bytes                0
           User Maps          4208364
         User Unmaps          4208316
   User Pages Mapped        726052637
 User Pages Unmapped        726041330
              Errors               37
                NAKs             1020
   Rx Buffer Refills           695707
             Rx Dups                0
Refill Stats:
  312174     500       3       1       1       1       1       1       1  256568
    3887      58       1       1       1       1       1       1       1       1
       1       1       1       1       1  100317   15012    5080    1478     417
     128      63      24      13

Instance 0:
        Total Threads              16
      Created Threads              21
       Active Threads               0
         Idle Threads              16
      Blocked Threads               0
         Thread Limit            1000
         Total Queues               4
        Active Queues               3
          Free Queues               1
      Queued Messages               0
  Queue Lengths:
      all/ 0

Instance 1:
        Total Threads              32
      Created Threads              32
       Active Threads               0
         Idle Threads              32
      Blocked Threads               0
         Thread Limit            1024
         Total Queues               2
        Active Queues               1
          Free Queues               1
      Queued Messages               0
  Queue Lengths:
      all/ 0

  Cached Buffer Space               0
      Requests Killed               0

Size Distributions
 Type    <=512B    <=1KB    <=2KB    <=4KB   <=16KB   <=64KB    <=1MB     >1MB
  Put         0        0        0        0        0        0        0        0
  Get         0        0        0        0        0        0        0        0
   Tx         0        0 94196040    11386   294050   362918        0        0
   Rx         0 85048057   629902  8159659   862615   185429        0        0
 Rply         0        0        0        0        0        0        0        0
