DVS IPC Transport Statistics Version 2273 LNet 2.5
            RMA Puts                0
            RMA Gets                0
           Transmits        161964427
            Receives        161977883
             Replies                0
       RMA Put Bytes                0
       RMA Get Bytes                0
            Tx Bytes     220518011567
            Rx Bytes     111777636910
         Reply Bytes                0
           User Maps          1280021
         User Unmaps          1280027
   User Pages Mapped        760647211
 User Pages Unmapped        760645262
              Errors               24
                NAKs                0
   Rx Buffer Refills           680903
             Rx Dups                0
Refill Stats:
  589808     938       2       1       1       1       1       1       1   22026
      31       1       1       1       1       1       1       1       1       1
       1       1       1       1       1   60136    5550    1418     864     120
      18       3       2       1

Instance 0:
        Total Threads              10
      Created Threads              10
       Active Threads               0
         Idle Threads              10
      Blocked Threads               0
         Thread Limit            1000
         Total Queues               5
        Active Queues               4
          Free Queues               1
      Queued Messages               0
  Queue Lengths:
      all/ 0

Instance 1:
        Total Threads              32
      Created Threads              32
       Active Threads               0
         Idle Threads              32
      Blocked Threads               0
         Thread Limit            1024
         Total Queues               2
        Active Queues               1
          Free Queues               1
      Queued Messages               0
  Queue Lengths:
      all/ 0

  Cached Buffer Space               0
      Requests Killed               0

Size Distributions
 Type    <=512B    <=1KB    <=2KB    <=4KB   <=16KB   <=64KB    <=1MB     >1MB
  Put         0        0        0        0        0        0        0        0
  Get         0        0        0        0        0        0        0        0
   Tx         0        0161720806    21432   213774     4960        0        0
   Rx         0160683154   709380    32959   527252    25138        0        0
 Rply         0        0        0        0        0        0        0        0
