DVS IPC Transport Statistics Version 2273 LNet 2.5
            RMA Puts                0
            RMA Gets                0
           Transmits         20308492
            Receives         20326170
             Replies                0
       RMA Put Bytes                0
       RMA Get Bytes                0
            Tx Bytes      27320951864
            Rx Bytes      14601186480
         Reply Bytes                0
           User Maps          3390495
         User Unmaps          3390411
   User Pages Mapped        286170860
 User Pages Unmapped        286165010
              Errors                0
                NAKs                0
   Rx Buffer Refills           107647
             Rx Dups                0
Refill Stats:
   70049      88       1       1       1       1       1       1       1   36275
     219       2       1       1       1       1       1       1       1       1
       1       1       1       1       1     372     307     214     101      25
       6       1       1       1

Instance 0:
        Total Threads               6
      Created Threads               6
       Active Threads               0
         Idle Threads               6
      Blocked Threads               0
         Thread Limit            1000
         Total Queues               4
        Active Queues               3
          Free Queues               1
      Queued Messages               0
  Queue Lengths:
      all/ 0

Instance 1:
        Total Threads              32
      Created Threads              32
       Active Threads               0
         Idle Threads              32
      Blocked Threads               0
         Thread Limit            1024
         Total Queues               2
        Active Queues               1
          Free Queues               1
      Queued Messages               0
  Queue Lengths:
      all/ 0

  Cached Buffer Space               0
      Requests Killed               0

Size Distributions
 Type    <=512B    <=1KB    <=2KB    <=4KB   <=16KB   <=64KB    <=1MB     >1MB
  Put         0        0        0        0        0        0        0        0
  Get         0        0        0        0        0        0        0        0
   Tx         0        0 20307894        0        1        0        0        0
   Rx         0 19077199  1111255    26973   110741        2        0        0
 Rply         0        0        0        0        0        0        0        0
