DVS IPC Transport Statistics Version 2273 LNet 2.5
            RMA Puts                0
            RMA Gets                0
           Transmits        142519545
            Receives        142547937
             Replies                0
       RMA Put Bytes                0
       RMA Get Bytes                0
            Tx Bytes     195678413486
            Rx Bytes     123511577723
         Reply Bytes                0
           User Maps          2917723
         User Unmaps          2917708
   User Pages Mapped        869720822
 User Pages Unmapped        869708760
              Errors               13
                NAKs                0
   Rx Buffer Refills           947723
             Rx Dups                0
Refill Stats:
  480232     772       3       1       1       1       1       1       1  303416
    3485      44       1       1       1       1       1       1       1       1
       1       1       1       1       1  144071   12990    2199     416      87
      17       4       1       1

Instance 0:
        Total Threads              13
      Created Threads              13
       Active Threads               0
         Idle Threads              13
      Blocked Threads               0
         Thread Limit            1000
         Total Queues               4
        Active Queues               3
          Free Queues               1
      Queued Messages               0
  Queue Lengths:
      all/ 0

Instance 1:
        Total Threads              32
      Created Threads              32
       Active Threads               0
         Idle Threads              32
      Blocked Threads               0
         Thread Limit            1024
         Total Queues               2
        Active Queues               1
          Free Queues               1
      Queued Messages               0
  Queue Lengths:
      all/ 0

  Cached Buffer Space               0
      Requests Killed               0

Size Distributions
 Type    <=512B    <=1KB    <=2KB    <=4KB   <=16KB   <=64KB    <=1MB     >1MB
  Put         0        0        0        0        0        0        0        0
  Get         0        0        0        0        0        0        0        0
   Tx         0        0142229296    57650   133289    95044        0        0
   Rx         0130833588  2160025  8177329  1356987    20008        0        0
 Rply         0        0        0        0        0        0        0        0
