DVS IPC Transport Statistics Version 2273 LNet 2.5
            RMA Puts                0
            RMA Gets                0
           Transmits         81020989
            Receives         81025227
             Replies                0
       RMA Put Bytes                0
       RMA Get Bytes                0
            Tx Bytes     121163272375
            Rx Bytes      67133738622
         Reply Bytes                0
           User Maps          4397917
         User Unmaps          4397821
   User Pages Mapped        679910672
 User Pages Unmapped        679893723
              Errors               16
                NAKs               39
   Rx Buffer Refills           446829
             Rx Dups                0
Refill Stats:
  289621     393       3       1       1       1       1       1       1   34013
      87       1       1       1       1       1       1       1       1       1
       1       1       1       1       1   98072   15781    6015    2287     432
      79      29      20      11

Instance 0:
        Total Threads              10
      Created Threads              10
       Active Threads               0
         Idle Threads              10
      Blocked Threads               0
         Thread Limit            1000
         Total Queues               4
        Active Queues               3
          Free Queues               1
      Queued Messages               0
  Queue Lengths:
      all/ 0

Instance 1:
        Total Threads              32
      Created Threads              32
       Active Threads               0
         Idle Threads              32
      Blocked Threads               0
         Thread Limit            1024
         Total Queues               2
        Active Queues               1
          Free Queues               1
      Queued Messages               0
  Queue Lengths:
      all/ 0

  Cached Buffer Space               0
      Requests Killed               0

Size Distributions
 Type    <=512B    <=1KB    <=2KB    <=4KB   <=16KB   <=64KB    <=1MB     >1MB
  Put         0        0        0        0        0        0        0        0
  Get         0        0        0        0        0        0        0        0
   Tx         0        0 80212596    27980   479256   301441        0        0
   Rx         0 78884101   811596    43080  1072083   214367        0        0
 Rply         0        0        0        0        0        0        0        0
