DVS IPC Transport Statistics Version 2273 LNet 2.5
            RMA Puts                0
            RMA Gets                0
           Transmits         99947871
            Receives         99963668
             Replies                0
       RMA Put Bytes                0
       RMA Get Bytes                0
            Tx Bytes     148713663921
            Rx Bytes     104258751509
         Reply Bytes                0
           User Maps          3975146
         User Unmaps          3975052
   User Pages Mapped       1080529913
 User Pages Unmapped       1080508816
              Errors               52
                NAKs               57
   Rx Buffer Refills           793631
             Rx Dups                0
Refill Stats:
  322653     392       1       1       1       1       1       1       1  316756
    3609      49       1       1       1       1       1       1       1       1
       1       1       1       1       1  129945   14485    4285    1108     247
      59      31      17       9

Instance 0:
        Total Threads              14
      Created Threads              14
       Active Threads               0
         Idle Threads              14
      Blocked Threads               0
         Thread Limit            1000
         Total Queues               4
        Active Queues               3
          Free Queues               1
      Queued Messages               0
  Queue Lengths:
      all/ 0

Instance 1:
        Total Threads              32
      Created Threads              32
       Active Threads               0
         Idle Threads              32
      Blocked Threads               0
         Thread Limit            1024
         Total Queues               2
        Active Queues               1
          Free Queues               1
      Queued Messages               0
  Queue Lengths:
      all/ 0

  Cached Buffer Space               0
      Requests Killed               0

Size Distributions
 Type    <=512B    <=1KB    <=2KB    <=4KB   <=16KB   <=64KB    <=1MB     >1MB
  Put         0        0        0        0        0        0        0        0
  Get         0        0        0        0        0        0        0        0
   Tx         0        0 99030058    25977   534649   356875        0        0
   Rx         0 87868198  1019518  8168865  2719822   187265        0        0
 Rply         0        0        0        0        0        0        0        0
