DVS IPC Transport Statistics Version 2273 LNet 2.5
            RMA Puts                0
            RMA Gets                0
           Transmits        212080006
            Receives        212096704
             Replies                0
       RMA Put Bytes                0
       RMA Get Bytes                0
            Tx Bytes     285653060162
            Rx Bytes     168347618892
         Reply Bytes                0
           User Maps          1538038
         User Unmaps          1538079
   User Pages Mapped        602840821
 User Pages Unmapped        602836429
              Errors               11
                NAKs                0
   Rx Buffer Refills          1154982
             Rx Dups                0
Refill Stats:
  733929     875       2       1       1       1       1       1       1  340299
     785       7       1       1       1       1       1       1       1       1
       1       1       1       1       1   73152    4280    1257     340      59
       9       1       1       1

Instance 0:
        Total Threads              10
      Created Threads              10
       Active Threads               0
         Idle Threads              10
      Blocked Threads               0
         Thread Limit            1000
         Total Queues               5
        Active Queues               4
          Free Queues               1
      Queued Messages               0
  Queue Lengths:
      all/ 0

Instance 1:
        Total Threads              32
      Created Threads              32
       Active Threads               0
         Idle Threads              32
      Blocked Threads               0
         Thread Limit            1024
         Total Queues               2
        Active Queues               1
          Free Queues               1
      Queued Messages               0
  Queue Lengths:
      all/ 0

  Cached Buffer Space               0
      Requests Killed               0

Size Distributions
 Type    <=512B    <=1KB    <=2KB    <=4KB   <=16KB   <=64KB    <=1MB     >1MB
  Put         0        0        0        0        0        0        0        0
  Get         0        0        0        0        0        0        0        0
   Tx         0        0211956713    22141    93731     3970        0        0
   Rx         0199866890  7875336    22023  4321760    10695        0        0
 Rply         0        0        0        0        0        0        0        0
