DVS IPC Transport Statistics Version 2273 LNet 2.5
            RMA Puts                0
            RMA Gets                0
           Transmits        528303727
            Receives        528327350
             Replies                0
       RMA Put Bytes                0
       RMA Get Bytes                0
            Tx Bytes     704422415871
            Rx Bytes     386659025492
         Reply Bytes                0
           User Maps          1047098
         User Unmaps          1047097
   User Pages Mapped        617264163
 User Pages Unmapped        617263175
              Errors               11
                NAKs                0
   Rx Buffer Refills          2872102
             Rx Dups                0
Refill Stats:
 1814282    4062       6       1       1       1       1       1       1  972686
     639       2       1       1       1       1       1       1       1       1
       1       1       1       1       1   78338    1805     229      51      11
       3       1       1       1

Instance 0:
        Total Threads              16
      Created Threads              16
       Active Threads               0
         Idle Threads              16
      Blocked Threads               0
         Thread Limit            1000
         Total Queues               5
        Active Queues               4
          Free Queues               1
      Queued Messages               0
  Queue Lengths:
      all/ 0

Instance 1:
        Total Threads              32
      Created Threads              32
       Active Threads               0
         Idle Threads              32
      Blocked Threads               0
         Thread Limit            1024
         Total Queues               2
        Active Queues               1
          Free Queues               1
      Queued Messages               0
  Queue Lengths:
      all/ 0

  Cached Buffer Space               0
      Requests Killed               0

Size Distributions
 Type    <=512B    <=1KB    <=2KB    <=4KB   <=16KB   <=64KB    <=1MB     >1MB
  Put         0        0        0        0        0        0        0        0
  Get         0        0        0        0        0        0        0        0
   Tx         0        0528104726    14817   182765     1081        0        0
   Rx         0494590819 32981581    77806   669800     7344        0        0
 Rply         0        0        0        0        0        0        0        0
