DVS IPC Transport Statistics Version 2273 LNet 2.5
            RMA Puts                0
            RMA Gets                0
           Transmits        114098611
            Receives        114112255
             Replies                0
       RMA Put Bytes                0
       RMA Get Bytes                0
            Tx Bytes     154887672878
            Rx Bytes      97410703604
         Reply Bytes                0
           User Maps          1184946
         User Unmaps          1184942
   User Pages Mapped        323999401
 User Pages Unmapped        323995268
              Errors               11
                NAKs                0
   Rx Buffer Refills           678055
             Rx Dups                0
Refill Stats:
  402761     552       1       1       1       1       1       1       1   84245
     862      21       1       1       1       1       1       1       1       1
       1       1       1       1       1  177895   10084    1310     271      53
      11       2       1       1

Instance 0:
        Total Threads              10
      Created Threads              10
       Active Threads               0
         Idle Threads              10
      Blocked Threads               0
         Thread Limit            1000
         Total Queues               5
        Active Queues               4
          Free Queues               1
      Queued Messages               0
  Queue Lengths:
      all/ 0

Instance 1:
        Total Threads              32
      Created Threads              32
       Active Threads               0
         Idle Threads              32
      Blocked Threads               0
         Thread Limit            1024
         Total Queues               2
        Active Queues               1
          Free Queues               1
      Queued Messages               0
  Queue Lengths:
      all/ 0

  Cached Buffer Space               0
      Requests Killed               0

Size Distributions
 Type    <=512B    <=1KB    <=2KB    <=4KB   <=16KB   <=64KB    <=1MB     >1MB
  Put         0        0        0        0        0        0        0        0
  Get         0        0        0        0        0        0        0        0
   Tx         0        0113967661    24831   102930     2017        0        0
   Rx         0109700961   923320    23330  3451677    12967        0        0
 Rply         0        0        0        0        0        0        0        0
