DVS IPC Transport Statistics Version 2273 LNet 2.5
            RMA Puts                0
            RMA Gets                0
           Transmits        661403727
            Receives        661468866
             Replies                0
       RMA Put Bytes                0
       RMA Get Bytes                0
            Tx Bytes     892289847333
            Rx Bytes     447987542642
         Reply Bytes                0
           User Maps          1217408
         User Unmaps          1217405
   User Pages Mapped        584441949
 User Pages Unmapped        584439867
              Errors               24
                NAKs                0
   Rx Buffer Refills          2629375
             Rx Dups                0
Refill Stats:
 2418149    3681      13       2       1       1       1       1       1   40922
     132       2       1       1       1       1       1       1       1       1
       1       1       1       1       1  124296   27589   10125    3432     827
     181      32       7       1

Instance 0:
        Total Threads              11
      Created Threads              11
       Active Threads               0
         Idle Threads              11
      Blocked Threads               0
         Thread Limit            1000
         Total Queues               4
        Active Queues               3
          Free Queues               1
      Queued Messages               0
  Queue Lengths:
      all/ 0

Instance 1:
        Total Threads              32
      Created Threads              32
       Active Threads               0
         Idle Threads              32
      Blocked Threads               0
         Thread Limit            1024
         Total Queues               2
        Active Queues               1
          Free Queues               1
      Queued Messages               0
  Queue Lengths:
      all/ 0

  Cached Buffer Space               0
      Requests Killed               0

Size Distributions
 Type    <=512B    <=1KB    <=2KB    <=4KB   <=16KB   <=64KB    <=1MB     >1MB
  Put         0        0        0        0        0        0        0        0
  Get         0        0        0        0        0        0        0        0
   Tx         0        0661156455    31414   217382     2186        0        0
   Rx         0658741156   975498    45750  1684668    21794        0        0
 Rply         0        0        0        0        0        0        0        0
