DVS IPC Transport Statistics Version 2273 LNet 2.5
            RMA Puts                0
            RMA Gets                0
           Transmits         25259041
            Receives         25260740
             Replies                0
       RMA Put Bytes                0
       RMA Get Bytes                0
            Tx Bytes      46053529737
            Rx Bytes      25424912960
         Reply Bytes                0
           User Maps          3241331
         User Unmaps          3241225
   User Pages Mapped       1054582146
 User Pages Unmapped       1054561485
              Errors               11
                NAKs               53
   Rx Buffer Refills           174456
             Rx Dups                0
Refill Stats:
   89305      78       1       1       1       1       1       1       1   10297
      22       1       1       1       1       1       1       1       1       1
       1       1       1       1       1   61279    8236    3757    1122     256
      66      29      15       7

Instance 0:
        Total Threads              14
      Created Threads              14
       Active Threads               0
         Idle Threads              14
      Blocked Threads               0
         Thread Limit            1000
         Total Queues               4
        Active Queues               3
          Free Queues               1
      Queued Messages               0
  Queue Lengths:
      all/ 0

Instance 1:
        Total Threads              32
      Created Threads              32
       Active Threads               0
         Idle Threads              32
      Blocked Threads               0
         Thread Limit            1024
         Total Queues               2
        Active Queues               1
          Free Queues               1
      Queued Messages               0
  Queue Lengths:
      all/ 0

  Cached Buffer Space               0
      Requests Killed               0

Size Distributions
 Type    <=512B    <=1KB    <=2KB    <=4KB   <=16KB   <=64KB    <=1MB     >1MB
  Put         0        0        0        0        0        0        0        0
  Get         0        0        0        0        0        0        0        0
   Tx         0        0 24582298     4461   317815   354451        0        0
   Rx         0 24311834   347718     1189   422321   177678        0        0
 Rply         0        0        0        0        0        0        0        0
