DVS IPC Transport Statistics Version 2273 LNet 2.5
            RMA Puts                0
            RMA Gets                0
           Transmits        170871892
            Receives        170896596
             Replies                0
       RMA Put Bytes                0
       RMA Get Bytes                0
            Tx Bytes     232990896979
            Rx Bytes     133429511883
         Reply Bytes                0
           User Maps          1596514
         User Unmaps          1596498
   User Pages Mapped        988968757
 User Pages Unmapped        988953291
              Errors               15
                NAKs                0
   Rx Buffer Refills           916903
             Rx Dups                0
Refill Stats:
  616963     933       4       3       1       1       1       1       1   16713
      39       1       1       1       1       1       1       1       1       1
       1       1       1       1       1  258351   17941    4570    1092     242
      52      12       2       1

Instance 0:
        Total Threads              12
      Created Threads              12
       Active Threads               0
         Idle Threads              12
      Blocked Threads               0
         Thread Limit            1000
         Total Queues               4
        Active Queues               3
          Free Queues               1
      Queued Messages               0
  Queue Lengths:
      all/ 0

Instance 1:
        Total Threads              32
      Created Threads              32
       Active Threads               0
         Idle Threads              32
      Blocked Threads               0
         Thread Limit            1024
         Total Queues               2
        Active Queues               1
          Free Queues               1
      Queued Messages               0
  Queue Lengths:
      all/ 0

  Cached Buffer Space               0
      Requests Killed               0

Size Distributions
 Type    <=512B    <=1KB    <=2KB    <=4KB   <=16KB   <=64KB    <=1MB     >1MB
  Put         0        0        0        0        0        0        0        0
  Get         0        0        0        0        0        0        0        0
   Tx         0        0170563327    23933   277429     5030        0        0
   Rx         0168068974   514391    35516  2262199    15516        0        0
 Rply         0        0        0        0        0        0        0        0
