DVS IPC Transport Statistics Version 2273 LNet 2.5
            RMA Puts                0
            RMA Gets                0
           Transmits         45299072
            Receives         45310420
             Replies                0
       RMA Put Bytes                0
       RMA Get Bytes                0
            Tx Bytes      61752155242
            Rx Bytes      40026629168
         Reply Bytes                0
           User Maps           492961
         User Unmaps           492960
   User Pages Mapped        292245070
 User Pages Unmapped        292245070
              Errors               11
                NAKs                0
   Rx Buffer Refills           274895
             Rx Dups                0
Refill Stats:
  158706     267       1       1       1       1       1       1       1   43714
     222       6       1       1       1       1       1       1       1       1
       1       1       1       1       1   68832    2495     421     157      59
      20       6       3       1

Instance 0:
        Total Threads               8
      Created Threads               8
       Active Threads               0
         Idle Threads               8
      Blocked Threads               0
         Thread Limit            1000
         Total Queues               4
        Active Queues               3
          Free Queues               1
      Queued Messages               0
  Queue Lengths:
      all/ 0

Instance 1:
        Total Threads              32
      Created Threads              32
       Active Threads               0
         Idle Threads              32
      Blocked Threads               0
         Thread Limit            1024
         Total Queues               2
        Active Queues               1
          Free Queues               1
      Queued Messages               0
  Queue Lengths:
      all/ 0

  Cached Buffer Space               0
      Requests Killed               0

Size Distributions
 Type    <=512B    <=1KB    <=2KB    <=4KB   <=16KB   <=64KB    <=1MB     >1MB
  Put         0        0        0        0        0        0        0        0
  Get         0        0        0        0        0        0        0        0
   Tx         0        0 45210371    22617    60801     1536        0        0
   Rx         0 43240534   320714    16653  1724471     8048        0        0
 Rply         0        0        0        0        0        0        0        0
