mkdir: cannot create directory `/global/cscratch1/sd/mbryson/vpicBench/output_1K': File exists
Number of paritcles: 33554432 
Finished initializing particles 
Opened H5Part file... 
Before writing particles 
Step is set 
Num particles is set 
Written variable 1 
Written variable 2 
Written variable 3 
Written variable 4 
Written variable 5 
Written variable 6 
Written variable 7 
Written variable 8 
After writing particles 
After closing particles 

Timing results
129.170715 seconds elapsed in just writing data
135.442047 seconds elapsed in opening, writing, closing file

/global/cscratch1/sd/mbryson/vpicBench/output_1K/sample.h5part
lmm_stripe_count:   248
lmm_stripe_size:    8388608
lmm_pattern:        1
lmm_layout_gen:     0
lmm_stripe_offset:  105
	obdidx		 objid		 objid		 group
	   105	      16726258	     0xff38f2	             0
	   241	      16711373	     0xfefecd	             0
	    83	      16720062	     0xff20be	             0
	   159	      16704296	     0xfee328	             0
	    73	      16730118	     0xff4806	             0
	   197	      16705336	     0xfee738	             0
	     2	      17033642	    0x103e9aa	             0
	   216	      16716315	     0xff121b	             0
	   234	      16711167	     0xfefdff	             0
	   218	      16707240	     0xfeeea8	             0
	   222	      16704577	     0xfee441	             0
	   246	      16712055	     0xff0177	             0
	   220	      16708592	     0xfef3f0	             0
	   226	      16711902	     0xff00de	             0
	   232	      16710024	     0xfef988	             0
	   244	      16711024	     0xfefd70	             0
	   206	      16706115	     0xfeea43	             0
	   212	      16708701	     0xfef45d	             0
	   236	      16708274	     0xfef2b2	             0
	   228	      16709546	     0xfef7aa	             0
	   240	      16710635	     0xfefbeb	             0
	   242	      16710259	     0xfefa73	             0
	    60	      16744154	     0xff7eda	             0
	   204	      16711483	     0xfeff3b	             0
	   230	      16705808	     0xfee910	             0
	    66	      16723707	     0xff2efb	             0
	   132	      16712856	     0xff0498	             0
	    52	      16751585	     0xff9be1	             0
	   146	      16708603	     0xfef3fb	             0
	   214	      16704569	     0xfee439	             0
	    86	      16719837	     0xff1fdd	             0
	   200	      16712462	     0xff030e	             0
	   176	      16711083	     0xfefdab	             0
	    24	      16794153	    0x1004229	             0
	    16	      16773260	     0xfff08c	             0
	     6	      17031816	    0x103e288	             0
	   224	      16710923	     0xfefd0b	             0
	    76	      16723351	     0xff2d97	             0
	    90	      16721741	     0xff274d	             0
	   198	      16709141	     0xfef615	             0
	   190	      16705221	     0xfee6c5	             0
	   112	      16724115	     0xff3093	             0
	   114	      16722981	     0xff2c25	             0
	    58	      16746059	     0xff864b	             0
	    78	      16719019	     0xff1cab	             0
	   102	      16718187	     0xff196b	             0
	    74	      16723414	     0xff2dd6	             0
	    32	      16747786	     0xff8d0a	             0
	    68	      16733703	     0xff5607	             0
	    36	      16745406	     0xff83be	             0
	    48	      16749466	     0xff939a	             0
	   208	      16711274	     0xfefe6a	             0
	    30	      16788474	    0x1002bfa	             0
	   194	      16708364	     0xfef30c	             0
	   238	      16708829	     0xfef4dd	             0
	   182	      16704422	     0xfee3a6	             0
	   126	      16716472	     0xff12b8	             0
	    96	      16730919	     0xff4b27	             0
	    28	      16791402	    0x100376a	             0
	   142	      16707935	     0xfef15f	             0
	   188	      16707085	     0xfeee0d	             0
	    34	      16746699	     0xff88cb	             0
	    44	      16744742	     0xff8126	             0
	    22	      16785671	    0x1002107	             0
	   164	      16711824	     0xff0090	             0
	    54	      16744073	     0xff7e89	             0
	   140	      16711223	     0xfefe37	             0
	    92	      16720808	     0xff23a8	             0
	   110	      16720642	     0xff2302	             0
	    20	      16793034	    0x1003dca	             0
	   156	      16709598	     0xfef7de	             0
	    62	      16740061	     0xff6edd	             0
	    72	      16733984	     0xff5720	             0
	   150	      16707797	     0xfef0d5	             0
	    84	      16726836	     0xff3b34	             0
	   144	      16710152	     0xfefa08	             0
	    94	      16728338	     0xff4112	             0
	   128	      16711612	     0xfeffbc	             0
	    38	      16741899	     0xff760b	             0
	   202	      16709197	     0xfef64d	             0
	     8	      16874499	    0x1017c03	             0
	   148	      16710165	     0xfefa15	             0
	   134	      16709465	     0xfef759	             0
	   158	      16705565	     0xfee81d	             0
	   186	      16707915	     0xfef14b	             0
	    98	      16722171	     0xff28fb	             0
	    46	      16747231	     0xff8adf	             0
	   138	      16713484	     0xff070c	             0
	   154	      16708767	     0xfef49f	             0
	   168	      16711539	     0xfeff73	             0
	   108	      16723811	     0xff2f63	             0
	    82	      16723563	     0xff2e6b	             0
	   106	      16727403	     0xff3d6b	             0
	    80	      16724311	     0xff3157	             0
	     0	      17036785	    0x103f5f1	             0
	   136	      16713882	     0xff089a	             0
	   210	      16708795	     0xfef4bb	             0
	   118	      16718496	     0xff1aa0	             0
	     4	      17030785	    0x103de81	             0
	    10	      16863540	    0x1015134	             0
	    40	      16755041	     0xffa961	             0
	    14	      16863715	    0x10151e3	             0
	   184	      16717730	     0xff17a2	             0
	   196	      16710956	     0xfefd2c	             0
	   172	      16708324	     0xfef2e4	             0
	    18	      16793037	    0x1003dcd	             0
	    12	      16861456	    0x1014910	             0
	   174	      16705668	     0xfee884	             0
	   116	      16720593	     0xff22d1	             0
	   162	      16711318	     0xfefe96	             0
	    64	      16724928	     0xff33c0	             0
	   120	      16723601	     0xff2e91	             0
	    50	      16744811	     0xff816b	             0
	   166	      16706418	     0xfeeb72	             0
	    56	      16745308	     0xff835c	             0
	    26	      16799663	    0x10057af	             0
	   192	      16712082	     0xff0192	             0
	   180	      16708227	     0xfef283	             0
	   178	      16711160	     0xfefdf8	             0
	   104	      16722805	     0xff2b75	             0
	   170	      16708296	     0xfef2c8	             0
	   124	      16719334	     0xff1de6	             0
	    42	      16745880	     0xff8598	             0
	   122	      16722025	     0xff2869	             0
	   152	      16711984	     0xff0130	             0
	   130	      16713885	     0xff089d	             0
	    70	      16721083	     0xff24bb	             0
	   100	      16722168	     0xff28f8	             0
	   160	      16713552	     0xff0750	             0
	    88	      16722830	     0xff2b8e	             0
	   247	      16710109	     0xfef9dd	             0
	   243	      16709564	     0xfef7bc	             0
	   227	      16712263	     0xff0247	             0
	   219	      16710214	     0xfefa46	             0
	   215	      16705234	     0xfee6d2	             0
	   177	      16708678	     0xfef446	             0
	   233	      16712460	     0xff030c	             0
	   221	      16707544	     0xfeefd8	             0
	   223	      16705016	     0xfee5f8	             0
	   207	      16709879	     0xfef8f7	             0
	    89	      16724663	     0xff32b7	             0
	   229	      16707430	     0xfeef66	             0
	    91	      16719633	     0xff1f11	             0
	   213	      16704239	     0xfee2ef	             0
	   237	      16707130	     0xfeee3a	             0
	   199	      16704447	     0xfee3bf	             0
	   205	      16716365	     0xff124d	             0
	   245	      16705364	     0xfee754	             0
	   209	      16709715	     0xfef853	             0
	   193	      16714193	     0xff09d1	             0
	   155	      16717559	     0xff16f7	             0
	   189	      16706204	     0xfeea9c	             0
	   123	      16720278	     0xff2196	             0
	   149	      16705840	     0xfee930	             0
	   211	      16715584	     0xff0f40	             0
	   169	      16713557	     0xff0755	             0
	   235	      16709365	     0xfef6f5	             0
	   145	      16712128	     0xff01c0	             0
	   201	      16711343	     0xfefeaf	             0
	    81	      16724958	     0xff33de	             0
	   157	      16707932	     0xfef15c	             0
	    21	      16793025	    0x1003dc1	             0
	    97	      16727548	     0xff3dfc	             0
	   165	      16707634	     0xfef032	             0
	   175	      16706758	     0xfeecc6	             0
	   179	      16712969	     0xff0509	             0
	   143	      16706953	     0xfeed89	             0
	   161	      16710640	     0xfefbf0	             0
	    31	      16790804	    0x1003514	             0
	    53	      16741544	     0xff74a8	             0
	    41	      16750074	     0xff95fa	             0
	   181	      16704861	     0xfee55d	             0
	   231	      16706222	     0xfeeaae	             0
	   225	      16710013	     0xfef97d	             0
	   183	      16705633	     0xfee861	             0
	    67	      16730507	     0xff498b	             0
	   129	      16713626	     0xff079a	             0
	   119	      16719352	     0xff1df8	             0
	    85	      16727120	     0xff3c50	             0
	    71	      16721058	     0xff24a2	             0
	    77	      16720609	     0xff22e1	             0
	     5	      17031935	    0x103e2ff	             0
	    29	      16784567	    0x1001cb7	             0
	   107	      16724746	     0xff330a	             0
	    61	      16742950	     0xff7a26	             0
	     9	      16870282	    0x1016b8a	             0
	   113	      16725419	     0xff35ab	             0
	    11	      16863661	    0x10151ad	             0
	   147	      16711116	     0xfefdcc	             0
	   103	      16717792	     0xff17e0	             0
	    13	      16860972	    0x101472c	             0
	   111	      16718521	     0xff1ab9	             0
	   133	      16704813	     0xfee52d	             0
	    33	      16748669	     0xff907d	             0
	    63	      16740668	     0xff713c	             0
	   121	      16721285	     0xff2585	             0
	   127	      16716470	     0xff12b6	             0
	   141	      16706591	     0xfeec1f	             0
	    35	      16747607	     0xff8c57	             0
	    93	      16715817	     0xff1029	             0
	   101	      16719798	     0xff1fb6	             0
	   109	      16719915	     0xff202b	             0
	    75	      16725254	     0xff3506	             0
	    23	      16785480	    0x1002048	             0
	    99	      16723788	     0xff2f4c	             0
	   117	      16717855	     0xff181f	             0
	   167	      16705651	     0xfee873	             0
	    49	      16747893	     0xff8d75	             0
	   185	      16708897	     0xfef521	             0
	   115	      16721933	     0xff280d	             0
	     7	      17029331	    0x103d8d3	             0
	   135	      16707783	     0xfef0c7	             0
	     3	      17031245	    0x103e04d	             0
	    57	      16744926	     0xff81de	             0
	    95	      16717628	     0xff173c	             0
	    43	      16752909	     0xffa10d	             0
	    27	      16786853	    0x10025a5	             0
	   191	      16702687	     0xfedcdf	             0
	     1	      17037957	    0x103fa85	             0
	   163	      16709019	     0xfef59b	             0
	    51	      16746157	     0xff86ad	             0
	    15	      16860826	    0x101469a	             0
	   153	      16710161	     0xfefa11	             0
	   187	      16707809	     0xfef0e1	             0
	    55	      16742347	     0xff77cb	             0
	   151	      16703673	     0xfee0b9	             0
	   239	      16704792	     0xfee518	             0
	    79	      16728037	     0xff3fe5	             0
	    25	      16793374	    0x1003f1e	             0
	   137	      16713546	     0xff074a	             0
	    47	      16744121	     0xff7eb9	             0
	   217	      16711019	     0xfefd6b	             0
	    17	      16791507	    0x10037d3	             0
	    39	      16744320	     0xff7f80	             0
	    59	      16747344	     0xff8b50	             0
	   171	      16712590	     0xff038e	             0
	    69	      16720799	     0xff239f	             0
	   173	      16706168	     0xfeea78	             0
	    37	      16742409	     0xff7809	             0
	   203	      16710361	     0xfefad9	             0
	   125	      16719631	     0xff1f0f	             0
	   131	      16710596	     0xfefbc4	             0
	    87	      16717226	     0xff15aa	             0
	    19	      16798300	    0x100525c	             0
	   195	      16712753	     0xff0431	             0
	    65	      16726298	     0xff391a	             0
	    45	      16742539	     0xff788b	             0
	   139	      16689652	     0xfea9f4	             0

total 1073742824
-rw-r--r-- 1 mbryson mbryson 1099511634056 Mar 21 18:21 sample.h5part
total 1.1T
-rw-r--r-- 1 mbryson mbryson 1.1T Mar 21 18:21 sample.h5part
Mon Mar 21 18:22:19 2016: [unset]:_pmi_alps_get_apid:alps response not OKAY
Mon Mar 21 18:22:19 2016: [unset]:_pmi_init:_pmi_alps_init returned -1
HDF5 "/global/cscratch1/sd/mbryson/vpicBench/output_1K/sample.h5part" {
GROUP "/" {
   ATTRIBUTE "Origin" {
      DATATYPE  H5T_STRING {
         STRSIZE 16;
         STRPAD H5T_STR_NULLTERM;
         CSET H5T_CSET_ASCII;
         CTYPE H5T_C_S1;
      }
      DATASPACE  SCALAR
   }
   GROUP "Step#0" {
      DATASET "id1" {
         DATATYPE  H5T_STD_I32LE
         DATASPACE  SIMPLE { ( 34359738368 ) / ( 34359738368 ) }
      }
      DATASET "id2" {
         DATATYPE  H5T_STD_I32LE
         DATASPACE  SIMPLE { ( 34359738368 ) / ( 34359738368 ) }
      }
      DATASET "px" {
         DATATYPE  H5T_IEEE_F32LE
         DATASPACE  SIMPLE { ( 34359738368 ) / ( 34359738368 ) }
      }
      DATASET "py" {
         DATATYPE  H5T_IEEE_F32LE
         DATASPACE  SIMPLE { ( 34359738368 ) / ( 34359738368 ) }
      }
      DATASET "pz" {
         DATATYPE  H5T_IEEE_F32LE
         DATASPACE  SIMPLE { ( 34359738368 ) / ( 34359738368 ) }
      }
      DATASET "x" {
         DATATYPE  H5T_IEEE_F32LE
         DATASPACE  SIMPLE { ( 34359738368 ) / ( 34359738368 ) }
      }
      DATASET "y" {
         DATATYPE  H5T_IEEE_F32LE
         DATASPACE  SIMPLE { ( 34359738368 ) / ( 34359738368 ) }
      }
      DATASET "z" {
         DATATYPE  H5T_IEEE_F32LE
         DATASPACE  SIMPLE { ( 34359738368 ) / ( 34359738368 ) }
      }
   }
}
}
