collective, 1n1bb, 4 stream
     pool units quantity      free      gran 
test_pool bytes  5.82TiB   5.82TiB     16MiB 
 wlm_pool bytes 832.5TiB 687.58TiB 212.91GiB 

sess state   token creator owner             created expiration nodes 
5530 CA--- 1859200   SLURM 69107 2016-04-13T15:02:36      never     1 
5531 CA--- 1859227   SLURM 69107 2016-04-13T15:06:40      never     0 
5532 CA--- 1859221   SLURM 69107 2016-04-13T15:06:40      never     0 
5533 CA--- 1859223   SLURM 69107 2016-04-13T15:06:40      never     0 
5534 CA--- 1859228   SLURM 69107 2016-04-13T15:06:40      never     0 
5535 CA--- 1859226   SLURM 69107 2016-04-13T15:06:40      never     0 
5536 CA--- 1859225   SLURM 69107 2016-04-13T15:06:40      never     0 
5537 CA--- 1859224   SLURM 69107 2016-04-13T15:06:40      never     0 

inst state sess     bytes nodes             created expiration intact        label public confs 
2232 CA--- 2515 425.81GiB     2 2016-02-19T12:09:21      never   true     XuanCami   true     1 
2234 CA--- 2520 212.91GiB     1 2016-02-19T13:45:33      never   true     myBBname   true     1 
2550 CA--- 3041   1.04TiB     5 2016-03-02T15:01:02      never   true gatkbrachy_2   true     1 
3648 C---- 4142  10.19TiB    49 2016-03-26T14:33:53      never   true     wahAtlas   true     1 
3826 C---- 4334  40.13TiB   135 2016-03-30T15:06:41      never   true   regan_40TB   true     1 
3861 C---- 4384  10.19TiB    49 2016-03-31T05:26:15      never   true   regan_10TB   true     1 
4855 CA--- 5402 212.91GiB     1 2016-04-09T12:17:38      never   true       davebb   true     1 
4905 CA--- 5456 212.91GiB     1 2016-04-11T11:42:33      never   true       bbdave   true     1 
4978 CA--- 5530 425.81GiB     2 2016-04-13T15:02:36      never   true      I5530-0  false     1 
4979 CA--- 5531 425.81GiB     2 2016-04-13T15:06:40      never   true      I5531-0  false     1 
4980 CA--- 5532 425.81GiB     2 2016-04-13T15:06:40      never   true      I5532-0  false     1 
4981 CA--- 5533 425.81GiB     2 2016-04-13T15:06:40      never   true      I5533-0  false     1 
4982 CA--- 5534 425.81GiB     2 2016-04-13T15:06:40      never   true      I5534-0  false     1 
4983 CA--- 5535 425.81GiB     2 2016-04-13T15:06:40      never   true      I5535-0  false     1 
4984 CA--- 5536 425.81GiB     2 2016-04-13T15:06:40      never   true      I5536-0  false     1 
4985 CA--- 5537 425.81GiB     2 2016-04-13T15:06:40      never   true      I5537-0  false     1 

conf state inst    type access_type activs 
2503 CA--- 2232 scratch      stripe      0 
2505 CA--- 2234 scratch      stripe      0 
2821 CA--- 2550 scratch      stripe      0 
3923 CA--- 3648 scratch      stripe      0 
4104 CA--- 3826 scratch      stripe      0 
4139 CA--- 3861 scratch      stripe      0 
5132 CA--- 4855 scratch      stripe      0 
5182 CA--- 4905 scratch      stripe      0 
5254 CA--- 4978 scratch      stripe      1 
5256 CA--- 4982 scratch      stripe      0 
5257 CA--- 4979 scratch      stripe      0 
5258 CA--- 4980 scratch      stripe      0 
5259 CA--- 4981 scratch      stripe      0 
5260 CA--- 4984 scratch      stripe      0 
5261 CA--- 4985 scratch      stripe      0 
5262 CA--- 4983 scratch      stripe      0 

 reg state sess conf wait 
5322 CA--- 5530 5254 true 

activ state sess conf nodes                                     mount 
 5124 CA--- 5530 5254     1 /var/opt/cray/dws/mounts/batch/1859200/ss 

  frag state inst  capacity gran     node 
 61379  CA-- 2232 212.91GiB 4MiB nid02006 
 61380  CA-- 2232 212.91GiB 4MiB nid01034 
 61382  CA-- 2234 212.91GiB 4MiB nid00457 
 73696  CA-- 2550 212.91GiB 4MiB nid02249 
 73697  CA-- 2550 212.91GiB 4MiB nid00205 
 73698  CA-- 2550 212.91GiB 4MiB nid01801 
 73699  CA-- 2550 212.91GiB 4MiB nid00014 
 73700  CA-- 2550 212.91GiB 4MiB nid01169 
129824  CA-- 3648 212.91GiB 4MiB nid02062 
129825  CA-- 3648 212.91GiB 4MiB nid01418 
129826  CA-- 3648 212.91GiB 4MiB nid00785 
129827  CA-- 3648 212.91GiB 4MiB nid00782 
129828  CA-- 3648 212.91GiB 4MiB nid00142 
129829  CA-- 3648 212.91GiB 4MiB nid02189 
129830  CA-- 3648 212.91GiB 4MiB nid00781 
129831  CA-- 3648 212.91GiB 4MiB nid00146 
129832  CA-- 3648 212.91GiB 4MiB nid01481 
129833  CA-- 3648 212.91GiB 4MiB nid01737 
129834  CA-- 3648 212.91GiB 4MiB nid00854 
129835  CA-- 3648 212.91GiB 4MiB nid00653 
129836  CA-- 3648 212.91GiB 4MiB nid01225 
129837  CA-- 3648 212.91GiB 4MiB nid00269 
129838  CA-- 3648 212.91GiB 4MiB nid01237 
129839  CA-- 3648 212.91GiB 4MiB nid01678 
129840  CA-- 3648 212.91GiB 4MiB nid01802 
129841  C--- 3648 212.91GiB 4MiB nid01033 
129842  CA-- 3648 212.91GiB 4MiB nid00853 
129843  CA-- 3648 212.91GiB 4MiB nid00586 
129844  CA-- 3648 212.91GiB 4MiB nid01806 
129845  CA-- 3648 212.91GiB 4MiB nid00526 
129846  CA-- 3648 212.91GiB 4MiB nid01298 
129847  CA-- 3648 212.91GiB 4MiB nid00718 
129848  CA-- 3648 212.91GiB 4MiB nid01485 
129849  CA-- 3648 212.91GiB 4MiB nid00713 
129850  CA-- 3648 212.91GiB 4MiB nid02186 
129851  CA-- 3648 212.91GiB 4MiB nid00141 
129852  CA-- 3648 212.91GiB 4MiB nid00530 
129853  CA-- 3648 212.91GiB 4MiB nid01741 
129854  CA-- 3648 212.91GiB 4MiB nid00073 
129855  CA-- 3648 212.91GiB 4MiB nid00974 
129856  CA-- 3648 212.91GiB 4MiB nid00086 
129857  CA-- 3648 212.91GiB 4MiB nid01738 
129858  CA-- 3648 212.91GiB 4MiB nid01353 
129859  CA-- 3648 212.91GiB 4MiB nid00401 
129860  CA-- 3648 212.91GiB 4MiB nid02066 
129861  CA-- 3648 212.91GiB 4MiB nid00469 
129862  CA-- 3648 212.91GiB 4MiB nid00585 
129863  CA-- 3648 212.91GiB 4MiB nid00265 
129864  CA-- 3648 212.91GiB 4MiB nid01610 
129865  CA-- 3648 212.91GiB 4MiB nid02125 
129866  CA-- 3648 212.91GiB 4MiB nid00201 
129867  CA-- 3648 212.91GiB 4MiB nid00145 
129868  CA-- 3648 212.91GiB 4MiB nid00717 
129869  CA-- 3648 212.91GiB 4MiB nid00470 
129870  CA-- 3648 212.91GiB 4MiB nid00842 
129871  CA-- 3648 212.91GiB 4MiB nid01621 
129872  CA-- 3648 212.91GiB 4MiB nid01549 
138143  CA-- 3826 425.81GiB 4MiB nid01937 
138144  CA-- 3826 425.81GiB 4MiB nid00206 
138145  CA-- 3826 425.81GiB 4MiB nid02005 
138146  CA-- 3826 425.81GiB 4MiB nid00458 
138147  CA-- 3826 425.81GiB 4MiB nid01037 
138148  CA-- 3826 425.81GiB 4MiB nid01294 
138149  CA-- 3826 425.81GiB 4MiB nid00329 
138150  CA-- 3826 425.81GiB 4MiB nid02250 
138151  CA-- 3826 425.81GiB 4MiB nid01486 
138152  CA-- 3826 425.81GiB 4MiB nid00402 
138153  CA-- 3826 425.81GiB 4MiB nid00969 
138154  CA-- 3826 425.81GiB 4MiB nid01358 
138155  CA-- 3826 425.81GiB 4MiB nid01681 
138156  CA-- 3826 425.81GiB 4MiB nid02190 
138157  CA-- 3826 425.81GiB 4MiB nid01805 
138158  CA-- 3826 425.81GiB 4MiB nid00085 
138159  CA-- 3826 425.81GiB 4MiB nid01170 
138160  CA-- 3826 425.81GiB 4MiB nid00013 
138161  CA-- 3826 425.81GiB 4MiB nid02065 
138162  CA-- 3826 425.81GiB 4MiB nid01869 
138163  CA-- 3826 425.81GiB 4MiB nid00397 
138164  CA-- 3826 425.81GiB 4MiB nid01421 
138165  CA-- 3826 425.81GiB 4MiB nid01102 
138166  CA-- 3826 425.81GiB 4MiB nid01870 
138167  CA-- 3826 425.81GiB 4MiB nid00270 
138168  CA-- 3826 425.81GiB 4MiB nid01166 
138169  CA-- 3826 425.81GiB 4MiB nid01550 
138170  CA-- 3826 425.81GiB 4MiB nid01553 
138171  CA-- 3826 425.81GiB 4MiB nid00910 
138172  CA-- 3826 425.81GiB 4MiB nid02061 
138173  CA-- 3826 425.81GiB 4MiB nid02185 
138174  CA-- 3826 425.81GiB 4MiB nid01933 
138175  CA-- 3826 425.81GiB 4MiB nid02121 
138176  CA-- 3826 425.81GiB 4MiB nid00970 
138177  CA-- 3826 425.81GiB 4MiB nid00914 
138178  CA-- 3826 425.81GiB 4MiB nid00017 
138179  CA-- 3826 425.81GiB 4MiB nid01165 
138180  CA-- 3826 425.81GiB 4MiB nid01622 
138181  CA-- 3826 425.81GiB 4MiB nid00786 
138182  CA-- 3826 425.81GiB 4MiB nid00074 
138183  CA-- 3826 425.81GiB 4MiB nid01866 
138184  CA-- 3826 425.81GiB 4MiB nid00525 
138185  CA-- 3826 425.81GiB 4MiB nid00714 
138186  CA-- 3826 425.81GiB 4MiB nid00330 
138187  CA-- 3826 425.81GiB 4MiB nid00334 
138188  CA-- 3826 425.81GiB 4MiB nid01742 
138189  CA-- 3826 425.81GiB 4MiB nid00649 
138190  CA-- 3826 425.81GiB 4MiB nid01238 
138191  CA-- 3826 425.81GiB 4MiB nid01297 
138192  CA-- 3826 425.81GiB 4MiB nid01293 
138193  CA-- 3826 425.81GiB 4MiB nid01677 
138194  CA-- 3826 425.81GiB 4MiB nid02122 
138195  CA-- 3826 425.81GiB 4MiB nid01554 
138196  CA-- 3826 425.81GiB 4MiB nid00909 
138197  CA-- 3826 425.81GiB 4MiB nid00529 
138198  CA-- 3826 425.81GiB 4MiB nid00590 
138199  CA-- 3826 425.81GiB 4MiB nid00398 
138200  CA-- 3826 425.81GiB 4MiB nid00654 
138201  CA-- 3826 212.91GiB 4MiB nid01226 
138202  CA-- 3826 212.91GiB 4MiB nid00018 
138203  CA-- 3826 212.91GiB 4MiB nid02126 
138204  CA-- 3826 212.91GiB 4MiB nid01482 
138205  CA-- 3826 212.91GiB 4MiB nid01934 
138206  CA-- 3826 212.91GiB 4MiB nid01682 
138207  CA-- 3826 212.91GiB 4MiB nid01357 
138208  CA-- 3826 212.91GiB 4MiB nid01417 
138209  CA-- 3826 212.91GiB 4MiB nid01354 
138210  CA-- 3826 212.91GiB 4MiB nid01938 
138211  CA-- 3826 212.91GiB 4MiB nid00266 
138212  CA-- 3826 212.91GiB 4MiB nid00333 
138213  CA-- 3826 212.91GiB 4MiB nid00841 
138214  CA-- 3826 212.91GiB 4MiB nid01609 
138215  CA-- 3826 212.91GiB 4MiB nid00589 
138216  CA-- 3826 212.91GiB 4MiB nid02062 
138217  CA-- 3826 212.91GiB 4MiB nid01418 
138218  CA-- 3826 212.91GiB 4MiB nid01994 
138219  CA-- 3826 212.91GiB 4MiB nid00785 
138220  CA-- 3826 212.91GiB 4MiB nid00782 
138221  CA-- 3826 212.91GiB 4MiB nid00142 
138222  CA-- 3826 212.91GiB 4MiB nid02189 
138223  CA-- 3826 212.91GiB 4MiB nid00781 
138224  CA-- 3826 212.91GiB 4MiB nid00457 
138225  CA-- 3826 212.91GiB 4MiB nid00146 
138226  CA-- 3826 212.91GiB 4MiB nid01481 
138227  CA-- 3826 212.91GiB 4MiB nid01737 
138228  CA-- 3826 212.91GiB 4MiB nid00854 
138229  CA-- 3826 212.91GiB 4MiB nid00653 
138230  CA-- 3826 212.91GiB 4MiB nid02253 
138231  CA-- 3826 212.91GiB 4MiB nid01225 
138232  CA-- 3826 212.91GiB 4MiB nid00269 
138233  CA-- 3826 212.91GiB 4MiB nid01237 
138234  CA-- 3826 212.91GiB 4MiB nid01678 
138235  CA-- 3826 212.91GiB 4MiB nid01802 
138236  C--- 3826 212.91GiB 4MiB nid01033 
138237  CA-- 3826 212.91GiB 4MiB nid00853 
138238  CA-- 3826 212.91GiB 4MiB nid00586 
138239  CA-- 3826 212.91GiB 4MiB nid01806 
138240  CA-- 3826 212.91GiB 4MiB nid00526 
138241  CA-- 3826 212.91GiB 4MiB nid01298 
138242  CA-- 3826 212.91GiB 4MiB nid00718 
138243  CA-- 3826 212.91GiB 4MiB nid01485 
138244  CA-- 3826 212.91GiB 4MiB nid00713 
138245  CA-- 3826 212.91GiB 4MiB nid02186 
138246  CA-- 3826 212.91GiB 4MiB nid00141 
138247  CA-- 3826 212.91GiB 4MiB nid00530 
138248  CA-- 3826 212.91GiB 4MiB nid01741 
138249  CA-- 3826 212.91GiB 4MiB nid00073 
138250  CA-- 3826 212.91GiB 4MiB nid00974 
138251  CA-- 3826 212.91GiB 4MiB nid00086 
138252  CA-- 3826 212.91GiB 4MiB nid01738 
138253  CA-- 3826 212.91GiB 4MiB nid01353 
138254  CA-- 3826 212.91GiB 4MiB nid00401 
138255  CA-- 3826 212.91GiB 4MiB nid02066 
138256  CA-- 3826 212.91GiB 4MiB nid00469 
138257  CA-- 3826 212.91GiB 4MiB nid00585 
138258  CA-- 3826 212.91GiB 4MiB nid00265 
138259  CA-- 3826 212.91GiB 4MiB nid01610 
138260  CA-- 3826 212.91GiB 4MiB nid02125 
138261  CA-- 3826 212.91GiB 4MiB nid00201 
138262  CA-- 3826 212.91GiB 4MiB nid00145 
138263  CA-- 3826 212.91GiB 4MiB nid00717 
138264  CA-- 3826 212.91GiB 4MiB nid00470 
138265  CA-- 3826 212.91GiB 4MiB nid00842 
138266  CA-- 3826 212.91GiB 4MiB nid01621 
138267  CA-- 3826 212.91GiB 4MiB nid01549 
138268  CA-- 3826 212.91GiB 4MiB nid00202 
138269  CA-- 3826 212.91GiB 4MiB nid00973 
138270  CA-- 3826 212.91GiB 4MiB nid00650 
138271  CA-- 3826 212.91GiB 4MiB nid02249 
138272  CA-- 3826 212.91GiB 4MiB nid00205 
138273  CA-- 3826 212.91GiB 4MiB nid01801 
138274  CA-- 3826 212.91GiB 4MiB nid00014 
138275  CA-- 3826 212.91GiB 4MiB nid01169 
138276  CA-- 3826 212.91GiB 4MiB nid02006 
138277  CA-- 3826 212.91GiB 4MiB nid01034 
139195  CA-- 3861 212.91GiB 4MiB nid00589 
139196  CA-- 3861 212.91GiB 4MiB nid02062 
139197  CA-- 3861 212.91GiB 4MiB nid01418 
139198  CA-- 3861 212.91GiB 4MiB nid01994 
139199  CA-- 3861 212.91GiB 4MiB nid00785 
139200  CA-- 3861 212.91GiB 4MiB nid00782 
139201  CA-- 3861 212.91GiB 4MiB nid00142 
139202  CA-- 3861 212.91GiB 4MiB nid02189 
139203  CA-- 3861 212.91GiB 4MiB nid00781 
139204  CA-- 3861 212.91GiB 4MiB nid00457 
139205  CA-- 3861 212.91GiB 4MiB nid00146 
139206  CA-- 3861 212.91GiB 4MiB nid01481 
139207  CA-- 3861 212.91GiB 4MiB nid01737 
139208  CA-- 3861 212.91GiB 4MiB nid00854 
139209  CA-- 3861 212.91GiB 4MiB nid00653 
139210  CA-- 3861 212.91GiB 4MiB nid02253 
139211  CA-- 3861 212.91GiB 4MiB nid01225 
139212  CA-- 3861 212.91GiB 4MiB nid00269 
139213  CA-- 3861 212.91GiB 4MiB nid01237 
139214  CA-- 3861 212.91GiB 4MiB nid01678 
139215  CA-- 3861 212.91GiB 4MiB nid01802 
139216  C--- 3861 212.91GiB 4MiB nid01033 
139217  CA-- 3861 212.91GiB 4MiB nid00853 
139218  CA-- 3861 212.91GiB 4MiB nid00586 
139219  CA-- 3861 212.91GiB 4MiB nid01806 
139220  CA-- 3861 212.91GiB 4MiB nid00526 
139221  CA-- 3861 212.91GiB 4MiB nid01298 
139222  CA-- 3861 212.91GiB 4MiB nid00718 
139223  CA-- 3861 212.91GiB 4MiB nid01485 
139224  CA-- 3861 212.91GiB 4MiB nid00713 
139225  CA-- 3861 212.91GiB 4MiB nid02186 
139226  CA-- 3861 212.91GiB 4MiB nid00141 
139227  CA-- 3861 212.91GiB 4MiB nid00530 
139228  CA-- 3861 212.91GiB 4MiB nid01741 
139229  CA-- 3861 212.91GiB 4MiB nid00073 
139230  CA-- 3861 212.91GiB 4MiB nid00974 
139231  CA-- 3861 212.91GiB 4MiB nid00086 
139232  CA-- 3861 212.91GiB 4MiB nid01738 
139233  CA-- 3861 212.91GiB 4MiB nid01353 
139234  CA-- 3861 212.91GiB 4MiB nid00401 
139235  CA-- 3861 212.91GiB 4MiB nid02066 
139236  CA-- 3861 212.91GiB 4MiB nid00469 
139237  CA-- 3861 212.91GiB 4MiB nid00585 
139238  CA-- 3861 212.91GiB 4MiB nid00265 
139239  CA-- 3861 212.91GiB 4MiB nid01610 
139240  CA-- 3861 212.91GiB 4MiB nid02125 
139241  CA-- 3861 212.91GiB 4MiB nid00201 
139242  CA-- 3861 212.91GiB 4MiB nid00145 
139243  CA-- 3861 212.91GiB 4MiB nid00717 
154273  CA-- 4855 212.91GiB 4MiB nid02126 
154993  CA-- 4905 212.91GiB 4MiB nid01357 
156358  CA-- 4978 212.91GiB 4MiB nid00458 
156359  CA-- 4978 212.91GiB 4MiB nid01037 
156360  CA-- 4979 212.91GiB 4MiB nid01294 
156361  CA-- 4979 212.91GiB 4MiB nid00329 
156362  CA-- 4980 212.91GiB 4MiB nid02250 
156363  CA-- 4980 212.91GiB 4MiB nid01486 
156364  CA-- 4981 212.91GiB 4MiB nid00402 
156365  CA-- 4981 212.91GiB 4MiB nid00969 
156366  CA-- 4982 212.91GiB 4MiB nid01226 
156367  CA-- 4982 212.91GiB 4MiB nid00018 
156368  CA-- 4983 212.91GiB 4MiB nid01482 
156369  CA-- 4983 212.91GiB 4MiB nid01934 
156370  CA-- 4984 212.91GiB 4MiB nid01682 
156371  CA-- 4984 212.91GiB 4MiB nid01417 
156372  CA-- 4985 212.91GiB 4MiB nid01354 
156373  CA-- 4985 212.91GiB 4MiB nid01938 

   ns state conf   frag span 
49198  CA-- 2503  61379    2 
49200  CA-- 2505  61382    1 
52607  CA-- 2821  73696    5 
56888  CA-- 3923 129824   49 
57145  CA-- 4104 138143  135 
57244  CA-- 4139 139195   49 
58853  CA-- 5132 154273    1 
58903  CA-- 5182 154993    1 
58975  CA-- 5254 156358    2 
58977  CA-- 5256 156366    2 
58978  CA-- 5257 156360    2 
58979  CA-- 5258 156362    2 
58980  CA-- 5259 156364    2 
58981  CA-- 5260 156370    2 
58982  CA-- 5261 156372    2 
58983  CA-- 5262 156368    2 

    node      pool online drain  gran capacity insts activs 
nid00013  wlm_pool   true false 16MiB  5.82TiB     1      0 
nid00014  wlm_pool   true false 16MiB  5.82TiB     2      0 
nid00017  wlm_pool   true false 16MiB  5.82TiB     1      0 
nid00018  wlm_pool   true false 16MiB  5.82TiB     2      0 
nid00073  wlm_pool   true false 16MiB  5.82TiB     3      0 
nid00074  wlm_pool   true false 16MiB  5.82TiB     1      0 
nid00085  wlm_pool   true false 16MiB  5.82TiB     1      0 
nid00086  wlm_pool   true false 16MiB  5.82TiB     3      0 
nid00141  wlm_pool   true false 16MiB  5.82TiB     3      0 
nid00142  wlm_pool   true false 16MiB  5.82TiB     3      0 
nid00145  wlm_pool   true false 16MiB  5.82TiB     3      0 
nid00146  wlm_pool   true false 16MiB  5.82TiB     3      0 
nid00201  wlm_pool   true false 16MiB  5.82TiB     3      0 
nid00202  wlm_pool   true  true 16MiB  5.82TiB     1      0 
nid00205  wlm_pool   true false 16MiB  5.82TiB     2      0 
nid00206  wlm_pool   true false 16MiB  5.82TiB     1      0 
nid00265  wlm_pool   true false 16MiB  5.82TiB     3      0 
nid00266  wlm_pool   true false 16MiB  5.82TiB     1      0 
nid00269  wlm_pool   true false 16MiB  5.82TiB     3      0 
nid00270  wlm_pool   true false 16MiB  5.82TiB     1      0 
nid00329  wlm_pool   true false 16MiB  5.82TiB     2      0 
nid00330  wlm_pool   true false 16MiB  5.82TiB     1      0 
nid00333  wlm_pool   true false 16MiB  5.82TiB     1      0 
nid00334  wlm_pool   true false 16MiB  5.82TiB     1      0 
nid00397  wlm_pool   true false 16MiB  5.82TiB     1      0 
nid00398  wlm_pool   true false 16MiB  5.82TiB     1      0 
nid00401  wlm_pool   true false 16MiB  5.82TiB     3      0 
nid00402  wlm_pool   true false 16MiB  5.82TiB     2      0 
nid00457  wlm_pool   true false 16MiB  5.82TiB     3      0 
nid00458  wlm_pool   true false 16MiB  5.82TiB     2      0 
nid00469  wlm_pool   true false 16MiB  5.82TiB     3      0 
nid00470  wlm_pool   true false 16MiB  5.82TiB     2      0 
nid00525  wlm_pool   true false 16MiB  5.82TiB     1      0 
nid00526  wlm_pool   true false 16MiB  5.82TiB     3      0 
nid00529  wlm_pool   true false 16MiB  5.82TiB     1      0 
nid00530  wlm_pool   true false 16MiB  5.82TiB     3      0 
nid00585  wlm_pool   true false 16MiB  5.82TiB     3      0 
nid00586  wlm_pool   true false 16MiB  5.82TiB     3      0 
nid00589  wlm_pool   true  true 16MiB  5.82TiB     2      0 
nid00590  wlm_pool   true false 16MiB  5.82TiB     1      0 
nid00649  wlm_pool   true false 16MiB  5.82TiB     1      0 
nid00650  wlm_pool   true false 16MiB  5.82TiB     1      0 
nid00653  wlm_pool   true false 16MiB  5.82TiB     3      0 
nid00654  wlm_pool   true false 16MiB  5.82TiB     1      0 
nid00713  wlm_pool   true false 16MiB  5.82TiB     3      0 
nid00714  wlm_pool   true false 16MiB  5.82TiB     1      0 
nid00717  wlm_pool   true false 16MiB  5.82TiB     3      0 
nid00718  wlm_pool   true false 16MiB  5.82TiB     3      0 
nid00781  wlm_pool   true false 16MiB  5.82TiB     3      0 
nid00782  wlm_pool   true false 16MiB  5.82TiB     3      0 
nid00785  wlm_pool   true false 16MiB  5.82TiB     3      0 
nid00786  wlm_pool   true false 16MiB  5.82TiB     1      0 
nid00841  wlm_pool   true false 16MiB  5.82TiB     1      0 
nid00842  wlm_pool   true false 16MiB  5.82TiB     2      0 
nid00853  wlm_pool   true false 16MiB  5.82TiB     3      0 
nid00854  wlm_pool   true false 16MiB  5.82TiB     3      0 
nid00909  wlm_pool   true false 16MiB  5.82TiB     1      0 
nid00910  wlm_pool   true false 16MiB  5.82TiB     1      0 
nid00913  wlm_pool   true  true 16MiB  5.82TiB     0      0 
nid00914  wlm_pool   true false 16MiB  5.82TiB     1      0 
nid00969  wlm_pool   true false 16MiB  5.82TiB     2      0 
nid00970  wlm_pool   true false 16MiB  5.82TiB     1      0 
nid00973  wlm_pool   true false 16MiB  5.82TiB     1      0 
nid00974  wlm_pool   true false 16MiB  5.82TiB     3      0 
nid01033  wlm_pool  false  true 16MiB  5.82TiB     3      0 
nid01034  wlm_pool   true  true 16MiB  5.82TiB     2      0 
nid01037  wlm_pool   true false 16MiB  5.82TiB     2      0 
nid01038  wlm_pool  false  true 16MiB  5.82TiB     0      0 
nid01097  wlm_pool   true  true 16MiB  5.82TiB     0      0 
nid01098  wlm_pool   true  true 16MiB  5.82TiB     0      0 
nid01101  wlm_pool   true  true 16MiB  5.82TiB     0      0 
nid01102  wlm_pool   true false 16MiB  5.82TiB     1      0 
nid01165  wlm_pool   true false 16MiB  5.82TiB     1      0 
nid01166  wlm_pool   true false 16MiB  5.82TiB     1      0 
nid01169  wlm_pool   true false 16MiB  5.82TiB     2      0 
nid01170  wlm_pool   true false 16MiB  5.82TiB     1      0 
nid01225  wlm_pool   true false 16MiB  5.82TiB     3      0 
nid01226  wlm_pool   true false 16MiB  5.82TiB     2      0 
nid01237  wlm_pool   true false 16MiB  5.82TiB     3      0 
nid01238  wlm_pool   true false 16MiB  5.82TiB     1      0 
nid01293  wlm_pool   true false 16MiB  5.82TiB     1      0 
nid01294  wlm_pool   true false 16MiB  5.82TiB     2      0 
nid01297  wlm_pool   true false 16MiB  5.82TiB     1      0 
nid01298  wlm_pool   true false 16MiB  5.82TiB     3      0 
nid01353  wlm_pool   true false 16MiB  5.82TiB     3      0 
nid01354  wlm_pool   true false 16MiB  5.82TiB     2      0 
nid01357  wlm_pool   true false 16MiB  5.82TiB     2      0 
nid01358  wlm_pool   true false 16MiB  5.82TiB     1      0 
nid01417  wlm_pool   true false 16MiB  5.82TiB     2      0 
nid01418  wlm_pool   true false 16MiB  5.82TiB     3      0 
nid01421  wlm_pool   true false 16MiB  5.82TiB     1      0 
nid01422  wlm_pool   true  true 16MiB  5.82TiB     0      0 
nid01481  wlm_pool   true false 16MiB  5.82TiB     3      0 
nid01482  wlm_pool   true false 16MiB  5.82TiB     2      0 
nid01485  wlm_pool   true false 16MiB  5.82TiB     3      0 
nid01486  wlm_pool   true false 16MiB  5.82TiB     2      0 
nid01549  wlm_pool   true false 16MiB  5.82TiB     2      0 
nid01550  wlm_pool   true false 16MiB  5.82TiB     1      0 
nid01553  wlm_pool   true false 16MiB  5.82TiB     1      0 
nid01554  wlm_pool   true false 16MiB  5.82TiB     1      0 
nid01609  wlm_pool   true false 16MiB  5.82TiB     1      0 
nid01610  wlm_pool   true false 16MiB  5.82TiB     3      0 
nid01621  wlm_pool   true false 16MiB  5.82TiB     2      0 
nid01622  wlm_pool   true false 16MiB  5.82TiB     1      0 
nid01677  wlm_pool   true false 16MiB  5.82TiB     1      0 
nid01678  wlm_pool   true false 16MiB  5.82TiB     3      0 
nid01681  wlm_pool   true false 16MiB  5.82TiB     1      0 
nid01682  wlm_pool   true false 16MiB  5.82TiB     2      0 
nid01737  wlm_pool   true false 16MiB  5.82TiB     3      0 
nid01738  wlm_pool   true false 16MiB  5.82TiB     3      0 
nid01741  wlm_pool   true false 16MiB  5.82TiB     3      0 
nid01742  wlm_pool   true false 16MiB  5.82TiB     1      0 
nid01801  wlm_pool   true false 16MiB  5.82TiB     2      0 
nid01802  wlm_pool   true false 16MiB  5.82TiB     3      0 
nid01805  wlm_pool   true false 16MiB  5.82TiB     1      0 
nid01806  wlm_pool   true false 16MiB  5.82TiB     3      0 
nid01865  wlm_pool   true  true 16MiB  5.82TiB     0      0 
nid01866  wlm_pool   true false 16MiB  5.82TiB     1      0 
nid01869  wlm_pool   true false 16MiB  5.82TiB     1      0 
nid01870  wlm_pool   true false 16MiB  5.82TiB     1      0 
nid01933  wlm_pool   true false 16MiB  5.82TiB     1      0 
nid01934  wlm_pool   true false 16MiB  5.82TiB     2      0 
nid01937  wlm_pool   true  true 16MiB  5.82TiB     1      0 
nid01938  wlm_pool   true false 16MiB  5.82TiB     2      0 
nid01993  wlm_pool   true  true 16MiB  5.82TiB     0      0 
nid01994  wlm_pool   true false 16MiB  5.82TiB     2      0 
nid02005  wlm_pool   true false 16MiB  5.82TiB     1      0 
nid02006  wlm_pool   true false 16MiB  5.82TiB     2      0 
nid02061  wlm_pool   true false 16MiB  5.82TiB     1      0 
nid02062  wlm_pool   true  true 16MiB  5.82TiB     3      0 
nid02065  wlm_pool   true false 16MiB  5.82TiB     1      0 
nid02066  wlm_pool   true false 16MiB  5.82TiB     3      0 
nid02121  wlm_pool   true false 16MiB  5.82TiB     1      0 
nid02122  wlm_pool   true false 16MiB  5.82TiB     1      0 
nid02125  wlm_pool   true false 16MiB  5.82TiB     3      0 
nid02126  wlm_pool   true false 16MiB  5.82TiB     2      0 
nid02185  wlm_pool   true false 16MiB  5.82TiB     1      0 
nid02186  wlm_pool   true false 16MiB  5.82TiB     3      0 
nid02189  wlm_pool   true false 16MiB  5.82TiB     3      0 
nid02190  wlm_pool   true false 16MiB  5.82TiB     1      0 
nid02249  wlm_pool   true false 16MiB  5.82TiB     2      0 
nid02250  wlm_pool   true false 16MiB  5.82TiB     2      0 
nid02253  wlm_pool   true false 16MiB  5.82TiB     2      0 
nid02254 test_pool   true false 16MiB  5.82TiB     0      0 

Wed Apr 13 16:54:10 PDT 2016 - Found DataWarp/DVS fs stats file at /proc/fs/dvs/mounts/12/stats
MPIIO: unrecognized DVS real_fs_magic=0XBBFBBF10  ADIOI_CRAY_dvs_real_fstype:1246  using default optimizations
MPIIO WARNING: DVS stripe width of 32 was requested but DVS set it to 2
See MPICH_MPIIO_DVS_MAXNODES in the intro_mpi man page.
MPIIO: unrecognized DVS real_fs_magic=0XBBFBBF10  ADIOI_CRAY_dvs_real_fstype:1246  using default optimizations
MPIIO WARNING: DVS stripe width of 32 was requested but DVS set it to 2
See MPICH_MPIIO_DVS_MAXNODES in the intro_mpi man page.
MPIIO: unrecognized DVS real_fs_magic=0XBBFBBF10  ADIOI_CRAY_dvs_real_fstype:1246  using default optimizations
MPIIO: unrecognized DVS real_fs_magic=0XBBFBBF10  ADIOI_CRAY_dvs_real_fstype:1246  using default optimizations
MPIIO WARNING: DVS stripe width of 32 was requested but DVS set it to 2
See MPICH_MPIIO_DVS_MAXNODES in the intro_mpi man page.
MPIIO WARNING: DVS stripe width of 32 was requested but DVS set it to 2
See MPICH_MPIIO_DVS_MAXNODES in the intro_mpi man page.
Number of paritcles: 33554432 
Finished initializing particles 
Opened H5Part file... 
Before writing particles 
Step is set 
Num particles is set 
Rank: 0, wrote 128.00 MB, time: 1.659957 sec; rate: 77.110428
Written variable 1 
Written variable 2 
Rank: 0, wrote 128.00 MB, time: 1.633892 sec; rate: 78.340546
Written variable 3 
Rank: 0, wrote 128.00 MB, time: 1.716429 sec; rate: 74.573433
Written variable 4 
Rank: 0, wrote 128.00 MB, time: 1.667961 sec; rate: 76.740402
Written variable 5 
Rank: 0, wrote 128.00 MB, time: 1.663914 sec; rate: 76.927055
Written variable 6 
Rank: 0, wrote 128.00 MB, time: 1.513874 sec; rate: 84.551285
Written variable 7 
Rank: 0, wrote 128.00 MB, time: 1.659932 sec; rate: 77.111595
Written variable 8 
Rank: 0, wrote 128.00 MB, time: 1.684049 sec; rate: 76.007286
After writing particles 
After closing particles 

Timing results
13.229997 seconds elapsed in just writing data
14.168653 seconds elapsed in opening, writing, closing file

Number of paritcles: 33554432 
Finished initializing particles 
Opened H5Part file... 
Before writing particles 
Step is set 
Num particles is set 
Rank: 0, wrote 128.00 MB, time: 1.448621 sec; rate: 88.359894
Written variable 1 
Written variable 2 
Rank: 0, wrote 128.00 MB, time: 1.677283 sec; rate: 76.313896
Written variable 3 
Rank: 0, wrote 128.00 MB, time: 1.566961 sec; rate: 81.686775
Written variable 4 
Rank: 0, wrote 128.00 MB, time: 1.688625 sec; rate: 75.801315
Written variable 5 
Rank: 0, wrote 128.00 MB, time: 1.603140 sec; rate: 79.843307
Written variable 6 
Rank: 0, wrote 128.00 MB, time: 1.672944 sec; rate: 76.511826
Written variable 7 
Rank: 0, wrote 128.00 MB, time: 1.697070 sec; rate: 75.424110
Written variable 8 
Rank: 0, wrote 128.00 MB, time: 1.657588 sec; rate: 77.220634
After writing particles 
After closing particles 

Timing results
13.043350 seconds elapsed in just writing data
14.077658 seconds elapsed in opening, writing, closing file

Number of paritcles: 33554432 
Finished initializing particles 
Opened H5Part file... 
Before writing particles 
Step is set 
Num particles is set 
Rank: 0, wrote 128.00 MB, time: 1.620738 sec; rate: 78.976364
Written variable 1 
Written variable 2 
Rank: 0, wrote 128.00 MB, time: 1.712393 sec; rate: 74.749191
Written variable 3 
Rank: 0, wrote 128.00 MB, time: 1.683511 sec; rate: 76.031578
Written variable 4 
Rank: 0, wrote 128.00 MB, time: 1.717433 sec; rate: 74.529839
Written variable 5 
Rank: 0, wrote 128.00 MB, time: 1.677243 sec; rate: 76.315720
Written variable 6 
Rank: 0, wrote 128.00 MB, time: 1.785762 sec; rate: 71.678085
Written variable 7 
Rank: 0, wrote 128.00 MB, time: 1.609817 sec; rate: 79.512138
Written variable 8 
Rank: 0, wrote 128.00 MB, time: 1.566295 sec; rate: 81.721512
After writing particles 
After closing particles 

Timing results
13.375890 seconds elapsed in just writing data
14.307074 seconds elapsed in opening, writing, closing file

Number of paritcles: 33554432 
Finished initializing particles 
Opened H5Part file... 
Before writing particles 
Step is set 
Num particles is set 
Rank: 0, wrote 128.00 MB, time: 1.633499 sec; rate: 78.359398
Written variable 1 
Written variable 2 
Rank: 0, wrote 128.00 MB, time: 1.681612 sec; rate: 76.117439
Written variable 3 
Rank: 0, wrote 128.00 MB, time: 1.701144 sec; rate: 75.243484
Written variable 4 
Rank: 0, wrote 128.00 MB, time: 1.723263 sec; rate: 74.277695
Written variable 5 
Rank: 0, wrote 128.00 MB, time: 1.647550 sec; rate: 77.691116
Written variable 6 
Rank: 0, wrote 128.00 MB, time: 1.674601 sec; rate: 76.436119
Written variable 7 
Rank: 0, wrote 128.00 MB, time: 1.797997 sec; rate: 71.190331
Written variable 8 
Rank: 0, wrote 128.00 MB, time: 1.552192 sec; rate: 82.464027
After writing particles 
After closing particles 

Timing results
13.432654 seconds elapsed in just writing data
14.335529 seconds elapsed in opening, writing, closing file

Wed Apr 13 16:54:50 PDT 2016 - Found DataWarp/DVS fs stats file at /proc/fs/dvs/mounts/12/stats
total 33554464
-rw-r----- 1 mbryson mbryson 8589940872 Apr 13 16:55 sample1.h5part
-rw-r----- 1 mbryson mbryson 8589940872 Apr 13 16:55 sample2.h5part
-rw-r----- 1 mbryson mbryson 8589940872 Apr 13 16:55 sample3.h5part
-rw-r----- 1 mbryson mbryson 8589940872 Apr 13 16:55 sample4.h5part
total 33G
-rw-r----- 1 mbryson mbryson 8.1G Apr 13 16:55 sample1.h5part
-rw-r----- 1 mbryson mbryson 8.1G Apr 13 16:55 sample2.h5part
-rw-r----- 1 mbryson mbryson 8.1G Apr 13 16:55 sample3.h5part
-rw-r----- 1 mbryson mbryson 8.1G Apr 13 16:55 sample4.h5part
Wed Apr 13 16:55:03 2016: [unset]:_pmi_alps_get_apid:alps response not OKAY
Wed Apr 13 16:55:03 2016: [unset]:_pmi_init:_pmi_alps_init returned -1
HDF5 "/var/opt/cray/dws/mounts/batch/1859200/ss//output_4S/sample1.h5part" {
GROUP "/" {
   ATTRIBUTE "Origin" {
      DATATYPE  H5T_STRING {
         STRSIZE 15;
         STRPAD H5T_STR_NULLTERM;
         CSET H5T_CSET_ASCII;
         CTYPE H5T_C_S1;
      }
      DATASPACE  SCALAR
   }
   GROUP "Step#0" {
      DATASET "id1" {
         DATATYPE  H5T_STD_I32LE
         DATASPACE  SIMPLE { ( 268435456 ) / ( 268435456 ) }
      }
      DATASET "id2" {
         DATATYPE  H5T_STD_I32LE
         DATASPACE  SIMPLE { ( 268435456 ) / ( 268435456 ) }
      }
      DATASET "px" {
         DATATYPE  H5T_IEEE_F32LE
         DATASPACE  SIMPLE { ( 268435456 ) / ( 268435456 ) }
      }
      DATASET "py" {
         DATATYPE  H5T_IEEE_F32LE
         DATASPACE  SIMPLE { ( 268435456 ) / ( 268435456 ) }
      }
      DATASET "pz" {
         DATATYPE  H5T_IEEE_F32LE
         DATASPACE  SIMPLE { ( 268435456 ) / ( 268435456 ) }
      }
      DATASET "x" {
         DATATYPE  H5T_IEEE_F32LE
         DATASPACE  SIMPLE { ( 268435456 ) / ( 268435456 ) }
      }
      DATASET "y" {
         DATATYPE  H5T_IEEE_F32LE
         DATASPACE  SIMPLE { ( 268435456 ) / ( 268435456 ) }
      }
      DATASET "z" {
         DATATYPE  H5T_IEEE_F32LE
         DATASPACE  SIMPLE { ( 268435456 ) / ( 268435456 ) }
      }
   }
}
}
Wed Apr 13 16:55:03 2016: [unset]:_pmi_alps_get_apid:alps response not OKAY
Wed Apr 13 16:55:03 2016: [unset]:_pmi_init:_pmi_alps_init returned -1
HDF5 "/var/opt/cray/dws/mounts/batch/1859200/ss//output_4S/sample2.h5part" {
GROUP "/" {
   ATTRIBUTE "Origin" {
      DATATYPE  H5T_STRING {
         STRSIZE 15;
         STRPAD H5T_STR_NULLTERM;
         CSET H5T_CSET_ASCII;
         CTYPE H5T_C_S1;
      }
      DATASPACE  SCALAR
   }
   GROUP "Step#0" {
      DATASET "id1" {
         DATATYPE  H5T_STD_I32LE
         DATASPACE  SIMPLE { ( 268435456 ) / ( 268435456 ) }
      }
      DATASET "id2" {
         DATATYPE  H5T_STD_I32LE
         DATASPACE  SIMPLE { ( 268435456 ) / ( 268435456 ) }
      }
      DATASET "px" {
         DATATYPE  H5T_IEEE_F32LE
         DATASPACE  SIMPLE { ( 268435456 ) / ( 268435456 ) }
      }
      DATASET "py" {
         DATATYPE  H5T_IEEE_F32LE
         DATASPACE  SIMPLE { ( 268435456 ) / ( 268435456 ) }
      }
      DATASET "pz" {
         DATATYPE  H5T_IEEE_F32LE
         DATASPACE  SIMPLE { ( 268435456 ) / ( 268435456 ) }
      }
      DATASET "x" {
         DATATYPE  H5T_IEEE_F32LE
         DATASPACE  SIMPLE { ( 268435456 ) / ( 268435456 ) }
      }
      DATASET "y" {
         DATATYPE  H5T_IEEE_F32LE
         DATASPACE  SIMPLE { ( 268435456 ) / ( 268435456 ) }
      }
      DATASET "z" {
         DATATYPE  H5T_IEEE_F32LE
         DATASPACE  SIMPLE { ( 268435456 ) / ( 268435456 ) }
      }
   }
}
}
Wed Apr 13 16:55:03 2016: [unset]:_pmi_alps_get_apid:alps response not OKAY
Wed Apr 13 16:55:03 2016: [unset]:_pmi_init:_pmi_alps_init returned -1
HDF5 "/var/opt/cray/dws/mounts/batch/1859200/ss//output_4S/sample3.h5part" {
GROUP "/" {
   ATTRIBUTE "Origin" {
      DATATYPE  H5T_STRING {
         STRSIZE 15;
         STRPAD H5T_STR_NULLTERM;
         CSET H5T_CSET_ASCII;
         CTYPE H5T_C_S1;
      }
      DATASPACE  SCALAR
   }
   GROUP "Step#0" {
      DATASET "id1" {
         DATATYPE  H5T_STD_I32LE
         DATASPACE  SIMPLE { ( 268435456 ) / ( 268435456 ) }
      }
      DATASET "id2" {
         DATATYPE  H5T_STD_I32LE
         DATASPACE  SIMPLE { ( 268435456 ) / ( 268435456 ) }
      }
      DATASET "px" {
         DATATYPE  H5T_IEEE_F32LE
         DATASPACE  SIMPLE { ( 268435456 ) / ( 268435456 ) }
      }
      DATASET "py" {
         DATATYPE  H5T_IEEE_F32LE
         DATASPACE  SIMPLE { ( 268435456 ) / ( 268435456 ) }
      }
      DATASET "pz" {
         DATATYPE  H5T_IEEE_F32LE
         DATASPACE  SIMPLE { ( 268435456 ) / ( 268435456 ) }
      }
      DATASET "x" {
         DATATYPE  H5T_IEEE_F32LE
         DATASPACE  SIMPLE { ( 268435456 ) / ( 268435456 ) }
      }
      DATASET "y" {
         DATATYPE  H5T_IEEE_F32LE
         DATASPACE  SIMPLE { ( 268435456 ) / ( 268435456 ) }
      }
      DATASET "z" {
         DATATYPE  H5T_IEEE_F32LE
         DATASPACE  SIMPLE { ( 268435456 ) / ( 268435456 ) }
      }
   }
}
}
Wed Apr 13 16:55:03 2016: [unset]:_pmi_alps_get_apid:alps response not OKAY
Wed Apr 13 16:55:03 2016: [unset]:_pmi_init:_pmi_alps_init returned -1
HDF5 "/var/opt/cray/dws/mounts/batch/1859200/ss//output_4S/sample4.h5part" {
GROUP "/" {
   ATTRIBUTE "Origin" {
      DATATYPE  H5T_STRING {
         STRSIZE 15;
         STRPAD H5T_STR_NULLTERM;
         CSET H5T_CSET_ASCII;
         CTYPE H5T_C_S1;
      }
      DATASPACE  SCALAR
   }
   GROUP "Step#0" {
      DATASET "id1" {
         DATATYPE  H5T_STD_I32LE
         DATASPACE  SIMPLE { ( 268435456 ) / ( 268435456 ) }
      }
      DATASET "id2" {
         DATATYPE  H5T_STD_I32LE
         DATASPACE  SIMPLE { ( 268435456 ) / ( 268435456 ) }
      }
      DATASET "px" {
         DATATYPE  H5T_IEEE_F32LE
         DATASPACE  SIMPLE { ( 268435456 ) / ( 268435456 ) }
      }
      DATASET "py" {
         DATATYPE  H5T_IEEE_F32LE
         DATASPACE  SIMPLE { ( 268435456 ) / ( 268435456 ) }
      }
      DATASET "pz" {
         DATATYPE  H5T_IEEE_F32LE
         DATASPACE  SIMPLE { ( 268435456 ) / ( 268435456 ) }
      }
      DATASET "x" {
         DATATYPE  H5T_IEEE_F32LE
         DATASPACE  SIMPLE { ( 268435456 ) / ( 268435456 ) }
      }
      DATASET "y" {
         DATATYPE  H5T_IEEE_F32LE
         DATASPACE  SIMPLE { ( 268435456 ) / ( 268435456 ) }
      }
      DATASET "z" {
         DATATYPE  H5T_IEEE_F32LE
         DATASPACE  SIMPLE { ( 268435456 ) / ( 268435456 ) }
      }
   }
}
}
seconds for all jobs
34
