Running VPIC-IO with 16K processes, 16 per node
MPIIO WARNING: DVS stripe width of 32 was requested but DVS set it to 141
See MPICH_MPIIO_DVS_MAXNODES in the intro_mpi man page.
Number of paritcles: 33554432 
Finished initializing particles 
Opened H5Part file... 
Before writing particles 
Step is set 
Num particles is set 
Written variable 1 
Written variable 2 
Written variable 3 
Written variable 4 
Written variable 5 
Written variable 6 
Written variable 7 
Written variable 8 
After writing particles 
After closing particles 

Timing results
154.049835 seconds elapsed in just writing data
158.036011 seconds elapsed in opening, writing, closing file

-rw-r----- 1 mbryson mbryson 17592186050696 Sep 18 21:15 /var/opt/cray/dws/mounts/batch/3008785/ss//output_16K/sample.h5part
-rw-r----- 1 mbryson mbryson 17T Sep 18 21:15 /var/opt/cray/dws/mounts/batch/3008785/ss//output_16K/sample.h5part
HDF5 "/var/opt/cray/dws/mounts/batch/3008785/ss//output_16K/sample.h5part" {
GROUP "/" {
   ATTRIBUTE "Origin" {
      DATATYPE  H5T_STRING {
         STRSIZE 15;
         STRPAD H5T_STR_NULLTERM;
         CSET H5T_CSET_ASCII;
         CTYPE H5T_C_S1;
      }
      DATASPACE  SCALAR
   }
   GROUP "Step#0" {
      DATASET "id1" {
         DATATYPE  H5T_STD_I32LE
         DATASPACE  SIMPLE { ( 549755813888 ) / ( 549755813888 ) }
      }
      DATASET "id2" {
         DATATYPE  H5T_STD_I32LE
         DATASPACE  SIMPLE { ( 549755813888 ) / ( 549755813888 ) }
      }
      DATASET "px" {
         DATATYPE  H5T_IEEE_F32LE
         DATASPACE  SIMPLE { ( 549755813888 ) / ( 549755813888 ) }
      }
      DATASET "py" {
         DATATYPE  H5T_IEEE_F32LE
         DATASPACE  SIMPLE { ( 549755813888 ) / ( 549755813888 ) }
      }
      DATASET "pz" {
         DATATYPE  H5T_IEEE_F32LE
         DATASPACE  SIMPLE { ( 549755813888 ) / ( 549755813888 ) }
      }
      DATASET "x" {
         DATATYPE  H5T_IEEE_F32LE
         DATASPACE  SIMPLE { ( 549755813888 ) / ( 549755813888 ) }
      }
      DATASET "y" {
         DATATYPE  H5T_IEEE_F32LE
         DATASPACE  SIMPLE { ( 549755813888 ) / ( 549755813888 ) }
      }
      DATASET "z" {
         DATATYPE  H5T_IEEE_F32LE
         DATASPACE  SIMPLE { ( 549755813888 ) / ( 549755813888 ) }
      }
   }
}
}
