Running VPIC-IO with 16K processes, 32 per node
Number of paritcles: 33554432 
Finished initializing particles 
Opened H5Part file... 
Before writing particles 
Step is set 
Num particles is set 
Written variable 1 
Written variable 2 
Written variable 3 
Written variable 4 
Written variable 5 
Written variable 6 
Written variable 7 
Written variable 8 
After writing particles 
After closing particles 

Timing results
98.471886 seconds elapsed in just writing data
152.414688 seconds elapsed in opening, writing, closing file

/global/cscratch1/sd/mbryson/vpicBench/output_16K/sample.h5part
lmm_stripe_count:   248
lmm_stripe_size:    8388608
lmm_pattern:        1
lmm_layout_gen:     0
lmm_stripe_offset:  164
	obdidx		 objid		 objid		 group
	   164	      13839668	     0xd32d34	             0
	    54	      13871931	     0xd3ab3b	             0
	   140	      13839097	     0xd32af9	             0
	    92	      13848633	     0xd35039	             0
	   110	      13848501	     0xd34fb5	             0
	    20	      13920908	     0xd46a8c	             0
	   156	      13837475	     0xd324a3	             0
	    62	      13867951	     0xd39baf	             0
	    72	      13861813	     0xd383b5	             0
	   150	      13835648	     0xd31d80	             0
	    84	      13854707	     0xd367f3	             0
	   144	      13838051	     0xd326e3	             0
	    94	      13856173	     0xd36dad	             0
	   128	      13839478	     0xd32c76	             0
	    38	      13869801	     0xd3a2e9	             0
	   202	      13837075	     0xd32313	             0
	     8	      14002346	     0xd5a8aa	             0
	   148	      13838072	     0xd326f8	             0
	   134	      13837357	     0xd3242d	             0
	   158	      13833458	     0xd314f2	             0
	   186	      13835805	     0xd31e1d	             0
	    98	      13850076	     0xd355dc	             0
	    46	      13875103	     0xd3b79f	             0
	   138	      13841405	     0xd333fd	             0
	   154	      13836676	     0xd32184	             0
	   168	      13839443	     0xd32c53	             0
	   108	      13851685	     0xd35c25	             0
	    82	      13851436	     0xd35b2c	             0
	   106	      13855273	     0xd36a29	             0
	    80	      13852177	     0xd35e11	             0
	     0	      14164616	     0xd82288	             0
	   136	      13841757	     0xd3355d	             0
	   210	      13836663	     0xd32177	             0
	   118	      13846359	     0xd34757	             0
	     4	      14158680	     0xd80b58	             0
	    10	      13991448	     0xd57e18	             0
	    40	      13882945	     0xd3d641	             0
	    14	      13991601	     0xd57eb1	             0
	   184	      13845603	     0xd34463	             0
	   196	      13838830	     0xd329ee	             0
	   172	      13836231	     0xd31fc7	             0
	    18	      13920931	     0xd46aa3	             0
	    12	      13989357	     0xd575ed	             0
	   174	      13833555	     0xd31553	             0
	   116	      13848471	     0xd34f97	             0
	   162	      13839208	     0xd32b68	             0
	    64	      13852822	     0xd36096	             0
	   120	      13851481	     0xd35b59	             0
	    50	      13872645	     0xd3ae05	             0
	   166	      13834295	     0xd31837	             0
	    56	      13873168	     0xd3b010	             0
	    26	      13927536	     0xd48470	             0
	   192	      13839959	     0xd32e57	             0
	   180	      13836119	     0xd31f57	             0
	   178	      13839041	     0xd32ac1	             0
	   104	      13850692	     0xd35844	             0
	   170	      13836164	     0xd31f84	             0
	   124	      13847207	     0xd34aa7	             0
	    42	      13873759	     0xd3b25f	             0
	   122	      13849907	     0xd35533	             0
	   152	      13839876	     0xd32e04	             0
	   130	      13841777	     0xd33571	             0
	    70	      13848952	     0xd35178	             0
	   100	      13850051	     0xd355c3	             0
	   160	      13841457	     0xd33431	             0
	    88	      13850728	     0xd35868	             0
	   247	      13838008	     0xd326b8	             0
	   243	      13837482	     0xd324aa	             0
	   227	      13840159	     0xd32f1f	             0
	   219	      13838089	     0xd32709	             0
	   215	      13833128	     0xd313a8	             0
	   177	      13836579	     0xd32123	             0
	   233	      13840391	     0xd33007	             0
	   221	      13835446	     0xd31cb6	             0
	   223	      13832903	     0xd312c7	             0
	   207	      13837780	     0xd325d4	             0
	    89	      13852570	     0xd35f9a	             0
	   229	      13835316	     0xd31c34	             0
	    91	      13847515	     0xd34bdb	             0
	   213	      13832139	     0xd30fcb	             0
	   237	      13835004	     0xd31afc	             0
	   199	      13832346	     0xd3109a	             0
	   205	      13844230	     0xd33f06	             0
	   245	      13833299	     0xd31453	             0
	   209	      13837628	     0xd3253c	             0
	   193	      13842104	     0xd336b8	             0
	   155	      13845437	     0xd343bd	             0
	   189	      13834091	     0xd3176b	             0
	   123	      13848158	     0xd34e5e	             0
	   149	      13833742	     0xd3160e	             0
	   211	      13843460	     0xd33c04	             0
	   169	      13841465	     0xd33439	             0
	   235	      13837281	     0xd323e1	             0
	   145	      13840030	     0xd32e9e	             0
	   201	      13839263	     0xd32b9f	             0
	    81	      13852847	     0xd360af	             0
	   157	      13835790	     0xd31e0e	             0
	    21	      13920886	     0xd46a76	             0
	    97	      13855423	     0xd36abf	             0
	   165	      13835507	     0xd31cf3	             0
	   175	      13834620	     0xd3197c	             0
	   179	      13840866	     0xd331e2	             0
	   143	      13834873	     0xd31a79	             0
	   161	      13838534	     0xd328c6	             0
	    31	      13918698	     0xd461ea	             0
	    53	      13869427	     0xd3a173	             0
	    41	      13877977	     0xd3c2d9	             0
	   181	      13832745	     0xd31229	             0
	   231	      13834112	     0xd31780	             0
	   225	      13837920	     0xd32660	             0
	   183	      13833544	     0xd31548	             0
	    67	      13858421	     0xd37675	             0
	   129	      13841513	     0xd33469	             0
	   119	      13847288	     0xd34af8	             0
	    85	      13855017	     0xd36929	             0
	    71	      13848924	     0xd3515c	             0
	    77	      13848503	     0xd34fb7	             0
	     5	      14159856	     0xd80ff0	             0
	    29	      13912447	     0xd4497f	             0
	   107	      13852625	     0xd35fd1	             0
	    61	      13870828	     0xd3a6ec	             0
	     9	      13998164	     0xd59854	             0
	   113	      13853284	     0xd36264	             0
	    11	      13991561	     0xd57e89	             0
	   147	      13839029	     0xd32ab5	             0
	   103	      13845666	     0xd344a2	             0
	    13	      13988900	     0xd57424	             0
	   111	      13846417	     0xd34791	             0
	   133	      13832687	     0xd311ef	             0
	    33	      13876584	     0xd3bd68	             0
	    63	      13868559	     0xd39e0f	             0
	   121	      13849179	     0xd3525b	             0
	   127	      13844364	     0xd33f8c	             0
	   141	      13834489	     0xd318f9	             0
	    35	      13875516	     0xd3b93c	             0
	    93	      13843747	     0xd33d23	             0
	   101	      13847735	     0xd34cb7	             0
	   109	      13847828	     0xd34d14	             0
	    75	      13853170	     0xd361f2	             0
	    23	      13913391	     0xd44d2f	             0
	    99	      13851696	     0xd35c30	             0
	   117	      13845771	     0xd3450b	             0
	   167	      13833539	     0xd31543	             0
	    49	      13875780	     0xd3ba44	             0
	   185	      13836791	     0xd321f7	             0
	   115	      13849843	     0xd354f3	             0
	     7	      14157213	     0xd8059d	             0
	   135	      13835669	     0xd31d95	             0
	     3	      14159155	     0xd80d33	             0
	    57	      13872788	     0xd3ae94	             0
	    95	      13845523	     0xd34413	             0
	    43	      13880783	     0xd3cdcf	             0
	    27	      13914715	     0xd4525b	             0
	   191	      13830566	     0xd309a6	             0
	     1	      14165852	     0xd8275c	             0
	   163	      13836915	     0xd32273	             0
	    51	      13874004	     0xd3b354	             0
	    15	      13988672	     0xd57340	             0
	   153	      13838039	     0xd326d7	             0
	   187	      13835693	     0xd31dad	             0
	    55	      13870186	     0xd3a46a	             0
	   151	      13831503	     0xd30d4f	             0
	   239	      13832677	     0xd311e5	             0
	    79	      13855901	     0xd36c9d	             0
	    25	      13921229	     0xd46bcd	             0
	   137	      13841407	     0xd333ff	             0
	    47	      13871962	     0xd3ab5a	             0
	   217	      13838899	     0xd32a33	             0
	    17	      13919371	     0xd4648b	             0
	    39	      13872166	     0xd3ac26	             0
	    59	      13875218	     0xd3b812	             0
	   171	      13840457	     0xd33049	             0
	    69	      13848701	     0xd3507d	             0
	   173	      13833997	     0xd3170d	             0
	    37	      13870259	     0xd3a4b3	             0
	   203	      13838221	     0xd3278d	             0
	   125	      13847478	     0xd34bb6	             0
	   131	      13838442	     0xd3286a	             0
	    87	      13845076	     0xd34254	             0
	    19	      13926129	     0xd47ef1	             0
	   195	      13840615	     0xd330e7	             0
	    65	      13854169	     0xd365d9	             0
	    45	      13870422	     0xd3a556	             0
	   139	      13817530	     0xd2d6ba	             0
	   105	      13854151	     0xd365c7	             0
	   241	      13839275	     0xd32bab	             0
	    83	      13847964	     0xd34d9c	             0
	   159	      13832149	     0xd30fd5	             0
	    73	      13857978	     0xd374ba	             0
	   197	      13833203	     0xd313f3	             0
	     2	      14161490	     0xd81652	             0
	   216	      13844187	     0xd33edb	             0
	   234	      13839038	     0xd32abe	             0
	   218	      13835082	     0xd31b4a	             0
	   222	      13832410	     0xd310da	             0
	   246	      13839920	     0xd32e30	             0
	   220	      13836423	     0xd32087	             0
	   226	      13839768	     0xd32d98	             0
	   232	      13837928	     0xd32668	             0
	   244	      13838918	     0xd32a46	             0
	   206	      13834015	     0xd3171f	             0
	   212	      13836555	     0xd3210b	             0
	   236	      13836147	     0xd31f73	             0
	   228	      13837422	     0xd3246e	             0
	   240	      13838511	     0xd328af	             0
	   242	      13838127	     0xd3272f	             0
	    60	      13872028	     0xd3ab9c	             0
	   204	      13839327	     0xd32bdf	             0
	   230	      13833640	     0xd315a8	             0
	    66	      13851564	     0xd35bac	             0
	   132	      13840724	     0xd33154	             0
	    52	      13879363	     0xd3c843	             0
	   146	      13836399	     0xd3206f	             0
	   214	      13832404	     0xd310d4	             0
	    86	      13847645	     0xd34c5d	             0
	   200	      13840298	     0xd32faa	             0
	   176	      13838910	     0xd32a3e	             0
	    24	      13921951	     0xd46e9f	             0
	    16	      13901105	     0xd41d31	             0
	     6	      14159638	     0xd80f16	             0
	   224	      13838772	     0xd329b4	             0
	    76	      13851196	     0xd35a3c	             0
	    90	      13849562	     0xd353da	             0
	   198	      13837003	     0xd322cb	             0
	   190	      13833071	     0xd3136f	             0
	   112	      13851955	     0xd35d33	             0
	   114	      13850829	     0xd358cd	             0
	    58	      13873864	     0xd3b2c8	             0
	    78	      13846883	     0xd34963	             0
	   102	      13846020	     0xd34604	             0
	    74	      13851243	     0xd35a6b	             0
	    32	      13875609	     0xd3b999	             0
	    68	      13861527	     0xd38297	             0
	    36	      13873256	     0xd3b068	             0
	    48	      13877296	     0xd3c030	             0
	   208	      13839143	     0xd32b27	             0
	    30	      13916311	     0xd45897	             0
	   194	      13836239	     0xd31fcf	             0
	   238	      13836686	     0xd3218e	             0
	   182	      13832260	     0xd31044	             0
	   126	      13844319	     0xd33f5f	             0
	    96	      13858799	     0xd377ef	             0
	    28	      13919241	     0xd46409	             0
	   142	      13835756	     0xd31dec	             0
	   188	      13834928	     0xd31ab0	             0
	    34	      13874534	     0xd3b566	             0
	    44	      13872574	     0xd3adbe	             0
	    22	      13913508	     0xd44da4	             0

-rw-r----- 1 mbryson mbryson 8796093028488 Feb  9 08:00 /global/cscratch1/sd/mbryson/vpicBench/output_16K/sample.h5part
-rw-r----- 1 mbryson mbryson 8.1T Feb  9 08:00 /global/cscratch1/sd/mbryson/vpicBench/output_16K/sample.h5part
Tue Feb  9 08:00:54 2016: [unset]:_pmi_alps_get_apid:alps response not OKAY
Tue Feb  9 08:00:54 2016: [unset]:_pmi_init:_pmi_alps_init returned -1
HDF5 "/global/cscratch1/sd/mbryson/vpicBench/output_16K/sample.h5part" {
GROUP "/" {
   ATTRIBUTE "Origin" {
      DATATYPE  H5T_STRING {
         STRSIZE 15;
         STRPAD H5T_STR_NULLTERM;
         CSET H5T_CSET_ASCII;
         CTYPE H5T_C_S1;
      }
      DATASPACE  SCALAR
   }
   GROUP "Step#0" {
      DATASET "id1" {
         DATATYPE  H5T_STD_I32LE
         DATASPACE  SIMPLE { ( 274877906944 ) / ( 274877906944 ) }
      }
      DATASET "id2" {
         DATATYPE  H5T_STD_I32LE
         DATASPACE  SIMPLE { ( 274877906944 ) / ( 274877906944 ) }
      }
      DATASET "px" {
         DATATYPE  H5T_IEEE_F32LE
         DATASPACE  SIMPLE { ( 274877906944 ) / ( 274877906944 ) }
      }
      DATASET "py" {
         DATATYPE  H5T_IEEE_F32LE
         DATASPACE  SIMPLE { ( 274877906944 ) / ( 274877906944 ) }
      }
      DATASET "pz" {
         DATATYPE  H5T_IEEE_F32LE
         DATASPACE  SIMPLE { ( 274877906944 ) / ( 274877906944 ) }
      }
      DATASET "x" {
         DATATYPE  H5T_IEEE_F32LE
         DATASPACE  SIMPLE { ( 274877906944 ) / ( 274877906944 ) }
      }
      DATASET "y" {
         DATATYPE  H5T_IEEE_F32LE
         DATASPACE  SIMPLE { ( 274877906944 ) / ( 274877906944 ) }
      }
      DATASET "z" {
         DATATYPE  H5T_IEEE_F32LE
         DATASPACE  SIMPLE { ( 274877906944 ) / ( 274877906944 ) }
      }
   }
}
}
