\relax 
\citation{1}
\citation{21}
\citation{50}
\citation{48}
\citation{48}
\citation{48}
\@writefile{toc}{\contentsline {section}{\numberline {I}Introduction}{1}}
\newlabel{sec:introduction}{{I}{1}}
\@writefile{toc}{\contentsline {section}{\numberline {II}The Vector Particle in Cell I/O Kernel}{1}}
\newlabel{sec:vpic_io}{{II}{1}}
\@writefile{toc}{\contentsline {section}{\numberline {III}Results}{1}}
\@writefile{toc}{\contentsline {subsection}{\numberline {\unhbox \voidb@x \hbox {III-A}}Exploratory VPIC-IO Runs}{1}}
\@writefile{lof}{\contentsline {figure}{\numberline {1}{\ignorespaces Cray DataWarp v. Cori Lustre Scratch Exploratory Results\relax }}{1}}
\providecommand*\caption@xref[2]{\@setref\relax\@undefined{#1}}
\newlabel{fig:initialResults}{{1}{1}}
\bibstyle{IEEEtran}
\bibdata{scExtendedAbstract}
\bibcite{1}{1}
\bibcite{21}{2}
\bibcite{50}{3}
\bibcite{48}{4}
\@writefile{toc}{\contentsline {subsection}{\numberline {\unhbox \voidb@x \hbox {III-B}}Aggregator Matching}{2}}
\@writefile{lof}{\contentsline {figure}{\numberline {2}{\ignorespaces Matched v. Unmatched Burst Buffer \& Aggregator Nodes\relax }}{2}}
\newlabel{fig:aggregatorResults}{{2}{2}}
\@writefile{toc}{\contentsline {subsection}{\numberline {\unhbox \voidb@x \hbox {III-C}}Independent I/O}{2}}
\@writefile{toc}{\contentsline {section}{\numberline {IV}Conclusion}{2}}
\newlabel{conclusion}{{IV}{2}}
\@writefile{lof}{\contentsline {figure}{\numberline {3}{\ignorespaces Independent I/O v. Collective I/O\relax }}{2}}
\newlabel{fig:indepedentIO}{{3}{2}}
\@writefile{toc}{\contentsline {section}{References}{2}}
