This is BibTeX, Version 0.99d (TeX Live 2015)
Capacity: max_strings=35307, hash_size=35307, hash_prime=30011
The top-level auxiliary file: scExtendedAbstract.aux
The style file: IEEEtran.bst
Reallocated singl_function (elt_size=4) to 100 items from 50.
Reallocated singl_function (elt_size=4) to 100 items from 50.
Reallocated singl_function (elt_size=4) to 100 items from 50.
Reallocated wiz_functions (elt_size=4) to 6000 items from 3000.
Reallocated singl_function (elt_size=4) to 100 items from 50.
Database file #1: scExtendedAbstract.bib
-- IEEEtran.bst version 1.13 (2008/09/30) by Michael Shell.
-- http://www.michaelshell.org/tex/ieeetran/bibtex/
-- See the "IEEEtran_bst_HOWTO.pdf" manual for usage information.

Done.
You've used 4 entries,
            4039 wiz_defined-function locations,
            831 strings with 8285 characters,
and the built_in function-call counts, 2620 in all, are:
= -- 166
> -- 88
< -- 7
+ -- 44
- -- 20
* -- 139
:= -- 403
add.period$ -- 10
call.type$ -- 4
change.case$ -- 4
chr.to.int$ -- 15
cite$ -- 4
duplicate$ -- 195
empty$ -- 238
format.name$ -- 22
if$ -- 575
int.to.chr$ -- 0
int.to.str$ -- 4
missing$ -- 48
newline$ -- 43
num.names$ -- 3
pop$ -- 144
preamble$ -- 1
purify$ -- 0
quote$ -- 2
skip$ -- 183
stack$ -- 0
substring$ -- 42
swap$ -- 129
text.length$ -- 2
text.prefix$ -- 0
top$ -- 5
type$ -- 4
warning$ -- 0
while$ -- 8
width$ -- 5
write$ -- 63
