MPIIO: unrecognized DVS real_fs_magic=0XBBFBBF10  ADIOI_CRAY_dvs_real_fstype:1249  using default optimizations
myrank: 12Queue is empty - req
myrank: 13Queue is empty - req
myrank: 18Queue is empty - req
myrank: 0Number of particles: 8388608 
Finished initializing particles 
Opened BBPart file... 
Before writing particles 
Step is set 
Num particles is set 
Written variable 1 
Written variable 2 
Written variable 3 
Written variable 4 
Written variable 5 
Written variable 6 
Written variable 7 
Written variable 8 
After writing particles 
After closing particles 
Queue is empty - req

Timing results
8.173658 seconds elapsed in just writing data
117.539658 seconds elapsed in opening, writing, closing file
17.543474 seconds elapsed in writing data to final location

myrank: 1Queue is empty - req
myrank: 2Queue is empty - req
myrank: 3Queue is empty - req
myrank: 4Queue is empty - req
myrank: 5Queue is empty - req
myrank: 6Queue is empty - req
myrank: 7Queue is empty - req
myrank: 8Queue is empty - req
myrank: 9Queue is empty - req
myrank: 10Queue is empty - req
myrank: 11Queue is empty - req
myrank: 14Queue is empty - req
myrank: 15Queue is empty - req
myrank: 16Queue is empty - req
myrank: 17Queue is empty - req
myrank: 19Queue is empty - req
myrank: 20Queue is empty - req
myrank: 21Queue is empty - req
myrank: 22Queue is empty - req
myrank: 23Queue is empty - req
