This is BibTeX, Version 0.99d (TeX Live 2015)
Capacity: max_strings=35307, hash_size=35307, hash_prime=30011
The top-level auxiliary file: surveyPaper.aux
The style file: IEEEtran.bst
Reallocated singl_function (elt_size=4) to 100 items from 50.
Reallocated singl_function (elt_size=4) to 100 items from 50.
Reallocated singl_function (elt_size=4) to 100 items from 50.
Reallocated wiz_functions (elt_size=4) to 6000 items from 3000.
Reallocated singl_function (elt_size=4) to 100 items from 50.
Database file #1: surveyPaper.bib
Warning--I didn't find a database entry for "OLCF_Summit_Facts"
-- IEEEtran.bst version 1.13 (2008/09/30) by Michael Shell.
-- http://www.michaelshell.org/tex/ieeetran/bibtex/
-- See the "IEEEtran_bst_HOWTO.pdf" manual for usage information.
Warning--empty journal in 39
Warning--empty year in 39
Warning--missing publisher in 45
Warning--empty year in 45

Done.
You've used 35 entries,
            4039 wiz_defined-function locations,
            985 strings with 14292 characters,
and the built_in function-call counts, 20896 in all, are:
= -- 1518
> -- 550
< -- 101
+ -- 286
- -- 118
* -- 972
:= -- 3248
add.period$ -- 76
call.type$ -- 35
change.case$ -- 36
chr.to.int$ -- 252
cite$ -- 39
duplicate$ -- 1582
empty$ -- 1884
format.name$ -- 131
if$ -- 4692
int.to.chr$ -- 0
int.to.str$ -- 35
missing$ -- 343
newline$ -- 180
num.names$ -- 35
pop$ -- 973
preamble$ -- 1
purify$ -- 0
quote$ -- 2
skip$ -- 1555
stack$ -- 0
substring$ -- 599
swap$ -- 1108
text.length$ -- 17
text.prefix$ -- 0
top$ -- 5
type$ -- 35
warning$ -- 4
while$ -- 82
width$ -- 37
write$ -- 365
(There were 5 warnings)
