\relax 
\citation{48}
\citation{49}
\citation{1}
\citation{26}
\citation{41}
\citation{41}
\citation{26}
\newlabel{sec:abstract}{{}{1}}
\@writefile{toc}{\contentsline {section}{\numberline {1}Introduction}{1}}
\newlabel{sec:introduction}{{1}{1}}
\@writefile{lof}{\contentsline {figure}{\numberline {1}{\ignorespaces Gap in Memory Hierarchy}}{1}}
\newlabel{fig:storageGap}{{1}{1}}
\citation{5}
\citation{25}
\citation{OLCF_Summit_Facts}
\citation{46}
\citation{47}
\citation{47}
\@writefile{toc}{\contentsline {section}{\numberline {2}Flavors of Future HPC Memory/Storage Subsystem}{2}}
\newlabel{sec:variousFlavors}{{2}{2}}
\@writefile{toc}{\contentsline {subsection}{\numberline {2.1}Socket Local Layer}{2}}
\citation{29}
\citation{8}
\citation{21}
\citation{34}
\citation{26}
\citation{22}
\citation{41}
\citation{10}
\newlabel{fig:advancedSystems}{{2}{3}}
\@writefile{lof}{\contentsline {figure}{\numberline {2}{\ignorespaces An abstract memory and storage hierarchy of upcoming HPC systems}}{3}}
\@writefile{toc}{\contentsline {subsection}{\numberline {2.2}Node Local Layer}{3}}
\@writefile{toc}{\contentsline {subsection}{\numberline {2.3}Shared Storage Buffer}{3}}
\@writefile{toc}{\contentsline {section}{\numberline {3}Functions of Deep Memories}{3}}
\newlabel{sec:Functions of Deep Memories}{{3}{3}}
\@writefile{toc}{\contentsline {subsection}{\numberline {3.1}Scratch File System}{3}}
\citation{20}
\citation{1}
\citation{39}
\citation{41}
\citation{20}
\citation{20}
\citation{42}
\citation{20}
\citation{20}
\citation{29}
\citation{29}
\citation{29}
\citation{29}
\citation{2}
\citation{29}
\citation{1}
\citation{1}
\@writefile{toc}{\contentsline {subsection}{\numberline {3.2}Extended Memory}{4}}
\@writefile{lof}{\contentsline {figure}{\numberline {3}{\ignorespaces Extended Memory Hierarchy Resulting in Higher Utilization of Faster Memory Technologies}}{4}}
\newlabel{fig:OutOfCore}{{3}{4}}
\@writefile{toc}{\contentsline {subsection}{\numberline {3.3}Prefetch}{4}}
\@writefile{lof}{\contentsline {figure}{\numberline {4}{\ignorespaces Block Caching Operation Resulting in High Number of Cache Hits on Faster Solid State Storage}}{4}}
\newlabel{fig:blockCache}{{4}{4}}
\@writefile{toc}{\contentsline {subsection}{\numberline {3.4}Intermediate Storage Layers}{4}}
\newlabel{sec:writeOperations}{{3.4}{4}}
\citation{30}
\citation{1}
\citation{1}
\citation{1}
\citation{16}
\citation{16}
\citation{16}
\citation{18}
\@writefile{lof}{\contentsline {figure}{\numberline {5}{\ignorespaces Common I/O Bursty Pattern in HPC Applications}}{5}}
\newlabel{fig:writePattern}{{5}{5}}
\@writefile{lof}{\contentsline {figure}{\numberline {6}{\ignorespaces Blocking I/O Due to MPI Barrier in HPC Applications, Resulting in Worse Performance}}{5}}
\newlabel{fig:blockingIO}{{6}{5}}
\@writefile{lof}{\contentsline {figure}{\numberline {7}{\ignorespaces Non-Blocking I/O with No MPI Barriers Resulting in Better Application Performance}}{5}}
\newlabel{fig:nonBlockingIO}{{7}{5}}
\@writefile{lof}{\contentsline {figure}{\numberline {8}{\ignorespaces Accelerated I/O}}{5}}
\newlabel{fig:blockingIO_SSD}{{8}{5}}
\@writefile{toc}{\contentsline {subsection}{\numberline {3.5}Analysis \& Workflows}{5}}
\citation{19}
\citation{19}
\citation{19}
\citation{19}
\citation{19}
\citation{21}
\citation{21}
\citation{38}
\citation{22}
\citation{22}
\citation{32}
\citation{39}
\citation{39}
\citation{39}
\citation{39}
\@writefile{lof}{\contentsline {figure}{\numberline {9}{\ignorespaces The Use of Extended Memory in Accelerating Multi-Application Workflows}}{6}}
\newlabel{fig:workflows}{{9}{6}}
\@writefile{toc}{\contentsline {section}{\numberline {4}Application Use Cases}{6}}
\newlabel{sec:Application Use Cases}{{4}{6}}
\@writefile{toc}{\contentsline {subsection}{\numberline {4.1}Fault Tolerance}{6}}
\@writefile{toc}{\contentsline {subsection}{\numberline {4.2}Out of Core Memory}{6}}
\@writefile{toc}{\contentsline {subsection}{\numberline {4.3}File System Cache}{6}}
\@writefile{toc}{\contentsline {section}{\numberline {5}State-of-the-art Technology and Research}{6}}
\newlabel{sec:stateOfTheArt}{{5}{6}}
\citation{5}
\citation{8}
\citation{8}
\citation{8}
\citation{5}
\citation{5}
\citation{50}
\citation{5}
\citation{5}
\citation{5}
\citation{5}
\citation{5}
\citation{5}
\citation{5}
\citation{5}
\citation{5}
\citation{5}
\citation{5}
\citation{5}
\citation{5}
\citation{5}
\citation{5}
\citation{5}
\citation{5}
\citation{5}
\citation{25}
\citation{25}
\citation{40}
\citation{25}
\citation{25}
\citation{25}
\citation{24}
\citation{24}
\citation{24}
\citation{40}
\@writefile{toc}{\contentsline {subsection}{\numberline {5.1}Cray DataWarp}{7}}
\@writefile{toc}{\contentsline {subsection}{\numberline {5.2}DDN Infinite Memory Engine}{7}}
\citation{11}
\citation{30}
\citation{30}
\citation{30}
\citation{30}
\citation{30}
\citation{43}
\citation{44}
\citation{11}
\citation{11}
\citation{11}
\citation{30}
\citation{38}
\citation{38}
\citation{10}
\citation{10}
\citation{10}
\citation{10}
\citation{10}
\citation{38}
\citation{22}
\citation{22}
\citation{22}
\citation{22}
\citation{22}
\@writefile{lot}{\contentsline {table}{\numberline {1}{\ignorespaces Comparison of State-of-the-Art Technology and Research}}{8}}
\newlabel{table:stateOfArt}{{1}{8}}
\@writefile{toc}{\contentsline {subsection}{\numberline {5.3}Intel FastForward}{8}}
\@writefile{toc}{\contentsline {subsection}{\numberline {5.4}DI-MMAP}{8}}
\newlabel{sec:DI-MMAP}{{5.4}{8}}
\@writefile{toc}{\contentsline {subsection}{\numberline {5.5}PerMA NVRAM Simulator}{8}}
\newlabel{sec:perMA}{{5.5}{8}}
\citation{23}
\citation{23}
\citation{23}
\citation{23}
\citation{23}
\citation{23}
\citation{31}
\citation{31}
\citation{31}
\citation{31}
\citation{31}
\citation{31}
\citation{32}
\citation{32}
\citation{32}
\citation{32}
\citation{32}
\citation{32}
\citation{32}
\citation{32}
\citation{32}
\citation{32}
\citation{32}
\citation{32}
\citation{32}
\citation{32}
\citation{32}
\citation{32}
\citation{32}
\citation{32}
\citation{32}
\citation{21}
\citation{21}
\citation{21}
\citation{45}
\citation{21}
\citation{21}
\@writefile{toc}{\contentsline {subsection}{\numberline {5.6}BurstMem}{9}}
\@writefile{toc}{\contentsline {subsection}{\numberline {5.7}Hierarchical Input Output}{9}}
\@writefile{toc}{\contentsline {subsection}{\numberline {5.8}iBridge}{9}}
\@writefile{toc}{\contentsline {subsection}{\numberline {5.9}IBM i}{9}}
\citation{40}
\citation{32}
\citation{11}
\citation{32}
\citation{30}
\citation{31}
\citation{19}
\citation{19}
\@writefile{toc}{\contentsline {subsection}{\numberline {5.10}Data Movement Optimization}{10}}
\@writefile{toc}{\contentsline {subsection}{\numberline {5.11}Resource Allocation}{10}}
\@writefile{toc}{\contentsline {section}{\numberline {6}Research Opportunities}{10}}
\newlabel{sec:Research Opportunities}{{6}{10}}
\@writefile{toc}{\contentsline {subsection}{\numberline {6.1}Data Movement Optimization \& Data Locality}{10}}
\@writefile{toc}{\contentsline {subsection}{\numberline {6.2}Resource Allocation}{10}}
\@writefile{toc}{\contentsline {subsection}{\numberline {6.3}Solid State Storage Placement \& Connectivity}{10}}
\citation{39}
\citation{13}
\bibstyle{IEEEtran}
\bibdata{surveyPaper}
\bibcite{48}{1}
\bibcite{49}{2}
\bibcite{1}{3}
\bibcite{26}{4}
\bibcite{41}{5}
\bibcite{5}{6}
\bibcite{25}{7}
\bibcite{46}{8}
\@writefile{toc}{\contentsline {subsection}{\numberline {6.4}Energy Efficiency}{11}}
\@writefile{toc}{\contentsline {subsection}{\numberline {6.5}State-of-the-Art Solution Testing and Comparison}{11}}
\@writefile{toc}{\contentsline {section}{\numberline {7}Conclusion}{11}}
\newlabel{sec:Conclusion}{{7}{11}}
\@writefile{toc}{\contentsline {section}{References}{11}}
\bibcite{47}{9}
\bibcite{29}{10}
\bibcite{8}{11}
\bibcite{21}{12}
\bibcite{34}{13}
\bibcite{22}{14}
\bibcite{10}{15}
\bibcite{20}{16}
\bibcite{39}{17}
\bibcite{42}{18}
\bibcite{2}{19}
\bibcite{30}{20}
\bibcite{16}{21}
\bibcite{18}{22}
\bibcite{19}{23}
\bibcite{38}{24}
\bibcite{32}{25}
\bibcite{50}{26}
\bibcite{40}{27}
\bibcite{24}{28}
\bibcite{11}{29}
\bibcite{43}{30}
\bibcite{44}{31}
\bibcite{23}{32}
\bibcite{31}{33}
\bibcite{45}{34}
\bibcite{13}{35}
