collective, 1n1bb, 8 stream, 16p
     pool units quantity      free      gran 
test_pool bytes  5.82TiB   5.82TiB     16MiB 
 wlm_pool bytes 832.5TiB 678.01TiB 212.91GiB 

sess state   token creator owner             created expiration nodes 
5658 CA--- 1911320   SLURM 69107 2016-04-17T22:11:54      never     1 
5659 CA--- 1911324   SLURM 69107 2016-04-17T22:12:55      never     0 
5660 CA--- 1911322   SLURM 69107 2016-04-17T22:12:55      never     1 
5661 CA--- 1911326   SLURM 69107 2016-04-17T22:12:55      never     0 
5662 CA--- 1911328   SLURM 69107 2016-04-17T22:12:55      never     0 
5663 CA--- 1911327   SLURM 69107 2016-04-17T22:12:55      never     0 
5664 CA--- 1911325   SLURM 69107 2016-04-17T22:12:55      never     0 

inst state sess     bytes nodes             created expiration intact        label public confs 
2232 CA--- 2515 425.81GiB     2 2016-02-19T12:09:21      never   true     XuanCami   true     1 
2234 CA--- 2520 212.91GiB     1 2016-02-19T13:45:33      never   true     myBBname   true     1 
2550 CA--- 3041   1.04TiB     5 2016-03-02T15:01:02      never   true gatkbrachy_2   true     1 
3648 C---- 4142  10.19TiB    49 2016-03-26T14:33:53      never   true     wahAtlas   true     1 
3826 C---- 4334  40.13TiB   135 2016-03-30T15:06:41      never   true   regan_40TB   true     1 
3861 C---- 4384  10.19TiB    49 2016-03-31T05:26:15      never   true   regan_10TB   true     1 
4855 CA--- 5402 212.91GiB     1 2016-04-09T12:17:38      never   true       davebb   true     1 
4905 CA--- 5456 212.91GiB     1 2016-04-11T11:42:33      never   true       bbdave   true     1 
5071 CA--- 5626   1.04TiB     5 2016-04-16T19:27:27      never   true       campbb   true     1 
5097 CA--- 5658 212.91GiB     1 2016-04-17T22:11:54      never   true      I5658-0  false     1 
5099 CA--- 5659 212.91GiB     1 2016-04-17T22:12:55      never   true      I5659-0  false     1 
5100 CA--- 5660 212.91GiB     1 2016-04-17T22:12:55      never   true      I5660-0  false     1 
5101 CA--- 5661 212.91GiB     1 2016-04-17T22:12:55      never   true      I5661-0  false     1 
5102 CA--- 5662 212.91GiB     1 2016-04-17T22:12:55      never   true      I5662-0  false     1 
5103 CA--- 5663 212.91GiB     1 2016-04-17T22:12:55      never   true      I5663-0  false     1 
5104 CA--- 5664 212.91GiB     1 2016-04-17T22:12:55      never   true      I5664-0  false     1 

conf state inst    type access_type activs 
2503 CA--- 2232 scratch      stripe      0 
2505 CA--- 2234 scratch      stripe      0 
2821 CA--- 2550 scratch      stripe      0 
3923 CA--- 3648 scratch      stripe      0 
4104 CA--- 3826 scratch      stripe      0 
4139 CA--- 3861 scratch      stripe      0 
5132 CA--- 4855 scratch      stripe      0 
5182 CA--- 4905 scratch      stripe      0 
5348 CA--- 5071 scratch      stripe      1 
5373 CA--- 5097 scratch      stripe      0 
5376 CA--- 5099 scratch      stripe      0 
5377 CA--- 5101 scratch      stripe      0 
5378 CA--- 5100 scratch      stripe      1 
5379 CA--- 5103 scratch      stripe      0 
5380 CA--- 5102 scratch      stripe      0 
5381 CA--- 5104 scratch      stripe      0 

 reg state sess conf wait 
5442 CA--- 5658 5373 true 
5444 CA--- 5660 5378 true 

activ state sess conf nodes                                     mount 
 5232 CA--- 5647 5348     1  /var/opt/cray/dws/mounts/batch/campbb/ss 
 5244 CA--- 5660 5378     1 /var/opt/cray/dws/mounts/batch/1911322/ss 

  frag state inst  capacity gran     node 
 61379  CA-- 2232 212.91GiB 4MiB nid02006 
 61380  CA-- 2232 212.91GiB 4MiB nid01034 
 61382  CA-- 2234 212.91GiB 4MiB nid00457 
 73696  CA-- 2550 212.91GiB 4MiB nid02249 
 73697  CA-- 2550 212.91GiB 4MiB nid00205 
 73698  CA-- 2550 212.91GiB 4MiB nid01801 
 73699  CA-- 2550 212.91GiB 4MiB nid00014 
 73700  CA-- 2550 212.91GiB 4MiB nid01169 
129824  CA-- 3648 212.91GiB 4MiB nid02062 
129825  CA-- 3648 212.91GiB 4MiB nid01418 
129826  CA-- 3648 212.91GiB 4MiB nid00785 
129827  CA-- 3648 212.91GiB 4MiB nid00782 
129828  CA-- 3648 212.91GiB 4MiB nid00142 
129829  CA-- 3648 212.91GiB 4MiB nid02189 
129830  CA-- 3648 212.91GiB 4MiB nid00781 
129831  CA-- 3648 212.91GiB 4MiB nid00146 
129832  CA-- 3648 212.91GiB 4MiB nid01481 
129833  CA-- 3648 212.91GiB 4MiB nid01737 
129834  CA-- 3648 212.91GiB 4MiB nid00854 
129835  CA-- 3648 212.91GiB 4MiB nid00653 
129836  CA-- 3648 212.91GiB 4MiB nid01225 
129837  CA-- 3648 212.91GiB 4MiB nid00269 
129838  CA-- 3648 212.91GiB 4MiB nid01237 
129839  CA-- 3648 212.91GiB 4MiB nid01678 
129840  CA-- 3648 212.91GiB 4MiB nid01802 
129841  C--- 3648 212.91GiB 4MiB nid01033 
129842  CA-- 3648 212.91GiB 4MiB nid00853 
129843  CA-- 3648 212.91GiB 4MiB nid00586 
129844  CA-- 3648 212.91GiB 4MiB nid01806 
129845  CA-- 3648 212.91GiB 4MiB nid00526 
129846  CA-- 3648 212.91GiB 4MiB nid01298 
129847  CA-- 3648 212.91GiB 4MiB nid00718 
129848  CA-- 3648 212.91GiB 4MiB nid01485 
129849  CA-- 3648 212.91GiB 4MiB nid00713 
129850  CA-- 3648 212.91GiB 4MiB nid02186 
129851  CA-- 3648 212.91GiB 4MiB nid00141 
129852  CA-- 3648 212.91GiB 4MiB nid00530 
129853  CA-- 3648 212.91GiB 4MiB nid01741 
129854  CA-- 3648 212.91GiB 4MiB nid00073 
129855  CA-- 3648 212.91GiB 4MiB nid00974 
129856  CA-- 3648 212.91GiB 4MiB nid00086 
129857  CA-- 3648 212.91GiB 4MiB nid01738 
129858  CA-- 3648 212.91GiB 4MiB nid01353 
129859  CA-- 3648 212.91GiB 4MiB nid00401 
129860  CA-- 3648 212.91GiB 4MiB nid02066 
129861  CA-- 3648 212.91GiB 4MiB nid00469 
129862  CA-- 3648 212.91GiB 4MiB nid00585 
129863  CA-- 3648 212.91GiB 4MiB nid00265 
129864  CA-- 3648 212.91GiB 4MiB nid01610 
129865  CA-- 3648 212.91GiB 4MiB nid02125 
129866  CA-- 3648 212.91GiB 4MiB nid00201 
129867  CA-- 3648 212.91GiB 4MiB nid00145 
129868  CA-- 3648 212.91GiB 4MiB nid00717 
129869  CA-- 3648 212.91GiB 4MiB nid00470 
129870  CA-- 3648 212.91GiB 4MiB nid00842 
129871  CA-- 3648 212.91GiB 4MiB nid01621 
129872  CA-- 3648 212.91GiB 4MiB nid01549 
138143  CA-- 3826 425.81GiB 4MiB nid01937 
138144  CA-- 3826 425.81GiB 4MiB nid00206 
138145  CA-- 3826 425.81GiB 4MiB nid02005 
138146  CA-- 3826 425.81GiB 4MiB nid00458 
138147  CA-- 3826 425.81GiB 4MiB nid01037 
138148  CA-- 3826 425.81GiB 4MiB nid01294 
138149  CA-- 3826 425.81GiB 4MiB nid00329 
138150  CA-- 3826 425.81GiB 4MiB nid02250 
138151  CA-- 3826 425.81GiB 4MiB nid01486 
138152  CA-- 3826 425.81GiB 4MiB nid00402 
138153  CA-- 3826 425.81GiB 4MiB nid00969 
138154  CA-- 3826 425.81GiB 4MiB nid01358 
138155  CA-- 3826 425.81GiB 4MiB nid01681 
138156  CA-- 3826 425.81GiB 4MiB nid02190 
138157  CA-- 3826 425.81GiB 4MiB nid01805 
138158  CA-- 3826 425.81GiB 4MiB nid00085 
138159  CA-- 3826 425.81GiB 4MiB nid01170 
138160  CA-- 3826 425.81GiB 4MiB nid00013 
138161  CA-- 3826 425.81GiB 4MiB nid02065 
138162  CA-- 3826 425.81GiB 4MiB nid01869 
138163  CA-- 3826 425.81GiB 4MiB nid00397 
138164  CA-- 3826 425.81GiB 4MiB nid01421 
138165  CA-- 3826 425.81GiB 4MiB nid01102 
138166  CA-- 3826 425.81GiB 4MiB nid01870 
138167  CA-- 3826 425.81GiB 4MiB nid00270 
138168  CA-- 3826 425.81GiB 4MiB nid01166 
138169  CA-- 3826 425.81GiB 4MiB nid01550 
138170  CA-- 3826 425.81GiB 4MiB nid01553 
138171  CA-- 3826 425.81GiB 4MiB nid00910 
138172  CA-- 3826 425.81GiB 4MiB nid02061 
138173  CA-- 3826 425.81GiB 4MiB nid02185 
138174  CA-- 3826 425.81GiB 4MiB nid01933 
138175  CA-- 3826 425.81GiB 4MiB nid02121 
138176  CA-- 3826 425.81GiB 4MiB nid00970 
138177  CA-- 3826 425.81GiB 4MiB nid00914 
138178  CA-- 3826 425.81GiB 4MiB nid00017 
138179  CA-- 3826 425.81GiB 4MiB nid01165 
138180  CA-- 3826 425.81GiB 4MiB nid01622 
138181  CA-- 3826 425.81GiB 4MiB nid00786 
138182  CA-- 3826 425.81GiB 4MiB nid00074 
138183  CA-- 3826 425.81GiB 4MiB nid01866 
138184  CA-- 3826 425.81GiB 4MiB nid00525 
138185  CA-- 3826 425.81GiB 4MiB nid00714 
138186  CA-- 3826 425.81GiB 4MiB nid00330 
138187  CA-- 3826 425.81GiB 4MiB nid00334 
138188  CA-- 3826 425.81GiB 4MiB nid01742 
138189  CA-- 3826 425.81GiB 4MiB nid00649 
138190  CA-- 3826 425.81GiB 4MiB nid01238 
138191  CA-- 3826 425.81GiB 4MiB nid01297 
138192  CA-- 3826 425.81GiB 4MiB nid01293 
138193  CA-- 3826 425.81GiB 4MiB nid01677 
138194  CA-- 3826 425.81GiB 4MiB nid02122 
138195  CA-- 3826 425.81GiB 4MiB nid01554 
138196  CA-- 3826 425.81GiB 4MiB nid00909 
138197  CA-- 3826 425.81GiB 4MiB nid00529 
138198  CA-- 3826 425.81GiB 4MiB nid00590 
138199  CA-- 3826 425.81GiB 4MiB nid00398 
138200  CA-- 3826 425.81GiB 4MiB nid00654 
138201  CA-- 3826 212.91GiB 4MiB nid01226 
138202  CA-- 3826 212.91GiB 4MiB nid00018 
138203  CA-- 3826 212.91GiB 4MiB nid02126 
138204  CA-- 3826 212.91GiB 4MiB nid01482 
138205  CA-- 3826 212.91GiB 4MiB nid01934 
138206  CA-- 3826 212.91GiB 4MiB nid01682 
138207  CA-- 3826 212.91GiB 4MiB nid01357 
138208  CA-- 3826 212.91GiB 4MiB nid01417 
138209  CA-- 3826 212.91GiB 4MiB nid01354 
138210  CA-- 3826 212.91GiB 4MiB nid01938 
138211  CA-- 3826 212.91GiB 4MiB nid00266 
138212  CA-- 3826 212.91GiB 4MiB nid00333 
138213  CA-- 3826 212.91GiB 4MiB nid00841 
138214  CA-- 3826 212.91GiB 4MiB nid01609 
138215  CA-- 3826 212.91GiB 4MiB nid00589 
138216  CA-- 3826 212.91GiB 4MiB nid02062 
138217  CA-- 3826 212.91GiB 4MiB nid01418 
138218  CA-- 3826 212.91GiB 4MiB nid01994 
138219  CA-- 3826 212.91GiB 4MiB nid00785 
138220  CA-- 3826 212.91GiB 4MiB nid00782 
138221  CA-- 3826 212.91GiB 4MiB nid00142 
138222  CA-- 3826 212.91GiB 4MiB nid02189 
138223  CA-- 3826 212.91GiB 4MiB nid00781 
138224  CA-- 3826 212.91GiB 4MiB nid00457 
138225  CA-- 3826 212.91GiB 4MiB nid00146 
138226  CA-- 3826 212.91GiB 4MiB nid01481 
138227  CA-- 3826 212.91GiB 4MiB nid01737 
138228  CA-- 3826 212.91GiB 4MiB nid00854 
138229  CA-- 3826 212.91GiB 4MiB nid00653 
138230  CA-- 3826 212.91GiB 4MiB nid02253 
138231  CA-- 3826 212.91GiB 4MiB nid01225 
138232  CA-- 3826 212.91GiB 4MiB nid00269 
138233  CA-- 3826 212.91GiB 4MiB nid01237 
138234  CA-- 3826 212.91GiB 4MiB nid01678 
138235  CA-- 3826 212.91GiB 4MiB nid01802 
138236  C--- 3826 212.91GiB 4MiB nid01033 
138237  CA-- 3826 212.91GiB 4MiB nid00853 
138238  CA-- 3826 212.91GiB 4MiB nid00586 
138239  CA-- 3826 212.91GiB 4MiB nid01806 
138240  CA-- 3826 212.91GiB 4MiB nid00526 
138241  CA-- 3826 212.91GiB 4MiB nid01298 
138242  CA-- 3826 212.91GiB 4MiB nid00718 
138243  CA-- 3826 212.91GiB 4MiB nid01485 
138244  CA-- 3826 212.91GiB 4MiB nid00713 
138245  CA-- 3826 212.91GiB 4MiB nid02186 
138246  CA-- 3826 212.91GiB 4MiB nid00141 
138247  CA-- 3826 212.91GiB 4MiB nid00530 
138248  CA-- 3826 212.91GiB 4MiB nid01741 
138249  CA-- 3826 212.91GiB 4MiB nid00073 
138250  CA-- 3826 212.91GiB 4MiB nid00974 
138251  CA-- 3826 212.91GiB 4MiB nid00086 
138252  CA-- 3826 212.91GiB 4MiB nid01738 
138253  CA-- 3826 212.91GiB 4MiB nid01353 
138254  CA-- 3826 212.91GiB 4MiB nid00401 
138255  CA-- 3826 212.91GiB 4MiB nid02066 
138256  CA-- 3826 212.91GiB 4MiB nid00469 
138257  CA-- 3826 212.91GiB 4MiB nid00585 
138258  CA-- 3826 212.91GiB 4MiB nid00265 
138259  CA-- 3826 212.91GiB 4MiB nid01610 
138260  CA-- 3826 212.91GiB 4MiB nid02125 
138261  CA-- 3826 212.91GiB 4MiB nid00201 
138262  CA-- 3826 212.91GiB 4MiB nid00145 
138263  CA-- 3826 212.91GiB 4MiB nid00717 
138264  CA-- 3826 212.91GiB 4MiB nid00470 
138265  CA-- 3826 212.91GiB 4MiB nid00842 
138266  CA-- 3826 212.91GiB 4MiB nid01621 
138267  CA-- 3826 212.91GiB 4MiB nid01549 
138268  CA-- 3826 212.91GiB 4MiB nid00202 
138269  CA-- 3826 212.91GiB 4MiB nid00973 
138270  CA-- 3826 212.91GiB 4MiB nid00650 
138271  CA-- 3826 212.91GiB 4MiB nid02249 
138272  CA-- 3826 212.91GiB 4MiB nid00205 
138273  CA-- 3826 212.91GiB 4MiB nid01801 
138274  CA-- 3826 212.91GiB 4MiB nid00014 
138275  CA-- 3826 212.91GiB 4MiB nid01169 
138276  CA-- 3826 212.91GiB 4MiB nid02006 
138277  CA-- 3826 212.91GiB 4MiB nid01034 
139195  CA-- 3861 212.91GiB 4MiB nid00589 
139196  CA-- 3861 212.91GiB 4MiB nid02062 
139197  CA-- 3861 212.91GiB 4MiB nid01418 
139198  CA-- 3861 212.91GiB 4MiB nid01994 
139199  CA-- 3861 212.91GiB 4MiB nid00785 
139200  CA-- 3861 212.91GiB 4MiB nid00782 
139201  CA-- 3861 212.91GiB 4MiB nid00142 
139202  CA-- 3861 212.91GiB 4MiB nid02189 
139203  CA-- 3861 212.91GiB 4MiB nid00781 
139204  CA-- 3861 212.91GiB 4MiB nid00457 
139205  CA-- 3861 212.91GiB 4MiB nid00146 
139206  CA-- 3861 212.91GiB 4MiB nid01481 
139207  CA-- 3861 212.91GiB 4MiB nid01737 
139208  CA-- 3861 212.91GiB 4MiB nid00854 
139209  CA-- 3861 212.91GiB 4MiB nid00653 
139210  CA-- 3861 212.91GiB 4MiB nid02253 
139211  CA-- 3861 212.91GiB 4MiB nid01225 
139212  CA-- 3861 212.91GiB 4MiB nid00269 
139213  CA-- 3861 212.91GiB 4MiB nid01237 
139214  CA-- 3861 212.91GiB 4MiB nid01678 
139215  CA-- 3861 212.91GiB 4MiB nid01802 
139216  C--- 3861 212.91GiB 4MiB nid01033 
139217  CA-- 3861 212.91GiB 4MiB nid00853 
139218  CA-- 3861 212.91GiB 4MiB nid00586 
139219  CA-- 3861 212.91GiB 4MiB nid01806 
139220  CA-- 3861 212.91GiB 4MiB nid00526 
139221  CA-- 3861 212.91GiB 4MiB nid01298 
139222  CA-- 3861 212.91GiB 4MiB nid00718 
139223  CA-- 3861 212.91GiB 4MiB nid01485 
139224  CA-- 3861 212.91GiB 4MiB nid00713 
139225  CA-- 3861 212.91GiB 4MiB nid02186 
139226  CA-- 3861 212.91GiB 4MiB nid00141 
139227  CA-- 3861 212.91GiB 4MiB nid00530 
139228  CA-- 3861 212.91GiB 4MiB nid01741 
139229  CA-- 3861 212.91GiB 4MiB nid00073 
139230  CA-- 3861 212.91GiB 4MiB nid00974 
139231  CA-- 3861 212.91GiB 4MiB nid00086 
139232  CA-- 3861 212.91GiB 4MiB nid01738 
139233  CA-- 3861 212.91GiB 4MiB nid01353 
139234  CA-- 3861 212.91GiB 4MiB nid00401 
139235  CA-- 3861 212.91GiB 4MiB nid02066 
139236  CA-- 3861 212.91GiB 4MiB nid00469 
139237  CA-- 3861 212.91GiB 4MiB nid00585 
139238  CA-- 3861 212.91GiB 4MiB nid00265 
139239  CA-- 3861 212.91GiB 4MiB nid01610 
139240  CA-- 3861 212.91GiB 4MiB nid02125 
139241  CA-- 3861 212.91GiB 4MiB nid00201 
139242  CA-- 3861 212.91GiB 4MiB nid00145 
139243  CA-- 3861 212.91GiB 4MiB nid00717 
154273  CA-- 4855 212.91GiB 4MiB nid02126 
154993  CA-- 4905 212.91GiB 4MiB nid01357 
158558  CA-- 5071 212.91GiB 4MiB nid02186 
158559  CA-- 5071 212.91GiB 4MiB nid00141 
158560  CA-- 5071 212.91GiB 4MiB nid00530 
158561  CA-- 5071 212.91GiB 4MiB nid01741 
158562  CA-- 5071 212.91GiB 4MiB nid00073 
158727  CA-- 5097 212.91GiB 4MiB nid01226 
158729  CA-- 5099 212.91GiB 4MiB nid01482 
158730  CA-- 5100 212.91GiB 4MiB nid01934 
158731  CA-- 5101 212.91GiB 4MiB nid01682 
158732  CA-- 5102 212.91GiB 4MiB nid01417 
158733  CA-- 5103 212.91GiB 4MiB nid01354 
158734  CA-- 5104 212.91GiB 4MiB nid01938 

   ns state conf   frag span 
49198  CA-- 2503  61379    2 
49200  CA-- 2505  61382    1 
52607  CA-- 2821  73696    5 
56888  CA-- 3923 129824   49 
57145  CA-- 4104 138143  135 
57244  CA-- 4139 139195   49 
58853  CA-- 5132 154273    1 
58903  CA-- 5182 154993    1 
59069  CA-- 5348 158558    5 
59094  CA-- 5373 158727    1 
59097  CA-- 5376 158729    1 
59098  CA-- 5377 158731    1 
59099  CA-- 5378 158730    1 
59100  CA-- 5379 158733    1 
59101  CA-- 5380 158732    1 
59102  CA-- 5381 158734    1 

    node      pool online drain  gran capacity insts activs 
nid00013  wlm_pool   true false 16MiB  5.82TiB     1      0 
nid00014  wlm_pool   true false 16MiB  5.82TiB     2      0 
nid00017  wlm_pool   true false 16MiB  5.82TiB     1      0 
nid00018  wlm_pool   true false 16MiB  5.82TiB     1      0 
nid00073  wlm_pool   true false 16MiB  5.82TiB     4      0 
nid00074  wlm_pool   true false 16MiB  5.82TiB     1      0 
nid00085  wlm_pool   true false 16MiB  5.82TiB     1      0 
nid00086  wlm_pool   true false 16MiB  5.82TiB     3      0 
nid00141  wlm_pool   true false 16MiB  5.82TiB     4      0 
nid00142  wlm_pool   true false 16MiB  5.82TiB     3      0 
nid00145  wlm_pool   true false 16MiB  5.82TiB     3      0 
nid00146  wlm_pool   true false 16MiB  5.82TiB     3      0 
nid00201  wlm_pool   true false 16MiB  5.82TiB     3      0 
nid00202  wlm_pool   true  true 16MiB  5.82TiB     1      0 
nid00205  wlm_pool   true false 16MiB  5.82TiB     2      0 
nid00206  wlm_pool   true false 16MiB  5.82TiB     1      0 
nid00265  wlm_pool   true false 16MiB  5.82TiB     3      0 
nid00266  wlm_pool   true false 16MiB  5.82TiB     1      0 
nid00269  wlm_pool   true false 16MiB  5.82TiB     3      0 
nid00270  wlm_pool   true false 16MiB  5.82TiB     1      0 
nid00329  wlm_pool   true false 16MiB  5.82TiB     1      0 
nid00330  wlm_pool   true false 16MiB  5.82TiB     1      0 
nid00333  wlm_pool   true false 16MiB  5.82TiB     1      0 
nid00334  wlm_pool   true false 16MiB  5.82TiB     1      0 
nid00397  wlm_pool   true false 16MiB  5.82TiB     1      0 
nid00398  wlm_pool   true false 16MiB  5.82TiB     1      0 
nid00401  wlm_pool   true  true 16MiB  5.82TiB     3      0 
nid00402  wlm_pool   true false 16MiB  5.82TiB     1      0 
nid00457  wlm_pool   true false 16MiB  5.82TiB     3      0 
nid00458  wlm_pool   true false 16MiB  5.82TiB     1      0 
nid00469  wlm_pool   true false 16MiB  5.82TiB     3      0 
nid00470  wlm_pool   true false 16MiB  5.82TiB     2      0 
nid00525  wlm_pool   true false 16MiB  5.82TiB     1      0 
nid00526  wlm_pool   true false 16MiB  5.82TiB     3      0 
nid00529  wlm_pool   true false 16MiB  5.82TiB     1      0 
nid00530  wlm_pool   true false 16MiB  5.82TiB     4      0 
nid00585  wlm_pool   true false 16MiB  5.82TiB     3      0 
nid00586  wlm_pool   true false 16MiB  5.82TiB     3      0 
nid00589  wlm_pool   true  true 16MiB  5.82TiB     2      0 
nid00590  wlm_pool   true false 16MiB  5.82TiB     1      0 
nid00649  wlm_pool   true false 16MiB  5.82TiB     1      0 
nid00650  wlm_pool   true false 16MiB  5.82TiB     1      0 
nid00653  wlm_pool   true false 16MiB  5.82TiB     3      0 
nid00654  wlm_pool   true false 16MiB  5.82TiB     1      0 
nid00713  wlm_pool   true false 16MiB  5.82TiB     3      0 
nid00714  wlm_pool   true false 16MiB  5.82TiB     1      0 
nid00717  wlm_pool   true false 16MiB  5.82TiB     3      0 
nid00718  wlm_pool   true false 16MiB  5.82TiB     3      0 
nid00781  wlm_pool   true false 16MiB  5.82TiB     3      0 
nid00782  wlm_pool   true false 16MiB  5.82TiB     3      0 
nid00785  wlm_pool   true false 16MiB  5.82TiB     3      0 
nid00786  wlm_pool   true false 16MiB  5.82TiB     1      0 
nid00841  wlm_pool   true false 16MiB  5.82TiB     1      0 
nid00842  wlm_pool   true false 16MiB  5.82TiB     2      0 
nid00853  wlm_pool   true  true 16MiB  5.82TiB     3      0 
nid00854  wlm_pool   true false 16MiB  5.82TiB     3      0 
nid00909  wlm_pool   true false 16MiB  5.82TiB     1      0 
nid00910  wlm_pool   true false 16MiB  5.82TiB     1      0 
nid00913  wlm_pool   true  true 16MiB  5.82TiB     0      0 
nid00914  wlm_pool   true false 16MiB  5.82TiB     1      0 
nid00969  wlm_pool   true false 16MiB  5.82TiB     1      0 
nid00970  wlm_pool   true false 16MiB  5.82TiB     1      0 
nid00973  wlm_pool   true false 16MiB  5.82TiB     1      0 
nid00974  wlm_pool   true false 16MiB  5.82TiB     3      0 
nid01033  wlm_pool  false  true 16MiB  5.82TiB     3      0 
nid01034  wlm_pool   true  true 16MiB  5.82TiB     2      0 
nid01037  wlm_pool   true false 16MiB  5.82TiB     1      0 
nid01038  wlm_pool  false  true 16MiB  5.82TiB     0      0 
nid01097  wlm_pool   true  true 16MiB  5.82TiB     0      0 
nid01098  wlm_pool   true  true 16MiB  5.82TiB     0      0 
nid01101  wlm_pool   true  true 16MiB  5.82TiB     0      0 
nid01102  wlm_pool   true false 16MiB  5.82TiB     1      0 
nid01165  wlm_pool   true false 16MiB  5.82TiB     1      0 
nid01166  wlm_pool   true false 16MiB  5.82TiB     1      0 
nid01169  wlm_pool   true false 16MiB  5.82TiB     2      0 
nid01170  wlm_pool   true false 16MiB  5.82TiB     1      0 
nid01225  wlm_pool   true false 16MiB  5.82TiB     3      0 
nid01226  wlm_pool   true false 16MiB  5.82TiB     2      0 
nid01237  wlm_pool   true false 16MiB  5.82TiB     3      0 
nid01238  wlm_pool   true false 16MiB  5.82TiB     1      0 
nid01293  wlm_pool   true false 16MiB  5.82TiB     1      0 
nid01294  wlm_pool   true false 16MiB  5.82TiB     1      0 
nid01297  wlm_pool   true false 16MiB  5.82TiB     1      0 
nid01298  wlm_pool   true false 16MiB  5.82TiB     3      0 
nid01353  wlm_pool   true false 16MiB  5.82TiB     3      0 
nid01354  wlm_pool   true false 16MiB  5.82TiB     2      0 
nid01357  wlm_pool   true false 16MiB  5.82TiB     2      0 
nid01358  wlm_pool   true false 16MiB  5.82TiB     1      0 
nid01417  wlm_pool   true false 16MiB  5.82TiB     2      0 
nid01418  wlm_pool   true false 16MiB  5.82TiB     3      0 
nid01421  wlm_pool   true false 16MiB  5.82TiB     1      0 
nid01422  wlm_pool   true  true 16MiB  5.82TiB     0      0 
nid01481  wlm_pool   true false 16MiB  5.82TiB     3      0 
nid01482  wlm_pool   true false 16MiB  5.82TiB     2      0 
nid01485  wlm_pool   true false 16MiB  5.82TiB     3      0 
nid01486  wlm_pool   true false 16MiB  5.82TiB     1      0 
nid01549  wlm_pool   true false 16MiB  5.82TiB     2      0 
nid01550  wlm_pool   true false 16MiB  5.82TiB     1      0 
nid01553  wlm_pool   true false 16MiB  5.82TiB     1      0 
nid01554  wlm_pool   true false 16MiB  5.82TiB     1      0 
nid01609  wlm_pool   true false 16MiB  5.82TiB     1      0 
nid01610  wlm_pool   true false 16MiB  5.82TiB     3      0 
nid01621  wlm_pool   true false 16MiB  5.82TiB     2      0 
nid01622  wlm_pool   true false 16MiB  5.82TiB     1      0 
nid01677  wlm_pool   true false 16MiB  5.82TiB     1      0 
nid01678  wlm_pool   true false 16MiB  5.82TiB     3      0 
nid01681  wlm_pool   true false 16MiB  5.82TiB     1      0 
nid01682  wlm_pool   true false 16MiB  5.82TiB     2      0 
nid01737  wlm_pool   true false 16MiB  5.82TiB     3      0 
nid01738  wlm_pool   true false 16MiB  5.82TiB     3      0 
nid01741  wlm_pool   true false 16MiB  5.82TiB     4      0 
nid01742  wlm_pool   true false 16MiB  5.82TiB     1      0 
nid01801  wlm_pool   true false 16MiB  5.82TiB     2      0 
nid01802  wlm_pool   true false 16MiB  5.82TiB     3      0 
nid01805  wlm_pool   true false 16MiB  5.82TiB     1      0 
nid01806  wlm_pool   true false 16MiB  5.82TiB     3      0 
nid01865  wlm_pool   true  true 16MiB  5.82TiB     0      0 
nid01866  wlm_pool   true false 16MiB  5.82TiB     1      0 
nid01869  wlm_pool   true false 16MiB  5.82TiB     1      0 
nid01870  wlm_pool   true false 16MiB  5.82TiB     1      0 
nid01933  wlm_pool   true false 16MiB  5.82TiB     1      0 
nid01934  wlm_pool   true false 16MiB  5.82TiB     2      0 
nid01937  wlm_pool   true  true 16MiB  5.82TiB     1      0 
nid01938  wlm_pool   true false 16MiB  5.82TiB     2      0 
nid01993  wlm_pool   true  true 16MiB  5.82TiB     0      0 
nid01994  wlm_pool   true false 16MiB  5.82TiB     2      0 
nid02005  wlm_pool   true false 16MiB  5.82TiB     1      0 
nid02006  wlm_pool   true false 16MiB  5.82TiB     2      0 
nid02061  wlm_pool   true false 16MiB  5.82TiB     1      0 
nid02062  wlm_pool   true  true 16MiB  5.82TiB     3      0 
nid02065  wlm_pool   true false 16MiB  5.82TiB     1      0 
nid02066  wlm_pool   true false 16MiB  5.82TiB     3      0 
nid02121  wlm_pool   true false 16MiB  5.82TiB     1      0 
nid02122  wlm_pool   true false 16MiB  5.82TiB     1      0 
nid02125  wlm_pool   true false 16MiB  5.82TiB     3      0 
nid02126  wlm_pool   true false 16MiB  5.82TiB     2      0 
nid02185  wlm_pool   true false 16MiB  5.82TiB     1      0 
nid02186  wlm_pool   true false 16MiB  5.82TiB     4      0 
nid02189  wlm_pool   true false 16MiB  5.82TiB     3      0 
nid02190  wlm_pool   true false 16MiB  5.82TiB     1      0 
nid02249  wlm_pool   true false 16MiB  5.82TiB     2      0 
nid02250  wlm_pool   true false 16MiB  5.82TiB     1      0 
nid02253  wlm_pool   true false 16MiB  5.82TiB     2      0 
nid02254 test_pool   true false 16MiB  5.82TiB     0      0 

Sun Apr 17 22:36:18 PDT 2016 - Found DataWarp/DVS fs stats file at /proc/fs/dvs/mounts/13/stats
MPIIO: unrecognized DVS real_fs_magic=0XBBFBBF10  ADIOI_CRAY_dvs_real_fstype:1246  using default optimizations
MPIIO WARNING: DVS stripe width of 32 was requested but DVS set it to 1
See MPICH_MPIIO_DVS_MAXNODES in the intro_mpi man page.
MPIIO: unrecognized DVS real_fs_magic=0XBBFBBF10  ADIOI_CRAY_dvs_real_fstype:1246  using default optimizations
MPIIO WARNING: DVS stripe width of 32 was requested but DVS set it to 1
See MPICH_MPIIO_DVS_MAXNODES in the intro_mpi man page.
MPIIO: unrecognized DVS real_fs_magic=0XBBFBBF10  ADIOI_CRAY_dvs_real_fstype:1246  using default optimizations
MPIIO WARNING: DVS stripe width of 32 was requested but DVS set it to 1
See MPICH_MPIIO_DVS_MAXNODES in the intro_mpi man page.
MPIIO: unrecognized DVS real_fs_magic=0XBBFBBF10  ADIOI_CRAY_dvs_real_fstype:1246  using default optimizations
MPIIO WARNING: DVS stripe width of 32 was requested but DVS set it to 1
See MPICH_MPIIO_DVS_MAXNODES in the intro_mpi man page.
MPIIO: unrecognized DVS real_fs_magic=0XBBFBBF10  ADIOI_CRAY_dvs_real_fstype:1246  using default optimizations
MPIIO WARNING: DVS stripe width of 32 was requested but DVS set it to 1
See MPICH_MPIIO_DVS_MAXNODES in the intro_mpi man page.
MPIIO: unrecognized DVS real_fs_magic=0XBBFBBF10  ADIOI_CRAY_dvs_real_fstype:1246  using default optimizations
MPIIO WARNING: DVS stripe width of 32 was requested but DVS set it to 1
See MPICH_MPIIO_DVS_MAXNODES in the intro_mpi man page.
MPIIO: unrecognized DVS real_fs_magic=0XBBFBBF10  ADIOI_CRAY_dvs_real_fstype:1246  using default optimizations
MPIIO WARNING: DVS stripe width of 32 was requested but DVS set it to 1
See MPICH_MPIIO_DVS_MAXNODES in the intro_mpi man page.
MPIIO: unrecognized DVS real_fs_magic=0XBBFBBF10  ADIOI_CRAY_dvs_real_fstype:1246  using default optimizations
MPIIO WARNING: DVS stripe width of 32 was requested but DVS set it to 1
See MPICH_MPIIO_DVS_MAXNODES in the intro_mpi man page.
Number of paritcles: 33554432 
Finished initializing particles 
Opened H5Part file... 
Before writing particles 
Step is set 
Num particles is set 
Rank: 0, wrote 128.00 MB, time: 0.836095 sec; rate: 153.092651
Written variable 1 
Written variable 2 
Rank: 0, wrote 128.00 MB, time: 0.871954 sec; rate: 146.796738
Written variable 3 
Rank: 0, wrote 128.00 MB, time: 0.846541 sec; rate: 151.203552
Written variable 4 
Rank: 0, wrote 128.00 MB, time: 0.809953 sec; rate: 158.033859
Written variable 5 
Rank: 0, wrote 128.00 MB, time: 0.875479 sec; rate: 146.205673
Written variable 6 
Rank: 0, wrote 128.00 MB, time: 1.067339 sec; rate: 119.924416
Written variable 7 
Rank: 0, wrote 128.00 MB, time: 0.911112 sec; rate: 140.487671
Written variable 8 
Rank: 0, wrote 128.00 MB, time: 0.882559 sec; rate: 145.032791
After writing particles 
After closing particles 

Timing results
7.101248 seconds elapsed in just writing data
8.226169 seconds elapsed in opening, writing, closing file

Number of paritcles: 33554432 
Finished initializing particles 
Opened H5Part file... 
Before writing particles 
Step is set 
Num particles is set 
Rank: 0, wrote 128.00 MB, time: 0.768034 sec; rate: 166.659286
Written variable 1 
Written variable 2 
Rank: 0, wrote 128.00 MB, time: 0.803520 sec; rate: 159.299072
Written variable 3 
Rank: 0, wrote 128.00 MB, time: 0.908425 sec; rate: 140.903214
Written variable 4 
Rank: 0, wrote 128.00 MB, time: 1.077231 sec; rate: 118.823166
Written variable 5 
Rank: 0, wrote 128.00 MB, time: 0.910672 sec; rate: 140.555542
Written variable 6 
Rank: 0, wrote 128.00 MB, time: 1.165062 sec; rate: 109.865402
Written variable 7 
Rank: 0, wrote 128.00 MB, time: 0.794494 sec; rate: 161.108841
Written variable 8 
Rank: 0, wrote 128.00 MB, time: 0.843504 sec; rate: 151.747940
After writing particles 
After closing particles 

Timing results
7.307069 seconds elapsed in just writing data
8.501961 seconds elapsed in opening, writing, closing file

Number of paritcles: 33554432 
Finished initializing particles 
Opened H5Part file... 
Before writing particles 
Step is set 
Num particles is set 
Rank: 0, wrote 128.00 MB, time: 0.716671 sec; rate: 178.603577
Written variable 1 
Written variable 2 
Rank: 0, wrote 128.00 MB, time: 1.015169 sec; rate: 126.087379
Written variable 3 
Rank: 0, wrote 128.00 MB, time: 1.180336 sec; rate: 108.443695
Written variable 4 
Rank: 0, wrote 128.00 MB, time: 0.912915 sec; rate: 140.210205
Written variable 5 
Rank: 0, wrote 128.00 MB, time: 1.078266 sec; rate: 118.709106
Written variable 6 
Rank: 0, wrote 128.00 MB, time: 0.726856 sec; rate: 176.100906
Written variable 7 
Rank: 0, wrote 128.00 MB, time: 0.659602 sec; rate: 194.056427
Written variable 8 
Rank: 0, wrote 128.00 MB, time: 1.190109 sec; rate: 107.553169
After writing particles 
After closing particles 

Timing results
7.480197 seconds elapsed in just writing data
8.432588 seconds elapsed in opening, writing, closing file

Number of paritcles: 33554432 
Finished initializing particles 
Opened H5Part file... 
Before writing particles 
Step is set 
Num particles is set 
Rank: 0, wrote 128.00 MB, time: 0.845628 sec; rate: 151.366791
Written variable 1 
Written variable 2 
Rank: 0, wrote 128.00 MB, time: 0.836260 sec; rate: 153.062439
Written variable 3 
Rank: 0, wrote 128.00 MB, time: 1.130087 sec; rate: 113.265617
Written variable 4 
Rank: 0, wrote 128.00 MB, time: 0.866517 sec; rate: 147.717819
Written variable 5 
Rank: 0, wrote 128.00 MB, time: 0.761964 sec; rate: 167.986938
Written variable 6 
Rank: 0, wrote 128.00 MB, time: 0.868876 sec; rate: 147.316772
Written variable 7 
Rank: 0, wrote 128.00 MB, time: 1.014225 sec; rate: 126.204735
Written variable 8 
Rank: 0, wrote 128.00 MB, time: 0.622565 sec; rate: 205.601028
After writing particles 
After closing particles 

Timing results
6.946350 seconds elapsed in just writing data
7.531933 seconds elapsed in opening, writing, closing file

Number of paritcles: 33554432 
Finished initializing particles 
Opened H5Part file... 
Before writing particles 
Step is set 
Num particles is set 
Rank: 0, wrote 128.00 MB, time: 0.904758 sec; rate: 141.474304
Written variable 1 
Written variable 2 
Rank: 0, wrote 128.00 MB, time: 0.952756 sec; rate: 134.347092
Written variable 3 
Rank: 0, wrote 128.00 MB, time: 1.101544 sec; rate: 116.200531
Written variable 4 
Rank: 0, wrote 128.00 MB, time: 0.681373 sec; rate: 187.855988
Written variable 5 
Rank: 0, wrote 128.00 MB, time: 0.868461 sec; rate: 147.387161
Written variable 6 
Rank: 0, wrote 128.00 MB, time: 0.935576 sec; rate: 136.814102
Written variable 7 
Rank: 0, wrote 128.00 MB, time: 0.722264 sec; rate: 177.220520
Written variable 8 
Rank: 0, wrote 128.00 MB, time: 0.514003 sec; rate: 249.025787
After writing particles 
After closing particles 

Timing results
6.680969 seconds elapsed in just writing data
7.449778 seconds elapsed in opening, writing, closing file

Number of paritcles: 33554432 
Finished initializing particles 
Opened H5Part file... 
Before writing particles 
Step is set 
Num particles is set 
Rank: 0, wrote 128.00 MB, time: 0.727695 sec; rate: 175.897873
Written variable 1 
Written variable 2 
Rank: 0, wrote 128.00 MB, time: 0.971276 sec; rate: 131.785400
Written variable 3 
Rank: 0, wrote 128.00 MB, time: 1.073610 sec; rate: 119.223930
Written variable 4 
Rank: 0, wrote 128.00 MB, time: 0.856777 sec; rate: 149.397095
Written variable 5 
Rank: 0, wrote 128.00 MB, time: 0.879471 sec; rate: 145.542038
Written variable 6 
Rank: 0, wrote 128.00 MB, time: 1.009172 sec; rate: 126.836662
Written variable 7 
Rank: 0, wrote 128.00 MB, time: 0.700862 sec; rate: 182.632248
Written variable 8 
Rank: 0, wrote 128.00 MB, time: 0.597589 sec; rate: 214.194031
After writing particles 
After closing particles 

Timing results
6.816681 seconds elapsed in just writing data
7.453334 seconds elapsed in opening, writing, closing file

Number of paritcles: 33554432 
Finished initializing particles 
Opened H5Part file... 
Before writing particles 
Step is set 
Num particles is set 
Rank: 0, wrote 128.00 MB, time: 0.737903 sec; rate: 173.464539
Written variable 1 
Written variable 2 
Rank: 0, wrote 128.00 MB, time: 1.436480 sec; rate: 89.106705
Written variable 3 
Rank: 0, wrote 128.00 MB, time: 0.740037 sec; rate: 172.964325
Written variable 4 
Rank: 0, wrote 128.00 MB, time: 0.749996 sec; rate: 170.667572
Written variable 5 
Rank: 0, wrote 128.00 MB, time: 1.105384 sec; rate: 115.796867
Written variable 6 
Rank: 0, wrote 128.00 MB, time: 0.842742 sec; rate: 151.885147
Written variable 7 
Rank: 0, wrote 128.00 MB, time: 0.510921 sec; rate: 250.527969
Written variable 8 
Rank: 0, wrote 128.00 MB, time: 0.646100 sec; rate: 198.111755
After writing particles 
After closing particles 

Timing results
6.769801 seconds elapsed in just writing data
7.249550 seconds elapsed in opening, writing, closing file

Number of paritcles: 33554432 
Finished initializing particles 
Opened H5Part file... 
Before writing particles 
Step is set 
Num particles is set 
Rank: 0, wrote 128.00 MB, time: 0.851938 sec; rate: 150.245667
Written variable 1 
Written variable 2 
Rank: 0, wrote 128.00 MB, time: 0.921417 sec; rate: 138.916473
Written variable 3 
Rank: 0, wrote 128.00 MB, time: 0.909083 sec; rate: 140.801224
Written variable 4 
Rank: 0, wrote 128.00 MB, time: 0.487025 sec; rate: 262.820190
Written variable 5 
Rank: 0, wrote 128.00 MB, time: 0.553640 sec; rate: 231.197159
Written variable 6 
Rank: 0, wrote 128.00 MB, time: 0.648088 sec; rate: 197.504044
Written variable 7 
Rank: 0, wrote 128.00 MB, time: 0.577110 sec; rate: 221.794815
Written variable 8 
Rank: 0, wrote 128.00 MB, time: 0.420003 sec; rate: 304.759735
After writing particles 
After closing particles 

Timing results
5.368536 seconds elapsed in just writing data
5.595775 seconds elapsed in opening, writing, closing file

Sun Apr 17 22:36:54 PDT 2016 - Found DataWarp/DVS fs stats file at /proc/fs/dvs/mounts/13/stats
total 16777280
-rw-r----- 1 mbryson mbryson 2147489928 Apr 17 22:37 sample1.h5part
-rw-r----- 1 mbryson mbryson 2147489928 Apr 17 22:37 sample2.h5part
-rw-r----- 1 mbryson mbryson 2147489928 Apr 17 22:37 sample3.h5part
-rw-r----- 1 mbryson mbryson 2147489928 Apr 17 22:37 sample4.h5part
-rw-r----- 1 mbryson mbryson 2147489928 Apr 17 22:37 sample5.h5part
-rw-r----- 1 mbryson mbryson 2147489928 Apr 17 22:37 sample6.h5part
-rw-r----- 1 mbryson mbryson 2147489928 Apr 17 22:37 sample7.h5part
-rw-r----- 1 mbryson mbryson 2147489928 Apr 17 22:37 sample8.h5part
total 17G
-rw-r----- 1 mbryson mbryson 2.1G Apr 17 22:37 sample1.h5part
-rw-r----- 1 mbryson mbryson 2.1G Apr 17 22:37 sample2.h5part
-rw-r----- 1 mbryson mbryson 2.1G Apr 17 22:37 sample3.h5part
-rw-r----- 1 mbryson mbryson 2.1G Apr 17 22:37 sample4.h5part
-rw-r----- 1 mbryson mbryson 2.1G Apr 17 22:37 sample5.h5part
-rw-r----- 1 mbryson mbryson 2.1G Apr 17 22:37 sample6.h5part
-rw-r----- 1 mbryson mbryson 2.1G Apr 17 22:37 sample7.h5part
-rw-r----- 1 mbryson mbryson 2.1G Apr 17 22:37 sample8.h5part
Sun Apr 17 22:37:08 2016: [unset]:_pmi_alps_get_apid:alps response not OKAY
Sun Apr 17 22:37:08 2016: [unset]:_pmi_init:_pmi_alps_init returned -1
HDF5 "/var/opt/cray/dws/mounts/batch/1911322/ss//output_8S/sample1.h5part" {
GROUP "/" {
   ATTRIBUTE "Origin" {
      DATATYPE  H5T_STRING {
         STRSIZE 15;
         STRPAD H5T_STR_NULLTERM;
         CSET H5T_CSET_ASCII;
         CTYPE H5T_C_S1;
      }
      DATASPACE  SCALAR
   }
   GROUP "Step#0" {
      DATASET "id1" {
         DATATYPE  H5T_STD_I32LE
         DATASPACE  SIMPLE { ( 67108864 ) / ( 67108864 ) }
      }
      DATASET "id2" {
         DATATYPE  H5T_STD_I32LE
         DATASPACE  SIMPLE { ( 67108864 ) / ( 67108864 ) }
      }
      DATASET "px" {
         DATATYPE  H5T_IEEE_F32LE
         DATASPACE  SIMPLE { ( 67108864 ) / ( 67108864 ) }
      }
      DATASET "py" {
         DATATYPE  H5T_IEEE_F32LE
         DATASPACE  SIMPLE { ( 67108864 ) / ( 67108864 ) }
      }
      DATASET "pz" {
         DATATYPE  H5T_IEEE_F32LE
         DATASPACE  SIMPLE { ( 67108864 ) / ( 67108864 ) }
      }
      DATASET "x" {
         DATATYPE  H5T_IEEE_F32LE
         DATASPACE  SIMPLE { ( 67108864 ) / ( 67108864 ) }
      }
      DATASET "y" {
         DATATYPE  H5T_IEEE_F32LE
         DATASPACE  SIMPLE { ( 67108864 ) / ( 67108864 ) }
      }
      DATASET "z" {
         DATATYPE  H5T_IEEE_F32LE
         DATASPACE  SIMPLE { ( 67108864 ) / ( 67108864 ) }
      }
   }
}
}
Sun Apr 17 22:37:08 2016: [unset]:_pmi_alps_get_apid:alps response not OKAY
Sun Apr 17 22:37:08 2016: [unset]:_pmi_init:_pmi_alps_init returned -1
HDF5 "/var/opt/cray/dws/mounts/batch/1911322/ss//output_8S/sample2.h5part" {
GROUP "/" {
   ATTRIBUTE "Origin" {
      DATATYPE  H5T_STRING {
         STRSIZE 15;
         STRPAD H5T_STR_NULLTERM;
         CSET H5T_CSET_ASCII;
         CTYPE H5T_C_S1;
      }
      DATASPACE  SCALAR
   }
   GROUP "Step#0" {
      DATASET "id1" {
         DATATYPE  H5T_STD_I32LE
         DATASPACE  SIMPLE { ( 67108864 ) / ( 67108864 ) }
      }
      DATASET "id2" {
         DATATYPE  H5T_STD_I32LE
         DATASPACE  SIMPLE { ( 67108864 ) / ( 67108864 ) }
      }
      DATASET "px" {
         DATATYPE  H5T_IEEE_F32LE
         DATASPACE  SIMPLE { ( 67108864 ) / ( 67108864 ) }
      }
      DATASET "py" {
         DATATYPE  H5T_IEEE_F32LE
         DATASPACE  SIMPLE { ( 67108864 ) / ( 67108864 ) }
      }
      DATASET "pz" {
         DATATYPE  H5T_IEEE_F32LE
         DATASPACE  SIMPLE { ( 67108864 ) / ( 67108864 ) }
      }
      DATASET "x" {
         DATATYPE  H5T_IEEE_F32LE
         DATASPACE  SIMPLE { ( 67108864 ) / ( 67108864 ) }
      }
      DATASET "y" {
         DATATYPE  H5T_IEEE_F32LE
         DATASPACE  SIMPLE { ( 67108864 ) / ( 67108864 ) }
      }
      DATASET "z" {
         DATATYPE  H5T_IEEE_F32LE
         DATASPACE  SIMPLE { ( 67108864 ) / ( 67108864 ) }
      }
   }
}
}
Sun Apr 17 22:37:08 2016: [unset]:_pmi_alps_get_apid:alps response not OKAY
Sun Apr 17 22:37:08 2016: [unset]:_pmi_init:_pmi_alps_init returned -1
HDF5 "/var/opt/cray/dws/mounts/batch/1911322/ss//output_8S/sample3.h5part" {
GROUP "/" {
   ATTRIBUTE "Origin" {
      DATATYPE  H5T_STRING {
         STRSIZE 15;
         STRPAD H5T_STR_NULLTERM;
         CSET H5T_CSET_ASCII;
         CTYPE H5T_C_S1;
      }
      DATASPACE  SCALAR
   }
   GROUP "Step#0" {
      DATASET "id1" {
         DATATYPE  H5T_STD_I32LE
         DATASPACE  SIMPLE { ( 67108864 ) / ( 67108864 ) }
      }
      DATASET "id2" {
         DATATYPE  H5T_STD_I32LE
         DATASPACE  SIMPLE { ( 67108864 ) / ( 67108864 ) }
      }
      DATASET "px" {
         DATATYPE  H5T_IEEE_F32LE
         DATASPACE  SIMPLE { ( 67108864 ) / ( 67108864 ) }
      }
      DATASET "py" {
         DATATYPE  H5T_IEEE_F32LE
         DATASPACE  SIMPLE { ( 67108864 ) / ( 67108864 ) }
      }
      DATASET "pz" {
         DATATYPE  H5T_IEEE_F32LE
         DATASPACE  SIMPLE { ( 67108864 ) / ( 67108864 ) }
      }
      DATASET "x" {
         DATATYPE  H5T_IEEE_F32LE
         DATASPACE  SIMPLE { ( 67108864 ) / ( 67108864 ) }
      }
      DATASET "y" {
         DATATYPE  H5T_IEEE_F32LE
         DATASPACE  SIMPLE { ( 67108864 ) / ( 67108864 ) }
      }
      DATASET "z" {
         DATATYPE  H5T_IEEE_F32LE
         DATASPACE  SIMPLE { ( 67108864 ) / ( 67108864 ) }
      }
   }
}
}
Sun Apr 17 22:37:09 2016: [unset]:_pmi_alps_get_apid:alps response not OKAY
Sun Apr 17 22:37:09 2016: [unset]:_pmi_init:_pmi_alps_init returned -1
HDF5 "/var/opt/cray/dws/mounts/batch/1911322/ss//output_8S/sample4.h5part" {
GROUP "/" {
   ATTRIBUTE "Origin" {
      DATATYPE  H5T_STRING {
         STRSIZE 15;
         STRPAD H5T_STR_NULLTERM;
         CSET H5T_CSET_ASCII;
         CTYPE H5T_C_S1;
      }
      DATASPACE  SCALAR
   }
   GROUP "Step#0" {
      DATASET "id1" {
         DATATYPE  H5T_STD_I32LE
         DATASPACE  SIMPLE { ( 67108864 ) / ( 67108864 ) }
      }
      DATASET "id2" {
         DATATYPE  H5T_STD_I32LE
         DATASPACE  SIMPLE { ( 67108864 ) / ( 67108864 ) }
      }
      DATASET "px" {
         DATATYPE  H5T_IEEE_F32LE
         DATASPACE  SIMPLE { ( 67108864 ) / ( 67108864 ) }
      }
      DATASET "py" {
         DATATYPE  H5T_IEEE_F32LE
         DATASPACE  SIMPLE { ( 67108864 ) / ( 67108864 ) }
      }
      DATASET "pz" {
         DATATYPE  H5T_IEEE_F32LE
         DATASPACE  SIMPLE { ( 67108864 ) / ( 67108864 ) }
      }
      DATASET "x" {
         DATATYPE  H5T_IEEE_F32LE
         DATASPACE  SIMPLE { ( 67108864 ) / ( 67108864 ) }
      }
      DATASET "y" {
         DATATYPE  H5T_IEEE_F32LE
         DATASPACE  SIMPLE { ( 67108864 ) / ( 67108864 ) }
      }
      DATASET "z" {
         DATATYPE  H5T_IEEE_F32LE
         DATASPACE  SIMPLE { ( 67108864 ) / ( 67108864 ) }
      }
   }
}
}
Sun Apr 17 22:37:09 2016: [unset]:_pmi_alps_get_apid:alps response not OKAY
Sun Apr 17 22:37:09 2016: [unset]:_pmi_init:_pmi_alps_init returned -1
HDF5 "/var/opt/cray/dws/mounts/batch/1911322/ss//output_8S/sample5.h5part" {
GROUP "/" {
   ATTRIBUTE "Origin" {
      DATATYPE  H5T_STRING {
         STRSIZE 15;
         STRPAD H5T_STR_NULLTERM;
         CSET H5T_CSET_ASCII;
         CTYPE H5T_C_S1;
      }
      DATASPACE  SCALAR
   }
   GROUP "Step#0" {
      DATASET "id1" {
         DATATYPE  H5T_STD_I32LE
         DATASPACE  SIMPLE { ( 67108864 ) / ( 67108864 ) }
      }
      DATASET "id2" {
         DATATYPE  H5T_STD_I32LE
         DATASPACE  SIMPLE { ( 67108864 ) / ( 67108864 ) }
      }
      DATASET "px" {
         DATATYPE  H5T_IEEE_F32LE
         DATASPACE  SIMPLE { ( 67108864 ) / ( 67108864 ) }
      }
      DATASET "py" {
         DATATYPE  H5T_IEEE_F32LE
         DATASPACE  SIMPLE { ( 67108864 ) / ( 67108864 ) }
      }
      DATASET "pz" {
         DATATYPE  H5T_IEEE_F32LE
         DATASPACE  SIMPLE { ( 67108864 ) / ( 67108864 ) }
      }
      DATASET "x" {
         DATATYPE  H5T_IEEE_F32LE
         DATASPACE  SIMPLE { ( 67108864 ) / ( 67108864 ) }
      }
      DATASET "y" {
         DATATYPE  H5T_IEEE_F32LE
         DATASPACE  SIMPLE { ( 67108864 ) / ( 67108864 ) }
      }
      DATASET "z" {
         DATATYPE  H5T_IEEE_F32LE
         DATASPACE  SIMPLE { ( 67108864 ) / ( 67108864 ) }
      }
   }
}
}
Sun Apr 17 22:37:09 2016: [unset]:_pmi_alps_get_apid:alps response not OKAY
Sun Apr 17 22:37:09 2016: [unset]:_pmi_init:_pmi_alps_init returned -1
HDF5 "/var/opt/cray/dws/mounts/batch/1911322/ss//output_8S/sample6.h5part" {
GROUP "/" {
   ATTRIBUTE "Origin" {
      DATATYPE  H5T_STRING {
         STRSIZE 15;
         STRPAD H5T_STR_NULLTERM;
         CSET H5T_CSET_ASCII;
         CTYPE H5T_C_S1;
      }
      DATASPACE  SCALAR
   }
   GROUP "Step#0" {
      DATASET "id1" {
         DATATYPE  H5T_STD_I32LE
         DATASPACE  SIMPLE { ( 67108864 ) / ( 67108864 ) }
      }
      DATASET "id2" {
         DATATYPE  H5T_STD_I32LE
         DATASPACE  SIMPLE { ( 67108864 ) / ( 67108864 ) }
      }
      DATASET "px" {
         DATATYPE  H5T_IEEE_F32LE
         DATASPACE  SIMPLE { ( 67108864 ) / ( 67108864 ) }
      }
      DATASET "py" {
         DATATYPE  H5T_IEEE_F32LE
         DATASPACE  SIMPLE { ( 67108864 ) / ( 67108864 ) }
      }
      DATASET "pz" {
         DATATYPE  H5T_IEEE_F32LE
         DATASPACE  SIMPLE { ( 67108864 ) / ( 67108864 ) }
      }
      DATASET "x" {
         DATATYPE  H5T_IEEE_F32LE
         DATASPACE  SIMPLE { ( 67108864 ) / ( 67108864 ) }
      }
      DATASET "y" {
         DATATYPE  H5T_IEEE_F32LE
         DATASPACE  SIMPLE { ( 67108864 ) / ( 67108864 ) }
      }
      DATASET "z" {
         DATATYPE  H5T_IEEE_F32LE
         DATASPACE  SIMPLE { ( 67108864 ) / ( 67108864 ) }
      }
   }
}
}
Sun Apr 17 22:37:09 2016: [unset]:_pmi_alps_get_apid:alps response not OKAY
Sun Apr 17 22:37:09 2016: [unset]:_pmi_init:_pmi_alps_init returned -1
HDF5 "/var/opt/cray/dws/mounts/batch/1911322/ss//output_8S/sample7.h5part" {
GROUP "/" {
   ATTRIBUTE "Origin" {
      DATATYPE  H5T_STRING {
         STRSIZE 15;
         STRPAD H5T_STR_NULLTERM;
         CSET H5T_CSET_ASCII;
         CTYPE H5T_C_S1;
      }
      DATASPACE  SCALAR
   }
   GROUP "Step#0" {
      DATASET "id1" {
         DATATYPE  H5T_STD_I32LE
         DATASPACE  SIMPLE { ( 67108864 ) / ( 67108864 ) }
      }
      DATASET "id2" {
         DATATYPE  H5T_STD_I32LE
         DATASPACE  SIMPLE { ( 67108864 ) / ( 67108864 ) }
      }
      DATASET "px" {
         DATATYPE  H5T_IEEE_F32LE
         DATASPACE  SIMPLE { ( 67108864 ) / ( 67108864 ) }
      }
      DATASET "py" {
         DATATYPE  H5T_IEEE_F32LE
         DATASPACE  SIMPLE { ( 67108864 ) / ( 67108864 ) }
      }
      DATASET "pz" {
         DATATYPE  H5T_IEEE_F32LE
         DATASPACE  SIMPLE { ( 67108864 ) / ( 67108864 ) }
      }
      DATASET "x" {
         DATATYPE  H5T_IEEE_F32LE
         DATASPACE  SIMPLE { ( 67108864 ) / ( 67108864 ) }
      }
      DATASET "y" {
         DATATYPE  H5T_IEEE_F32LE
         DATASPACE  SIMPLE { ( 67108864 ) / ( 67108864 ) }
      }
      DATASET "z" {
         DATATYPE  H5T_IEEE_F32LE
         DATASPACE  SIMPLE { ( 67108864 ) / ( 67108864 ) }
      }
   }
}
}
Sun Apr 17 22:37:09 2016: [unset]:_pmi_alps_get_apid:alps response not OKAY
Sun Apr 17 22:37:09 2016: [unset]:_pmi_init:_pmi_alps_init returned -1
HDF5 "/var/opt/cray/dws/mounts/batch/1911322/ss//output_8S/sample8.h5part" {
GROUP "/" {
   ATTRIBUTE "Origin" {
      DATATYPE  H5T_STRING {
         STRSIZE 15;
         STRPAD H5T_STR_NULLTERM;
         CSET H5T_CSET_ASCII;
         CTYPE H5T_C_S1;
      }
      DATASPACE  SCALAR
   }
   GROUP "Step#0" {
      DATASET "id1" {
         DATATYPE  H5T_STD_I32LE
         DATASPACE  SIMPLE { ( 67108864 ) / ( 67108864 ) }
      }
      DATASET "id2" {
         DATATYPE  H5T_STD_I32LE
         DATASPACE  SIMPLE { ( 67108864 ) / ( 67108864 ) }
      }
      DATASET "px" {
         DATATYPE  H5T_IEEE_F32LE
         DATASPACE  SIMPLE { ( 67108864 ) / ( 67108864 ) }
      }
      DATASET "py" {
         DATATYPE  H5T_IEEE_F32LE
         DATASPACE  SIMPLE { ( 67108864 ) / ( 67108864 ) }
      }
      DATASET "pz" {
         DATATYPE  H5T_IEEE_F32LE
         DATASPACE  SIMPLE { ( 67108864 ) / ( 67108864 ) }
      }
      DATASET "x" {
         DATATYPE  H5T_IEEE_F32LE
         DATASPACE  SIMPLE { ( 67108864 ) / ( 67108864 ) }
      }
      DATASET "y" {
         DATATYPE  H5T_IEEE_F32LE
         DATASPACE  SIMPLE { ( 67108864 ) / ( 67108864 ) }
      }
      DATASET "z" {
         DATATYPE  H5T_IEEE_F32LE
         DATASPACE  SIMPLE { ( 67108864 ) / ( 67108864 ) }
      }
   }
}
}
seconds for all jobs
30
